tb_ual.vcd
$date
  Fri Feb  8 23:50:13 2019
$end
$version
  GHDL v0
$end
$timescale
  1 fs
$end
$var reg 1 ! reset $end
$var reg 1 " clk $end
$var reg 1 # s_selec_op $end
$var reg 8 $ s_data_l[7:0] $end
$var reg 8 % s_data_r[7:0] $end
$var reg 8 & s_data[7:0] $end
$var reg 1 ' s_carry $end
$scope module ual_i $end
$var reg 1 ( i_selec_op $end
$var reg 8 ) i_data_l[7:0] $end
$var reg 8 * i_data_r[7:0] $end
$var reg 8 + o_data[7:0] $end
$var reg 1 , o_carry $end
$var reg 8 - s_data_add[7:0] $end
$var reg 1 . s_carry_add $end
$scope module addi_n_bits_i $end
$var reg 8 / i_data_l[7:0] $end
$var reg 8 0 i_data_r[7:0] $end
$var reg 8 1 o_data[7:0] $end
$var reg 1 2 o_carry $end
$var reg 9 3 s_carry[8:0] $end
$scope module addi_n(0) $end
$scope module addi_1 $end
$var reg 1 4 i_data_l $end
$var reg 1 5 i_data_r $end
$var reg 1 6 i_carry $end
$var reg 1 7 o_data $end
$var reg 1 8 o_carry $end
$upscope $end
$upscope $end
$scope module addi_n(1) $end
$scope module addi_1 $end
$var reg 1 9 i_data_l $end
$var reg 1 : i_data_r $end
$var reg 1 ; i_carry $end
$var reg 1 < o_data $end
$var reg 1 = o_carry $end
$upscope $end
$upscope $end
$scope module addi_n(2) $end
$scope module addi_1 $end
$var reg 1 > i_data_l $end
$var reg 1 ? i_data_r $end
$var reg 1 @ i_carry $end
$var reg 1 A o_data $end
$var reg 1 B o_carry $end
$upscope $end
$upscope $end
$scope module addi_n(3) $end
$scope module addi_1 $end
$var reg 1 C i_data_l $end
$var reg 1 D i_data_r $end
$var reg 1 E i_carry $end
$var reg 1 F o_data $end
$var reg 1 G o_carry $end
$upscope $end
$upscope $end
$scope module addi_n(4) $end
$scope module addi_1 $end
$var reg 1 H i_data_l $end
$var reg 1 I i_data_r $end
$var reg 1 J i_carry $end
$var reg 1 K o_data $end
$var reg 1 L o_carry $end
$upscope $end
$upscope $end
$scope module addi_n(5) $end
$scope module addi_1 $end
$var reg 1 M i_data_l $end
$var reg 1 N i_data_r $end
$var reg 1 O i_carry $end
$var reg 1 P o_data $end
$var reg 1 Q o_carry $end
$upscope $end
$upscope $end
$scope module addi_n(6) $end
$scope module addi_1 $end
$var reg 1 R i_data_l $end
$var reg 1 S i_data_r $end
$var reg 1 T i_carry $end
$var reg 1 U o_data $end
$var reg 1 V o_carry $end
$upscope $end
$upscope $end
$scope module addi_n(7) $end
$scope module addi_1 $end
$var reg 1 W i_data_l $end
$var reg 1 X i_data_r $end
$var reg 1 Y i_carry $end
$var reg 1 Z o_data $end
$var reg 1 [ o_carry $end
$upscope $end
$upscope $end
$upscope $end
$upscope $end
$enddefinitions $end
#0
1!
0"
1#
b00000000 $
b00000000 %
b00000000 &
0'
1(
b00000000 )
b00000000 *
b00000000 +
0,
b00000000 -
0.
b00000000 /
b00000000 0
b00000000 1
02
b000000000 3
04
05
06
07
08
09
0:
0;
0<
0=
0>
0?
0@
0A
0B
0C
0D
0E
0F
0G
0H
0I
0J
0K
0L
0M
0N
0O
0P
0Q
0R
0S
0T
0U
0V
0W
0X
0Y
0Z
0[
#5000000
1"
0#
b00000001 $
b11111110 &
0(
b00000001 )
b11111110 +
b00000001 -
b00000001 /
b00000001 1
14
17
#10000000
0"
#15000000
1"
b00000010 $
b11111101 &
b00000010 )
b11111101 +
b00000010 -
b00000010 /
b00000010 1
04
07
19
1<
#20000000
0!
0"
#25000000
1"
b00000011 $
b11111100 &
b00000011 )
b11111100 +
b00000011 -
b00000011 /
b00000011 1
14
17
#30000000
0"
#35000000
1"
b00000100 $
b11111011 &
b00000100 )
b11111011 +
b00000100 -
b00000100 /
b00000100 1
04
07
09
0<
1>
1A
#40000000
0"
#45000000
1"
b00000101 $
b11111010 &
b00000101 )
b11111010 +
b00000101 -
b00000101 /
b00000101 1
14
17
#50000000
0"
#55000000
1"
b00000110 $
b11111001 &
b00000110 )
b11111001 +
b00000110 -
b00000110 /
b00000110 1
04
07
19
1<
#60000000
0"
#65000000
1"
b00000111 $
b11111000 &
b00000111 )
b11111000 +
b00000111 -
b00000111 /
b00000111 1
14
17
#70000000
0"
#75000000
1"
b00001000 $
b11110111 &
b00001000 )
b11110111 +
b00001000 -
b00001000 /
b00001000 1
04
07
09
0<
0>
0A
1C
1F
#80000000
0"
#85000000
1"
b00001001 $
b11110110 &
b00001001 )
b11110110 +
b00001001 -
b00001001 /
b00001001 1
14
17
#90000000
0"
#95000000
1"
b00001010 $
b11110101 &
b00001010 )
b11110101 +
b00001010 -
b00001010 /
b00001010 1
04
07
19
1<
#100000000
0"
#105000000
1"
b00001011 $
b11110100 &
b00001011 )
b11110100 +
b00001011 -
b00001011 /
b00001011 1
14
17
#110000000
0"
#115000000
1"
b00001100 $
b11110011 &
b00001100 )
b11110011 +
b00001100 -
b00001100 /
b00001100 1
04
07
09
0<
1>
1A
#120000000
0"
#125000000
1"
b00001101 $
b11110010 &
b00001101 )
b11110010 +
b00001101 -
b00001101 /
b00001101 1
14
17
#130000000
0"
#135000000
1"
b00001110 $
b11110001 &
b00001110 )
b11110001 +
b00001110 -
b00001110 /
b00001110 1
04
07
19
1<
#140000000
0"
#145000000
1"
b00001111 $
b11110000 &
b00001111 )
b11110000 +
b00001111 -
b00001111 /
b00001111 1
14
17
#150000000
0"
#155000000
1"
b00010000 $
b11101111 &
b00010000 )
b11101111 +
b00010000 -
b00010000 /
b00010000 1
04
07
09
0<
0>
0A
0C
0F
1H
1K
#160000000
0"
#165000000
1"
b00010001 $
b11101110 &
b00010001 )
b11101110 +
b00010001 -
b00010001 /
b00010001 1
14
17
#170000000
0"
#175000000
1"
b00010010 $
b11101101 &
b00010010 )
b11101101 +
b00010010 -
b00010010 /
b00010010 1
04
07
19
1<
#180000000
0"
#185000000
1"
b00010011 $
b11101100 &
b00010011 )
b11101100 +
b00010011 -
b00010011 /
b00010011 1
14
17
#190000000
0"
#195000000
1"
b00010100 $
b11101011 &
b00010100 )
b11101011 +
b00010100 -
b00010100 /
b00010100 1
04
07
09
0<
1>
1A
#200000000
0"
#205000000
1"
b00010101 $
b11101010 &
b00010101 )
b11101010 +
b00010101 -
b00010101 /
b00010101 1
14
17
#210000000
0"
#215000000
1"
b00010110 $
b11101001 &
b00010110 )
b11101001 +
b00010110 -
b00010110 /
b00010110 1
04
07
19
1<
#220000000
0"
#225000000
1"
b00010111 $
b11101000 &
b00010111 )
b11101000 +
b00010111 -
b00010111 /
b00010111 1
14
17
#230000000
0"
#235000000
1"
b00011000 $
b11100111 &
b00011000 )
b11100111 +
b00011000 -
b00011000 /
b00011000 1
04
07
09
0<
0>
0A
1C
1F
#240000000
0"
#245000000
1"
b00011001 $
b11100110 &
b00011001 )
b11100110 +
b00011001 -
b00011001 /
b00011001 1
14
17
#250000000
0"
#255000000
1"
b00011010 $
b11100101 &
b00011010 )
b11100101 +
b00011010 -
b00011010 /
b00011010 1
04
07
19
1<
#260000000
0"
#265000000
1"
b00011011 $
b11100100 &
b00011011 )
b11100100 +
b00011011 -
b00011011 /
b00011011 1
14
17
#270000000
0"
#275000000
1"
b00011100 $
b11100011 &
b00011100 )
b11100011 +
b00011100 -
b00011100 /
b00011100 1
04
07
09
0<
1>
1A
#280000000
0"
#285000000
1"
b00011101 $
b11100010 &
b00011101 )
b11100010 +
b00011101 -
b00011101 /
b00011101 1
14
17
#290000000
0"
#295000000
1"
b00011110 $
b11100001 &
b00011110 )
b11100001 +
b00011110 -
b00011110 /
b00011110 1
04
07
19
1<
#300000000
0"
#305000000
1"
b00011111 $
b11100000 &
b00011111 )
b11100000 +
b00011111 -
b00011111 /
b00011111 1
14
17
#310000000
0"
#315000000
1"
b00100000 $
b11011111 &
b00100000 )
b11011111 +
b00100000 -
b00100000 /
b00100000 1
04
07
09
0<
0>
0A
0C
0F
0H
0K
1M
1P
#320000000
0"
#325000000
1"
b00100001 $
b11011110 &
b00100001 )
b11011110 +
b00100001 -
b00100001 /
b00100001 1
14
17
#330000000
0"
#335000000
1"
b00100010 $
b11011101 &
b00100010 )
b11011101 +
b00100010 -
b00100010 /
b00100010 1
04
07
19
1<
#340000000
0"
#345000000
1"
b00100011 $
b11011100 &
b00100011 )
b11011100 +
b00100011 -
b00100011 /
b00100011 1
14
17
#350000000
0"
#355000000
1"
b00100100 $
b11011011 &
b00100100 )
b11011011 +
b00100100 -
b00100100 /
b00100100 1
04
07
09
0<
1>
1A
#360000000
0"
#365000000
1"
b00100101 $
b11011010 &
b00100101 )
b11011010 +
b00100101 -
b00100101 /
b00100101 1
14
17
#370000000
0"
#375000000
1"
b00100110 $
b11011001 &
b00100110 )
b11011001 +
b00100110 -
b00100110 /
b00100110 1
04
07
19
1<
#380000000
0"
#385000000
1"
b00100111 $
b11011000 &
b00100111 )
b11011000 +
b00100111 -
b00100111 /
b00100111 1
14
17
#390000000
0"
#395000000
1"
b00101000 $
b11010111 &
b00101000 )
b11010111 +
b00101000 -
b00101000 /
b00101000 1
04
07
09
0<
0>
0A
1C
1F
#400000000
0"
#405000000
1"
b00101001 $
b11010110 &
b00101001 )
b11010110 +
b00101001 -
b00101001 /
b00101001 1
14
17
#410000000
0"
#415000000
1"
b00101010 $
b11010101 &
b00101010 )
b11010101 +
b00101010 -
b00101010 /
b00101010 1
04
07
19
1<
#420000000
0"
#425000000
1"
b00101011 $
b11010100 &
b00101011 )
b11010100 +
b00101011 -
b00101011 /
b00101011 1
14
17
#430000000
0"
#435000000
1"
b00101100 $
b11010011 &
b00101100 )
b11010011 +
b00101100 -
b00101100 /
b00101100 1
04
07
09
0<
1>
1A
#440000000
0"
#445000000
1"
b00101101 $
b11010010 &
b00101101 )
b11010010 +
b00101101 -
b00101101 /
b00101101 1
14
17
#450000000
0"
#455000000
1"
b00101110 $
b11010001 &
b00101110 )
b11010001 +
b00101110 -
b00101110 /
b00101110 1
04
07
19
1<
#460000000
0"
#465000000
1"
b00101111 $
b11010000 &
b00101111 )
b11010000 +
b00101111 -
b00101111 /
b00101111 1
14
17
#470000000
0"
#475000000
1"
b00110000 $
b11001111 &
b00110000 )
b11001111 +
b00110000 -
b00110000 /
b00110000 1
04
07
09
0<
0>
0A
0C
0F
1H
1K
#480000000
0"
#485000000
1"
b00110001 $
b11001110 &
b00110001 )
b11001110 +
b00110001 -
b00110001 /
b00110001 1
14
17
#490000000
0"
#495000000
1"
b00110010 $
b11001101 &
b00110010 )
b11001101 +
b00110010 -
b00110010 /
b00110010 1
04
07
19
1<
