tb_ut.vcd
$date
  Sat Feb  9 15:49:52 2019
$end
$version
  GHDL v0
$end
$timescale
  1 fs
$end
$var reg 1 ! reset $end
$var reg 1 " clk $end
$var reg 8 # s_i_mem_data[7:0] $end
$var reg 1 $ s_selec_op $end
$var reg 1 % s_ld_mem_data $end
$var reg 1 & s_ld_accu $end
$var reg 1 ' s_ld_carry $end
$var reg 1 ( s_init_carry $end
$var reg 8 ) s_o_mem_data[7:0] $end
$var reg 1 * s_carry $end
$scope module ut_i $end
$var reg 1 + reset $end
$var reg 1 , clk $end
$var reg 8 - i_mem_data[7:0] $end
$var reg 1 . i_selec_op $end
$var reg 1 / i_ld_mem_data $end
$var reg 1 0 i_ld_accu $end
$var reg 1 1 i_ld_carry $end
$var reg 1 2 i_init_carry $end
$var reg 8 3 o_mem_data[7:0] $end
$var reg 1 4 o_carry $end
$var reg 8 5 s_mem_data_to_ual[7:0] $end
$var reg 8 6 s_ual_result[7:0] $end
$var reg 8 7 s_accu_data[7:0] $end
$var reg 1 8 s_carry $end
$scope module reg_mem_data $end
$var reg 1 9 reset $end
$var reg 1 : clk $end
$var reg 1 ; i_load $end
$var reg 8 < i_data[7:0] $end
$var reg 8 = o_data[7:0] $end
$upscope $end
$scope module reg_accu $end
$var reg 1 > reset $end
$var reg 1 ? clk $end
$var reg 1 @ i_load $end
$var reg 8 A i_data[7:0] $end
$var reg 8 B o_data[7:0] $end
$upscope $end
$scope module carry_flipflop $end
$var reg 1 C reset $end
$var reg 1 D clk $end
$var reg 1 E i_load $end
$var reg 1 F i_init $end
$var reg 1 G i_data $end
$var reg 1 H o_data $end
$upscope $end
$scope module ual_i $end
$var reg 1 I i_selec_op $end
$var reg 8 J i_data_l[7:0] $end
$var reg 8 K i_data_r[7:0] $end
$var reg 8 L o_data[7:0] $end
$var reg 1 M o_carry $end
$var reg 8 N s_data_add[7:0] $end
$var reg 1 O s_carry_add $end
$scope module addi_n_bits_i $end
$var reg 8 P i_data_l[7:0] $end
$var reg 8 Q i_data_r[7:0] $end
$var reg 8 R o_data[7:0] $end
$var reg 1 S o_carry $end
$var reg 9 T s_carry[8:0] $end
$scope module addi_n(0) $end
$scope module addi_1 $end
$var reg 1 U i_data_l $end
$var reg 1 V i_data_r $end
$var reg 1 W i_carry $end
$var reg 1 X o_data $end
$var reg 1 Y o_carry $end
$upscope $end
$upscope $end
$scope module addi_n(1) $end
$scope module addi_1 $end
$var reg 1 Z i_data_l $end
$var reg 1 [ i_data_r $end
$var reg 1 \ i_carry $end
$var reg 1 ] o_data $end
$var reg 1 ^ o_carry $end
$upscope $end
$upscope $end
$scope module addi_n(2) $end
$scope module addi_1 $end
$var reg 1 _ i_data_l $end
$var reg 1 ` i_data_r $end
$var reg 1 a i_carry $end
$var reg 1 b o_data $end
$var reg 1 c o_carry $end
$upscope $end
$upscope $end
$scope module addi_n(3) $end
$scope module addi_1 $end
$var reg 1 d i_data_l $end
$var reg 1 e i_data_r $end
$var reg 1 f i_carry $end
$var reg 1 g o_data $end
$var reg 1 h o_carry $end
$upscope $end
$upscope $end
$scope module addi_n(4) $end
$scope module addi_1 $end
$var reg 1 i i_data_l $end
$var reg 1 j i_data_r $end
$var reg 1 k i_carry $end
$var reg 1 l o_data $end
$var reg 1 m o_carry $end
$upscope $end
$upscope $end
$scope module addi_n(5) $end
$scope module addi_1 $end
$var reg 1 n i_data_l $end
$var reg 1 o i_data_r $end
$var reg 1 p i_carry $end
$var reg 1 q o_data $end
$var reg 1 r o_carry $end
$upscope $end
$upscope $end
$scope module addi_n(6) $end
$scope module addi_1 $end
$var reg 1 s i_data_l $end
$var reg 1 t i_data_r $end
$var reg 1 u i_carry $end
$var reg 1 v o_data $end
$var reg 1 w o_carry $end
$upscope $end
$upscope $end
$scope module addi_n(7) $end
$scope module addi_1 $end
$var reg 1 x i_data_l $end
$var reg 1 y i_data_r $end
$var reg 1 z i_carry $end
$var reg 1 { o_data $end
$var reg 1 | o_carry $end
$upscope $end
$upscope $end
$upscope $end
$upscope $end
$upscope $end
$enddefinitions $end
#0
1!
0"
b00000000 #
0$
0%
0&
0'
0(
bUUUUUUUU )
U*
1+
0,
b00000000 -
0.
0/
00
01
02
bUUUUUUUU 3
U4
bUUUUUUUU 5
bUUUUUUUU 6
bUUUUUUUU 7
08
19
0:
0;
b00000000 <
bUUUUUUUU =
1>
0?
0@
bUUUUUUUU A
bUUUUUUUU B
1C
0D
0E
0F
0G
UH
0I
bUUUUUUUU J
bUUUUUUUU K
bUUUUUUUU L
0M
bUUUUUUUU N
UO
bUUUUUUUU P
bUUUUUUUU Q
bUUUUUUUU R
US
bUUUUUUUU0 T
UU
UV
0W
UX
UY
UZ
U[
U\
U]
U^
U_
U`
Ua
Ub
Uc
Ud
Ue
Uf
Ug
Uh
Ui
Uj
Uk
Ul
Um
Un
Uo
Up
Uq
Ur
Us
Ut
Uu
Uv
Uw
Ux
Uy
Uz
U{
U|
#5000000
1"
b00000000 )
0*
1,
b00000000 3
04
b00000000 5
b11111111 6
b00000000 7
1:
b00000000 =
1?
b11111111 A
b00000000 B
1D
0H
b00000000 J
b00000000 K
b11111111 L
b00000000 N
0O
b00000000 P
b00000000 Q
b00000000 R
0S
b000000000 T
0U
0V
0X
0Y
0Z
0[
0\
0]
0^
0_
0`
0a
0b
0c
0d
0e
0f
0g
0h
0i
0j
0k
0l
0m
0n
0o
0p
0q
0r
0s
0t
0u
0v
0w
0x
0y
0z
0{
0|
#10000000
0!
0"
0+
0,
09
0:
0>
0?
0C
0D
#15000000
1"
b00100000 #
1%
1,
b00100000 -
1/
1:
1;
b00100000 <
1?
1D
#20000000
0"
0,
0:
0?
0D
#25000000
1"
1$
0%
1&
1'
1,
1.
0/
10
11
b00100000 5
b00100000 6
1:
0;
b00100000 =
1?
1@
b00100000 A
1D
1E
1I
b00100000 J
b00100000 L
b00100000 N
b00100000 P
b00100000 R
1n
1q
#30000000
0"
0,
0:
0?
0D
#35000000
1"
0&
0'
b00100000 )
1,
00
01
b00100000 3
b01000000 6
b00100000 7
1:
1?
0@
b01000000 A
b00100000 B
1D
0E
b00100000 K
b01000000 L
b01000000 N
b00100000 Q
b01000000 R
b001000000 T
1o
0q
1r
1u
1v
#40000000
0"
0,
0:
0?
0D
#45000000
1"
1,
1:
1?
1D
#50000000
0"
0,
0:
0?
0D
#55000000
1"
1%
1,
1/
1:
1;
1?
1D
#60000000
0"
0,
0:
0?
0D
#65000000
1"
0%
1&
1'
1,
0/
10
11
1:
0;
1?
1@
1D
1E
#70000000
0"
0,
0:
0?
0D
#75000000
1"
0&
0'
b01000000 )
1,
00
01
b01000000 3
b01100000 6
b01000000 7
1:
1?
0@
b01100000 A
b01000000 B
1D
0E
b01000000 K
b01100000 L
b01100000 N
b01000000 Q
b01100000 R
b000000000 T
0o
1q
0r
1t
0u
1v
0w
0z
0{
#80000000
0"
0,
0:
0?
0D
#85000000
1"
1,
1:
1?
1D
#90000000
0"
0,
0:
0?
0D
#95000000
1"
1%
1,
1/
1:
1;
1?
1D
#100000000
0"
0,
0:
0?
0D
#105000000
1"
0%
1&
1'
1,
0/
10
11
1:
0;
1?
1@
1D
1E
#110000000
0"
0,
0:
0?
0D
#115000000
1"
0&
0'
b01100000 )
1,
00
01
b01100000 3
b10000000 6
b01100000 7
1:
1?
0@
b10000000 A
b01100000 B
1D
0E
b01100000 K
b10000000 L
b10000000 N
b01100000 Q
b10000000 R
b011000000 T
1o
0q
1r
1u
0v
1w
1z
1{
#120000000
0"
0,
0:
0?
0D
#125000000
1"
1,
1:
1?
1D
#130000000
0"
0,
0:
0?
0D
#135000000
1"
1%
1,
1/
1:
1;
1?
1D
#140000000
0"
0,
0:
0?
0D
#145000000
1"
0%
1&
1'
1,
0/
10
11
1:
0;
1?
1@
1D
1E
#150000000
0"
0,
0:
0?
0D
#155000000
1"
0&
0'
b10000000 )
1,
00
01
b10000000 3
b10100000 6
b10000000 7
08
1:
1?
0@
b10100000 A
b10000000 B
1D
0E
0G
b10000000 K
b10100000 L
0M
b10100000 N
0O
b10000000 Q
b10100000 R
0S
b000000000 T
0o
1q
0r
0t
0u
0v
0w
1y
0z
1{
0|
#160000000
0"
0,
0:
0?
0D
#165000000
1"
1,
1:
1?
1D
#170000000
0"
0,
0:
0?
0D
#175000000
1"
1%
1,
1/
1:
1;
1?
1D
#180000000
0"
0,
0:
0?
0D
#185000000
1"
0%
1&
1'
1,
0/
10
11
1:
0;
1?
1@
1D
1E
#190000000
0"
0,
0:
0?
0D
#195000000
1"
0&
0'
b10100000 )
1,
00
01
b10100000 3
b11000000 6
b10100000 7
1:
1?
0@
b11000000 A
b10100000 B
1D
0E
b10100000 K
b11000000 L
b11000000 N
b10100000 Q
b11000000 R
b001000000 T
1o
0q
1r
1u
1v
#200000000
0"
0,
0:
0?
0D
#205000000
1"
1,
1:
1?
1D
#210000000
0"
0,
0:
0?
0D
#215000000
1"
1%
1,
1/
1:
1;
1?
1D
#220000000
0"
0,
0:
0?
0D
#225000000
1"
0%
1&
1'
1,
0/
10
11
1:
0;
1?
1@
1D
1E
#230000000
0"
0,
0:
0?
0D
#235000000
1"
0&
0'
b11000000 )
1,
00
01
b11000000 3
b11100000 6
b11000000 7
08
1:
1?
0@
b11100000 A
b11000000 B
1D
0E
0G
b11000000 K
b11100000 L
0M
b11100000 N
0O
b11000000 Q
b11100000 R
0S
b000000000 T
0o
1q
0r
1t
0u
1v
0w
0z
1{
0|
#240000000
0"
0,
0:
0?
0D
#245000000
1"
1,
1:
1?
1D
#250000000
0"
0,
0:
0?
0D
#255000000
1"
1%
1,
1/
1:
1;
1?
1D
#260000000
0"
0,
0:
0?
0D
#265000000
1"
0%
1&
1'
1,
0/
10
11
1:
0;
1?
1@
1D
1E
#270000000
0"
0,
0:
0?
0D
#275000000
1"
0&
0'
b11100000 )
1,
00
01
b11100000 3
b00000000 6
b11100000 7
18
1:
1?
0@
b00000000 A
b11100000 B
1D
0E
1G
b11100000 K
b00000000 L
1M
b00000000 N
1O
b11100000 Q
b00000000 R
1S
b111000000 T
1o
0q
1r
1u
0v
1w
1z
0{
1|
#280000000
0"
0,
0:
0?
0D
#285000000
1"
1,
1:
1?
1D
#290000000
0"
0,
0:
0?
0D
#295000000
1"
1%
1,
1/
1:
1;
1?
1D
#300000000
0"
0,
0:
0?
0D
#305000000
1"
0%
1&
1'
1,
0/
10
11
1:
0;
1?
1@
1D
1E
#310000000
0"
0,
0:
0?
0D
#315000000
1"
0&
0'
b00000000 )
1*
1,
00
01
b00000000 3
14
b00100000 6
b00000000 7
08
1:
1?
0@
b00100000 A
b00000000 B
1D
0E
0G
1H
b00000000 K
b00100000 L
0M
b00100000 N
0O
b00000000 Q
b00100000 R
0S
b000000000 T
0o
1q
0r
0t
0u
0v
0w
0y
0z
0{
0|
#320000000
0"
0,
0:
0?
0D
#325000000
1"
1,
1:
1?
1D
#330000000
0"
0,
0:
0?
0D
#335000000
1"
1%
1,
1/
1:
1;
1?
1D
#340000000
0"
0,
0:
0?
0D
#345000000
1"
0%
1&
1'
1,
0/
10
11
1:
0;
1?
1@
1D
1E
#350000000
0"
0,
0:
0?
0D
#355000000
1"
0&
0'
b00100000 )
0*
1,
00
01
b00100000 3
04
b01000000 6
b00100000 7
1:
1?
0@
b01000000 A
b00100000 B
1D
0E
0H
b00100000 K
b01000000 L
b01000000 N
b00100000 Q
b01000000 R
b001000000 T
1o
0q
1r
1u
1v
#360000000
0"
0,
0:
0?
0D
#365000000
1"
1,
1:
1?
1D
#370000000
0"
0,
0:
0?
0D
#375000000
1"
1%
1,
1/
1:
1;
1?
1D
#380000000
0"
0,
0:
0?
0D
#385000000
1"
0%
1&
1'
1,
0/
10
11
1:
0;
1?
1@
1D
1E
#390000000
0"
0,
0:
0?
0D
#395000000
1"
0&
0'
b01000000 )
1,
00
01
b01000000 3
b01100000 6
b01000000 7
1:
1?
0@
b01100000 A
b01000000 B
1D
0E
b01000000 K
b01100000 L
b01100000 N
b01000000 Q
b01100000 R
b000000000 T
0o
1q
0r
1t
0u
1v
0w
0z
0{
#400000000
0"
0,
0:
0?
0D
#405000000
1"
1,
1:
1?
1D
#410000000
0"
0,
0:
0?
0D
#415000000
1"
1%
1,
1/
1:
1;
1?
1D
#420000000
0"
0,
0:
0?
0D
#425000000
1"
0%
1&
1'
1,
0/
10
11
1:
0;
1?
1@
1D
1E
#430000000
0"
0,
0:
0?
0D
#435000000
1"
0&
0'
b01100000 )
1,
00
01
b01100000 3
b10000000 6
b01100000 7
1:
1?
0@
b10000000 A
b01100000 B
1D
0E
b01100000 K
b10000000 L
b10000000 N
b01100000 Q
b10000000 R
b011000000 T
1o
0q
1r
1u
0v
1w
1z
1{
#440000000
0"
0,
0:
0?
0D
#445000000
1"
1,
1:
1?
1D
#450000000
0"
0,
0:
0?
0D
#455000000
1"
1%
1,
1/
1:
1;
1?
1D
#460000000
0"
0,
0:
0?
0D
#465000000
1"
0%
1&
1'
1,
0/
10
11
1:
0;
1?
1@
1D
1E
#470000000
0"
0,
0:
0?
0D
#475000000
1"
0&
0'
b10000000 )
1,
00
01
b10000000 3
b10100000 6
b10000000 7
08
1:
1?
0@
b10100000 A
b10000000 B
1D
0E
0G
b10000000 K
b10100000 L
0M
b10100000 N
0O
b10000000 Q
b10100000 R
0S
b000000000 T
0o
1q
0r
0t
0u
0v
0w
1y
0z
1{
0|
#480000000
0"
0,
0:
0?
0D
#485000000
1"
1,
1:
1?
1D
#490000000
0"
0,
0:
0?
0D
#495000000
1"
1%
1,
1/
1:
1;
1?
1D
