vcd/tb_addi_n_bits.vcd
$date
  Mon Feb 11 15:24:33 2019
$end
$version
  GHDL v0
$end
$timescale
  1 fs
$end
$var reg 6 ! sig_a[5:0] $end
$var reg 6 " sig_b[5:0] $end
$var reg 7 # sig_s[6:0] $end
$scope module addi_n_bits_i $end
$var reg 6 $ i_data_l[5:0] $end
$var reg 6 % i_data_r[5:0] $end
$var reg 6 & o_data[5:0] $end
$var reg 1 ' o_carry $end
$var reg 7 ( s_carry[6:0] $end
$scope module addi_n(0) $end
$scope module addi_1 $end
$var reg 1 ) i_data_l $end
$var reg 1 * i_data_r $end
$var reg 1 + i_carry $end
$var reg 1 , o_data $end
$var reg 1 - o_carry $end
$upscope $end
$upscope $end
$scope module addi_n(1) $end
$scope module addi_1 $end
$var reg 1 . i_data_l $end
$var reg 1 / i_data_r $end
$var reg 1 0 i_carry $end
$var reg 1 1 o_data $end
$var reg 1 2 o_carry $end
$upscope $end
$upscope $end
$scope module addi_n(2) $end
$scope module addi_1 $end
$var reg 1 3 i_data_l $end
$var reg 1 4 i_data_r $end
$var reg 1 5 i_carry $end
$var reg 1 6 o_data $end
$var reg 1 7 o_carry $end
$upscope $end
$upscope $end
$scope module addi_n(3) $end
$scope module addi_1 $end
$var reg 1 8 i_data_l $end
$var reg 1 9 i_data_r $end
$var reg 1 : i_carry $end
$var reg 1 ; o_data $end
$var reg 1 < o_carry $end
$upscope $end
$upscope $end
$scope module addi_n(4) $end
$scope module addi_1 $end
$var reg 1 = i_data_l $end
$var reg 1 > i_data_r $end
$var reg 1 ? i_carry $end
$var reg 1 @ o_data $end
$var reg 1 A o_carry $end
$upscope $end
$upscope $end
$scope module addi_n(5) $end
$scope module addi_1 $end
$var reg 1 B i_data_l $end
$var reg 1 C i_data_r $end
$var reg 1 D i_carry $end
$var reg 1 E o_data $end
$var reg 1 F o_carry $end
$upscope $end
$upscope $end
$upscope $end
$enddefinitions $end
#0
b000000 !
b000000 "
b0000000 #
b000000 $
b000000 %
b000000 &
0'
b0000000 (
0)
0*
0+
0,
0-
0.
0/
00
01
02
03
04
05
06
07
08
09
0:
0;
0<
0=
0>
0?
0@
0A
0B
0C
0D
0E
0F
#10000000
b000001 !
b0000001 #
b000001 $
b000001 &
1)
1,
#20000000
b000010 !
b0000010 #
b000010 $
b000010 &
0)
0,
1.
11
#30000000
b000011 !
b0000011 #
b000011 $
b000011 &
1)
1,
#40000000
b000100 !
b0000100 #
b000100 $
b000100 &
0)
0,
0.
01
13
16
#50000000
b000101 !
b0000101 #
b000101 $
b000101 &
1)
1,
#60000000
b000110 !
b0000110 #
b000110 $
b000110 &
0)
0,
1.
11
#70000000
b000111 !
b0000111 #
b000111 $
b000111 &
1)
1,
#80000000
b001000 !
b0001000 #
b001000 $
b001000 &
0)
0,
0.
01
03
06
18
1;
#90000000
b001001 !
b0001001 #
b001001 $
b001001 &
1)
1,
#100000000
b001010 !
b0001010 #
b001010 $
b001010 &
0)
0,
1.
11
#110000000
b001011 !
b0001011 #
b001011 $
b001011 &
1)
1,
#120000000
b001100 !
b0001100 #
b001100 $
b001100 &
0)
0,
0.
01
13
16
#130000000
b001101 !
b0001101 #
b001101 $
b001101 &
1)
1,
#140000000
b001110 !
b0001110 #
b001110 $
b001110 &
0)
0,
1.
11
#150000000
b001111 !
b0001111 #
b001111 $
b001111 &
1)
1,
#160000000
b010000 !
b0010000 #
b010000 $
b010000 &
0)
0,
0.
01
03
06
08
0;
1=
1@
#170000000
b010001 !
b0010001 #
b010001 $
b010001 &
1)
1,
#180000000
b010010 !
b0010010 #
b010010 $
b010010 &
0)
0,
1.
11
#190000000
b010011 !
b0010011 #
b010011 $
b010011 &
1)
1,
#200000000
b010100 !
b0010100 #
b010100 $
b010100 &
0)
0,
0.
01
13
16
#210000000
b010101 !
b0010101 #
b010101 $
b010101 &
1)
1,
#220000000
b010110 !
b0010110 #
b010110 $
b010110 &
0)
0,
1.
11
#230000000
b010111 !
b0010111 #
b010111 $
b010111 &
1)
1,
#240000000
b011000 !
b0011000 #
b011000 $
b011000 &
0)
0,
0.
01
03
06
18
1;
#250000000
b011001 !
b0011001 #
b011001 $
b011001 &
1)
1,
#260000000
b011010 !
b0011010 #
b011010 $
b011010 &
0)
0,
1.
11
#270000000
b011011 !
b0011011 #
b011011 $
b011011 &
1)
1,
#280000000
b011100 !
b0011100 #
b011100 $
b011100 &
0)
0,
0.
01
13
16
#290000000
b011101 !
b0011101 #
b011101 $
b011101 &
1)
1,
#300000000
b011110 !
b0011110 #
b011110 $
b011110 &
0)
0,
1.
11
#310000000
b011111 !
b0011111 #
b011111 $
b011111 &
1)
1,
#320000000
b100000 !
b0100000 #
b100000 $
b100000 &
0)
0,
0.
01
03
06
08
0;
0=
0@
1B
1E
#330000000
b100001 !
b0100001 #
b100001 $
b100001 &
1)
1,
#340000000
b100010 !
b0100010 #
b100010 $
b100010 &
0)
0,
1.
11
#350000000
b100011 !
b0100011 #
b100011 $
b100011 &
1)
1,
#360000000
b100100 !
b0100100 #
b100100 $
b100100 &
0)
0,
0.
01
13
16
#370000000
b100101 !
b0100101 #
b100101 $
b100101 &
1)
1,
#380000000
b100110 !
b0100110 #
b100110 $
b100110 &
0)
0,
1.
11
#390000000
b100111 !
b0100111 #
b100111 $
b100111 &
1)
1,
#400000000
b101000 !
b0101000 #
b101000 $
b101000 &
0)
0,
0.
01
03
06
18
1;
#410000000
b101001 !
b0101001 #
b101001 $
b101001 &
1)
1,
#420000000
b101010 !
b0101010 #
b101010 $
b101010 &
0)
0,
1.
11
#430000000
b101011 !
b0101011 #
b101011 $
b101011 &
1)
1,
#440000000
b101100 !
b0101100 #
b101100 $
b101100 &
0)
0,
0.
01
13
16
#450000000
b101101 !
b0101101 #
b101101 $
b101101 &
1)
1,
#460000000
b101110 !
b0101110 #
b101110 $
b101110 &
0)
0,
1.
11
#470000000
b101111 !
b0101111 #
b101111 $
b101111 &
1)
1,
#480000000
b110000 !
b0110000 #
b110000 $
b110000 &
0)
0,
0.
01
03
06
08
0;
1=
1@
#490000000
b110001 !
b0110001 #
b110001 $
b110001 &
1)
1,
#500000000
b110010 !
b0110010 #
b110010 $
b110010 &
0)
0,
1.
11
#510000000
b110011 !
b0110011 #
b110011 $
b110011 &
1)
1,
#520000000
b110100 !
b0110100 #
b110100 $
b110100 &
0)
0,
0.
01
13
16
#530000000
b110101 !
b0110101 #
b110101 $
b110101 &
1)
1,
#540000000
b110110 !
b0110110 #
b110110 $
b110110 &
0)
0,
1.
11
#550000000
b110111 !
b0110111 #
b110111 $
b110111 &
1)
1,
#560000000
b111000 !
b0111000 #
b111000 $
b111000 &
0)
0,
0.
01
03
06
18
1;
#570000000
b111001 !
b0111001 #
b111001 $
b111001 &
1)
1,
#580000000
b111010 !
b0111010 #
b111010 $
b111010 &
0)
0,
1.
11
#590000000
b111011 !
b0111011 #
b111011 $
b111011 &
1)
1,
#600000000
b111100 !
b0111100 #
b111100 $
b111100 &
0)
0,
0.
01
13
16
#610000000
b111101 !
b0111101 #
b111101 $
b111101 &
1)
1,
#620000000
b111110 !
b0111110 #
b111110 $
b111110 &
0)
0,
1.
11
#630000000
b000000 !
b000001 "
b0000001 #
b000000 $
b000001 %
b000001 &
1*
1,
0.
01
03
06
08
0;
0=
0@
0B
0E
#640000000
b000001 !
b0000010 #
b000001 $
b000010 &
b0000010 (
1)
0,
1-
10
11
#650000000
b000010 !
b0000011 #
b000010 $
b000011 &
b0000000 (
0)
1,
0-
1.
00
11
02
05
06
#660000000
b000011 !
b0000100 #
b000011 $
b000100 &
b0000110 (
1)
0,
1-
10
01
12
15
16
#670000000
b000100 !
b0000101 #
b000100 $
b000101 &
b0000000 (
0)
1,
0-
0.
00
01
02
13
05
16
07
0:
0;
#680000000
b000101 !
b0000110 #
b000101 $
b000110 &
b0000010 (
1)
0,
1-
10
11
#690000000
b000110 !
b0000111 #
b000110 $
b000111 &
b0000000 (
0)
1,
0-
1.
00
11
02
05
16
07
0:
0;
#700000000
b000111 !
b0001000 #
b000111 $
b001000 &
b0001110 (
1)
0,
1-
10
01
12
15
06
17
1:
1;
#710000000
b001000 !
b0001001 #
b001000 $
b001001 &
b0000000 (
0)
1,
0-
0.
00
01
02
03
05
06
07
18
0:
1;
0<
0?
0@
#720000000
b001001 !
b0001010 #
b001001 $
b001010 &
b0000010 (
1)
0,
1-
10
11
#730000000
b001010 !
b0001011 #
b001010 $
b001011 &
b0000000 (
0)
1,
0-
1.
00
11
02
05
06
#740000000
b001011 !
b0001100 #
b001011 $
b001100 &
b0000110 (
1)
0,
1-
10
01
12
15
16
#750000000
b001100 !
b0001101 #
b001100 $
b001101 &
b0000000 (
0)
1,
0-
0.
00
01
02
13
05
16
07
0:
1;
0<
0?
0@
#760000000
b001101 !
b0001110 #
b001101 $
b001110 &
b0000010 (
1)
0,
1-
10
11
#770000000
b001110 !
b0001111 #
b001110 $
b001111 &
b0000000 (
0)
1,
0-
1.
00
11
02
05
16
07
0:
1;
0<
0?
0@
#780000000
b001111 !
b0010000 #
b001111 $
b010000 &
b0011110 (
1)
0,
1-
10
01
12
15
06
17
1:
0;
1<
1?
1@
#790000000
b010000 !
b0010001 #
b010000 $
b010001 &
b0000000 (
0)
1,
0-
0.
00
01
02
03
05
06
07
08
0:
0;
0<
1=
0?
1@
0A
0D
0E
#800000000
b010001 !
b0010010 #
b010001 $
b010010 &
b0000010 (
1)
0,
1-
10
11
#810000000
b010010 !
b0010011 #
b010010 $
b010011 &
b0000000 (
0)
1,
0-
1.
00
11
02
05
06
#820000000
b010011 !
b0010100 #
b010011 $
b010100 &
b0000110 (
1)
0,
1-
10
01
12
15
16
#830000000
b010100 !
b0010101 #
b010100 $
b010101 &
b0000000 (
0)
1,
0-
0.
00
01
02
13
05
16
07
0:
0;
#840000000
b010101 !
b0010110 #
b010101 $
b010110 &
b0000010 (
1)
0,
1-
10
11
#850000000
b010110 !
b0010111 #
b010110 $
b010111 &
b0000000 (
0)
1,
0-
1.
00
11
02
05
16
07
0:
0;
#860000000
b010111 !
b0011000 #
b010111 $
b011000 &
b0001110 (
1)
0,
1-
10
01
12
15
06
17
1:
1;
#870000000
b011000 !
b0011001 #
b011000 $
b011001 &
b0000000 (
0)
1,
0-
0.
00
01
02
03
05
06
07
18
0:
1;
0<
0?
1@
0A
0D
0E
#880000000
b011001 !
b0011010 #
b011001 $
b011010 &
b0000010 (
1)
0,
1-
10
11
#890000000
b011010 !
b0011011 #
b011010 $
b011011 &
b0000000 (
0)
1,
0-
1.
00
11
02
05
06
#900000000
b011011 !
b0011100 #
b011011 $
b011100 &
b0000110 (
1)
0,
1-
10
01
12
15
16
#910000000
b011100 !
b0011101 #
b011100 $
b011101 &
b0000000 (
0)
1,
0-
0.
00
01
02
13
05
16
07
0:
1;
0<
0?
1@
0A
0D
0E
#920000000
b011101 !
b0011110 #
b011101 $
b011110 &
b0000010 (
1)
0,
1-
10
11
#930000000
b011110 !
b0011111 #
b011110 $
b011111 &
b0000000 (
0)
1,
0-
1.
00
11
02
05
16
07
0:
1;
0<
0?
1@
0A
0D
0E
#940000000
b011111 !
b0100000 #
b011111 $
b100000 &
b0111110 (
1)
0,
1-
10
01
12
15
06
17
1:
0;
1<
1?
0@
1A
1D
1E
#950000000
b100000 !
b0100001 #
b100000 $
b100001 &
0'
b0000000 (
0)
1,
0-
0.
00
01
02
03
05
06
07
08
0:
0;
0<
0=
0?
0@
0A
1B
0D
1E
0F
#960000000
b100001 !
b0100010 #
b100001 $
b100010 &
b0000010 (
1)
0,
1-
10
11
#970000000
b100010 !
b0100011 #
b100010 $
b100011 &
b0000000 (
0)
1,
0-
1.
00
11
02
05
06
#980000000
b100011 !
b0100100 #
b100011 $
b100100 &
b0000110 (
1)
0,
1-
10
01
12
15
16
#990000000
b100100 !
b0100101 #
b100100 $
b100101 &
b0000000 (
0)
1,
0-
0.
00
01
02
13
05
16
07
0:
0;
#1000000000
b100101 !
b0100110 #
b100101 $
b100110 &
b0000010 (
1)
0,
1-
10
11
#1010000000
b100110 !
b0100111 #
b100110 $
b100111 &
b0000000 (
0)
1,
0-
1.
00
11
02
05
16
07
0:
0;
#1020000000
b100111 !
b0101000 #
b100111 $
b101000 &
b0001110 (
1)
0,
1-
10
01
12
15
06
17
1:
1;
#1030000000
b101000 !
b0101001 #
b101000 $
b101001 &
b0000000 (
0)
1,
0-
0.
00
01
02
03
05
06
07
18
0:
1;
0<
0?
0@
#1040000000
b101001 !
b0101010 #
b101001 $
b101010 &
b0000010 (
1)
0,
1-
10
11
#1050000000
b101010 !
b0101011 #
b101010 $
b101011 &
b0000000 (
0)
1,
0-
1.
00
11
02
05
06
#1060000000
b101011 !
b0101100 #
b101011 $
b101100 &
b0000110 (
1)
0,
1-
10
01
12
15
16
#1070000000
b101100 !
b0101101 #
b101100 $
b101101 &
b0000000 (
0)
1,
0-
0.
00
01
02
13
05
16
07
0:
1;
0<
0?
0@
#1080000000
b101101 !
b0101110 #
b101101 $
b101110 &
b0000010 (
1)
0,
1-
10
11
#1090000000
b101110 !
b0101111 #
b101110 $
b101111 &
b0000000 (
0)
1,
0-
1.
00
11
02
05
16
07
0:
1;
0<
0?
0@
#1100000000
b101111 !
b0110000 #
b101111 $
b110000 &
b0011110 (
1)
0,
1-
10
01
12
15
06
17
1:
0;
1<
1?
1@
#1110000000
b110000 !
b0110001 #
b110000 $
b110001 &
0'
b0000000 (
0)
1,
0-
0.
00
01
02
03
05
06
07
08
0:
0;
0<
1=
0?
1@
0A
0D
1E
0F
#1120000000
b110001 !
b0110010 #
b110001 $
b110010 &
b0000010 (
1)
0,
1-
10
11
#1130000000
b110010 !
b0110011 #
b110010 $
b110011 &
b0000000 (
0)
1,
0-
1.
00
11
02
05
06
#1140000000
b110011 !
b0110100 #
b110011 $
b110100 &
b0000110 (
1)
0,
1-
10
01
12
15
16
#1150000000
b110100 !
b0110101 #
b110100 $
b110101 &
b0000000 (
0)
1,
0-
0.
00
01
02
13
05
16
07
0:
0;
#1160000000
b110101 !
b0110110 #
b110101 $
b110110 &
b0000010 (
1)
0,
1-
10
11
#1170000000
b110110 !
b0110111 #
b110110 $
b110111 &
b0000000 (
0)
1,
0-
1.
00
11
02
05
16
07
0:
0;
#1180000000
b110111 !
b0111000 #
b110111 $
b111000 &
b0001110 (
1)
0,
1-
10
01
12
15
06
17
1:
1;
#1190000000
b111000 !
b0111001 #
b111000 $
b111001 &
0'
b0000000 (
0)
1,
0-
0.
00
01
02
03
05
06
07
18
0:
1;
0<
0?
1@
0A
0D
1E
0F
#1200000000
b111001 !
b0111010 #
b111001 $
b111010 &
b0000010 (
1)
0,
1-
10
11
#1210000000
b111010 !
b0111011 #
b111010 $
b111011 &
b0000000 (
0)
1,
0-
1.
00
11
02
05
06
#1220000000
b111011 !
b0111100 #
b111011 $
b111100 &
b0000110 (
1)
0,
1-
10
01
12
15
16
#1230000000
b111100 !
b0111101 #
b111100 $
b111101 &
0'
b0000000 (
0)
1,
0-
0.
00
01
02
13
05
16
07
0:
1;
0<
0?
1@
0A
0D
1E
0F
#1240000000
b111101 !
b0111110 #
b111101 $
b111110 &
b0000010 (
1)
0,
1-
10
11
#1250000000
b111110 !
b0111111 #
b111110 $
b111111 &
0'
b0000000 (
0)
1,
0-
1.
00
11
02
05
16
07
0:
1;
0<
0?
1@
0A
0D
1E
0F
#1260000000
b000000 !
b000010 "
b0000010 #
b000000 $
b000010 %
b000010 &
0*
0,
0.
1/
03
06
08
0;
0=
0@
0B
0E
#1270000000
b000001 !
b0000011 #
b000001 $
b000011 &
1)
1,
#1280000000
b000010 !
b0000100 #
b000010 $
b000100 &
b0000100 (
0)
0,
1.
01
12
15
16
#1290000000
b000011 !
b0000101 #
b000011 $
b000101 &
1)
1,
#1300000000
b000100 !
b0000110 #
b000100 $
b000110 &
b0000000 (
0)
0,
0.
11
02
13
05
16
07
0:
0;
#1310000000
b000101 !
b0000111 #
b000101 $
b000111 &
1)
1,
#1320000000
b000110 !
b0001000 #
b000110 $
b001000 &
b0001100 (
0)
0,
1.
01
12
15
06
17
1:
1;
#1330000000
b000111 !
b0001001 #
b000111 $
b001001 &
1)
1,
#1340000000
b001000 !
b0001010 #
b001000 $
b001010 &
b0000000 (
0)
0,
0.
11
02
03
05
06
07
18
0:
1;
0<
0?
0@
#1350000000
b001001 !
b0001011 #
b001001 $
b001011 &
1)
1,
#1360000000
b001010 !
b0001100 #
b001010 $
b001100 &
b0000100 (
0)
0,
1.
01
12
15
16
#1370000000
b001011 !
b0001101 #
b001011 $
b001101 &
1)
1,
#1380000000
b001100 !
b0001110 #
b001100 $
b001110 &
b0000000 (
0)
0,
0.
11
02
13
05
16
07
0:
1;
0<
0?
0@
#1390000000
b001101 !
b0001111 #
b001101 $
b001111 &
1)
1,
#1400000000
b001110 !
b0010000 #
b001110 $
b010000 &
b0011100 (
0)
0,
1.
01
12
15
06
17
1:
0;
1<
1?
1@
#1410000000
b001111 !
b0010001 #
b001111 $
b010001 &
1)
1,
#1420000000
b010000 !
b0010010 #
b010000 $
b010010 &
b0000000 (
0)
0,
0.
11
02
03
05
06
07
08
0:
0;
0<
1=
0?
1@
0A
0D
0E
#1430000000
b010001 !
b0010011 #
b010001 $
b010011 &
1)
1,
#1440000000
b010010 !
b0010100 #
b010010 $
b010100 &
b0000100 (
0)
0,
1.
01
12
15
16
#1450000000
b010011 !
b0010101 #
b010011 $
b010101 &
1)
1,
#1460000000
b010100 !
b0010110 #
b010100 $
b010110 &
b0000000 (
0)
0,
0.
11
02
13
05
16
07
0:
0;
#1470000000
b010101 !
b0010111 #
b010101 $
b010111 &
1)
1,
#1480000000
b010110 !
b0011000 #
b010110 $
b011000 &
b0001100 (
0)
0,
1.
01
12
15
06
17
1:
1;
#1490000000
b010111 !
b0011001 #
b010111 $
b011001 &
1)
1,
#1500000000
b011000 !
b0011010 #
b011000 $
b011010 &
b0000000 (
0)
0,
0.
11
02
03
05
06
07
18
0:
1;
0<
0?
1@
0A
0D
0E
