vcd/tb_addi_n_bits.vcd
$date
  Fri Feb  8 22:36:55 2019
$end
$version
  GHDL v0
$end
$timescale
  1 fs
$end
$var reg 6 ! sig_a[5:0] $end
$var reg 6 " sig_b[5:0] $end
$var reg 7 # sig_s[6:0] $end
$scope module addi_n_bits_i $end
$var reg 6 $ i_data_l[5:0] $end
$var reg 6 % i_data_r[5:0] $end
$var reg 6 & o_data[5:0] $end
$var reg 1 ' o_carry $end
$var reg 7 ( s_carry[6:0] $end
$scope module addi_n(0) $end
$scope module addi_1 $end
$var reg 1 ) i_data_l $end
$var reg 1 * i_data_r $end
$var reg 1 + i_carry $end
$var reg 1 , o_data $end
$var reg 1 - o_carry $end
$upscope $end
$upscope $end
$scope module addi_n(1) $end
$scope module addi_1 $end
$var reg 1 . i_data_l $end
$var reg 1 / i_data_r $end
$var reg 1 0 i_carry $end
$var reg 1 1 o_data $end
$var reg 1 2 o_carry $end
$upscope $end
$upscope $end
$scope module addi_n(2) $end
$scope module addi_1 $end
$var reg 1 3 i_data_l $end
$var reg 1 4 i_data_r $end
$var reg 1 5 i_carry $end
$var reg 1 6 o_data $end
$var reg 1 7 o_carry $end
$upscope $end
$upscope $end
$scope module addi_n(3) $end
$scope module addi_1 $end
$var reg 1 8 i_data_l $end
$var reg 1 9 i_data_r $end
$var reg 1 : i_carry $end
$var reg 1 ; o_data $end
$var reg 1 < o_carry $end
$upscope $end
$upscope $end
$scope module addi_n(4) $end
$scope module addi_1 $end
$var reg 1 = i_data_l $end
$var reg 1 > i_data_r $end
$var reg 1 ? i_carry $end
$var reg 1 @ o_data $end
$var reg 1 A o_carry $end
$upscope $end
$upscope $end
$scope module addi_n(5) $end
$scope module addi_1 $end
$var reg 1 B i_data_l $end
$var reg 1 C i_data_r $end
$var reg 1 D i_carry $end
$var reg 1 E o_data $end
$var reg 1 F o_carry $end
$upscope $end
$upscope $end
$upscope $end
$enddefinitions $end
#0
b000000 !
b000000 "
b0000000 #
b000000 $
b000000 %
b000000 &
0'
b0000000 (
0)
0*
0+
0,
0-
0.
0/
00
01
02
03
04
05
06
07
08
09
0:
0;
0<
0=
0>
0?
0@
0A
0B
0C
0D
0E
0F
#10000000
b000001 !
b0000001 #
b000001 $
b000001 &
1)
1,
#20000000
b000010 !
b0000010 #
b000010 $
b000010 &
0)
0,
1.
11
#30000000
b000011 !
b0000011 #
b000011 $
b000011 &
1)
1,
#40000000
b000100 !
b0000100 #
b000100 $
b000100 &
0)
0,
0.
01
13
16
#50000000
b000101 !
b0000101 #
b000101 $
b000101 &
1)
1,
#60000000
b000110 !
b0000110 #
b000110 $
b000110 &
0)
0,
1.
11
#70000000
b000111 !
b0000111 #
b000111 $
b000111 &
1)
1,
#80000000
b001000 !
b0001000 #
b001000 $
b001000 &
0)
0,
0.
01
03
06
18
1;
#90000000
b001001 !
b0001001 #
b001001 $
b001001 &
1)
1,
#100000000
b001010 !
b0001010 #
b001010 $
b001010 &
0)
0,
1.
11
#110000000
b001011 !
b0001011 #
b001011 $
b001011 &
1)
1,
#120000000
b001100 !
b0001100 #
b001100 $
b001100 &
0)
0,
0.
01
13
16
#130000000
b001101 !
b0001101 #
b001101 $
b001101 &
1)
1,
#140000000
b001110 !
b0001110 #
b001110 $
b001110 &
0)
0,
1.
11
#150000000
b001111 !
b0001111 #
b001111 $
b001111 &
1)
1,
#160000000
b010000 !
b0010000 #
b010000 $
b010000 &
0)
0,
0.
01
03
06
08
0;
1=
1@
#170000000
b010001 !
b0010001 #
b010001 $
b010001 &
1)
1,
#180000000
b010010 !
b0010010 #
b010010 $
b010010 &
0)
0,
1.
11
#190000000
b010011 !
b0010011 #
b010011 $
b010011 &
1)
1,
#200000000
b010100 !
b0010100 #
b010100 $
b010100 &
0)
0,
0.
01
13
16
#210000000
b010101 !
b0010101 #
b010101 $
b010101 &
1)
1,
#220000000
b010110 !
b0010110 #
b010110 $
b010110 &
0)
0,
1.
11
#230000000
b010111 !
b0010111 #
b010111 $
b010111 &
1)
1,
#240000000
b011000 !
b0011000 #
b011000 $
b011000 &
0)
0,
0.
01
03
06
18
1;
#250000000
b011001 !
b0011001 #
b011001 $
b011001 &
1)
1,
#260000000
b011010 !
b0011010 #
b011010 $
b011010 &
0)
0,
1.
11
#270000000
b011011 !
b0011011 #
b011011 $
b011011 &
1)
1,
#280000000
b011100 !
b0011100 #
b011100 $
b011100 &
0)
0,
0.
01
13
16
#290000000
b011101 !
b0011101 #
b011101 $
b011101 &
1)
1,
#300000000
b011110 !
b0011110 #
b011110 $
b011110 &
0)
0,
1.
11
#310000000
b011111 !
b0011111 #
b011111 $
b011111 &
1)
1,
#320000000
b100000 !
b0100000 #
b100000 $
b100000 &
0)
0,
0.
01
03
06
08
0;
0=
0@
1B
1E
#330000000
b100001 !
b0100001 #
b100001 $
b100001 &
1)
1,
#340000000
b100010 !
b0100010 #
b100010 $
b100010 &
0)
0,
1.
11
#350000000
b100011 !
b0100011 #
b100011 $
b100011 &
1)
1,
#360000000
b100100 !
b0100100 #
b100100 $
b100100 &
0)
0,
0.
01
13
16
#370000000
b100101 !
b0100101 #
b100101 $
b100101 &
1)
1,
#380000000
b100110 !
b0100110 #
b100110 $
b100110 &
0)
0,
1.
11
#390000000
b100111 !
b0100111 #
b100111 $
b100111 &
1)
1,
#400000000
b101000 !
b0101000 #
b101000 $
b101000 &
0)
0,
0.
01
03
06
18
1;
#410000000
b101001 !
b0101001 #
b101001 $
b101001 &
1)
1,
#420000000
b101010 !
b0101010 #
b101010 $
b101010 &
0)
0,
1.
11
#430000000
b101011 !
b0101011 #
b101011 $
b101011 &
1)
1,
#440000000
b101100 !
b0101100 #
b101100 $
b101100 &
0)
0,
0.
01
13
16
#450000000
b101101 !
b0101101 #
b101101 $
b101101 &
1)
1,
#460000000
b101110 !
b0101110 #
b101110 $
b101110 &
0)
0,
1.
11
#470000000
b101111 !
b0101111 #
b101111 $
b101111 &
1)
1,
#480000000
b110000 !
b0110000 #
b110000 $
b110000 &
0)
0,
0.
01
03
06
08
0;
1=
1@
#490000000
b110001 !
b0110001 #
b110001 $
b110001 &
1)
1,
#500000000
b110010 !
b0110010 #
b110010 $
b110010 &
0)
0,
1.
11
