vcd/tb_cpu.vcd
$date
  Mon Feb 11 15:35:38 2019
$end
$version
  GHDL v0
$end
$timescale
  1 fs
$end
$var reg 1 ! reset $end
$var reg 1 " clk $end
$var reg 1 # ce $end
$var reg 6 $ s_mem_address[5:0] $end
$var reg 8 % s_mem_out[7:0] $end
$var reg 8 & s_mem_in[7:0] $end
$scope module cpu_i $end
$var reg 1 ' reset $end
$var reg 1 ( clk $end
$var reg 1 ) ce $end
$var reg 6 * o_mem_address[5:0] $end
$var reg 8 + o_mem_in_data[7:0] $end
$var reg 8 , o_mem_out_data[7:0] $end
$var reg 6 - s_mem_address[5:0] $end
$var reg 8 . s_mem_out[7:0] $end
$var reg 8 / s_mem_in[7:0] $end
$var reg 1 0 s_carry $end
$var reg 1 1 s_init_carry $end
$var reg 1 2 s_ld_carry $end
$var reg 1 3 s_ld_accu $end
$var reg 1 4 s_ld_mem $end
$var reg 1 5 s_ld_mem_data $end
$var reg 1 6 s_rw_mem_mode $end
$var reg 1 7 s_selec_op $end
$scope module uc_i $end
$var reg 1 8 reset $end
$var reg 1 9 clk $end
$var reg 1 : ce $end
$var reg 1 ; i_carry $end
$var reg 8 < i_mem_data[7:0] $end
$var reg 6 = o_mem_data[5:0] $end
$var reg 1 > o_init_carry $end
$var reg 1 ? o_ld_carry $end
$var reg 1 @ o_ld_accu $end
$var reg 1 A o_ld_mem $end
$var reg 1 B o_ld_mem_data $end
$var reg 1 C o_rw_mem_mode $end
$var reg 1 D o_selec_op $end
$var reg 1 E s_init_carry $end
$var reg 1 F s_init_cpt_add $end
$var reg 1 G s_ld_carry $end
$var reg 1 H s_ld_cpt_add $end
$var reg 1 I s_ld_inst $end
$var reg 1 J s_ld_accu $end
$var reg 1 K s_ld_mem $end
$var reg 1 L s_ld_mem_data $end
$var reg 1 M s_rw_mem_mode $end
$var reg 1 N s_en_cpt_add $end
$var reg 1 O s_selec_mux $end
$var reg 1 P s_selec_op $end
$var reg 8 Q s_cur_inst[7:0] $end
$var reg 6 R s_mux_in_0[5:0] $end
$scope module uc_fsm_i $end
$var reg 1 S reset $end
$var reg 1 T clk $end
$var reg 1 U ce $end
$var reg 1 V i_carry $end
$var reg 2 W i_op_code[1:0] $end
$var reg 1 X o_init_carry $end
$var reg 1 Y o_init_cpt_add $end
$var reg 1 Z o_ld_carry $end
$var reg 1 [ o_ld_cpt_add $end
$var reg 1 \ o_ld_inst $end
$var reg 1 ] o_ld_accu $end
$var reg 1 ^ o_ld_mem $end
$var reg 1 _ o_ld_mem_data $end
$var reg 1 ` o_rw_mem_mode $end
$var reg 1 a o_en_cpt_add $end
$var reg 1 b o_selec_mux $end
$var reg 1 c o_selec_op $end
$comment cur_state is not handled $end
$comment next_state is not handled $end
$upscope $end
$scope module add_counter $end
$var reg 1 d reset $end
$var reg 1 e clk $end
$var reg 1 f ce $end
$var reg 1 g i_enable $end
$var reg 1 h i_init $end
$var reg 1 i i_load $end
$var reg 6 j i_data[5:0] $end
$var reg 6 k o_data[5:0] $end
$var reg 6 l s_data[5:0] $end
$upscope $end
$scope module mux_2_in_i $end
$var reg 1 m i_select $end
$var reg 6 n i_data_0[5:0] $end
$var reg 6 o i_data_1[5:0] $end
$var reg 6 p o_data[5:0] $end
$upscope $end
$scope module reg_inst $end
$var reg 1 q reset $end
$var reg 1 r clk $end
$var reg 1 s ce $end
$var reg 1 t i_load $end
$var reg 8 u i_data[7:0] $end
$var reg 8 v o_data[7:0] $end
$upscope $end
$upscope $end
$scope module ut_i $end
$var reg 1 w reset $end
$var reg 1 x clk $end
$var reg 1 y ce $end
$var reg 8 z i_mem_data[7:0] $end
$var reg 1 { i_selec_op $end
$var reg 1 | i_ld_mem_data $end
$var reg 1 } i_ld_accu $end
$var reg 1 !" i_ld_carry $end
$var reg 1 "" i_init_carry $end
$var reg 8 #" o_mem_data[7:0] $end
$var reg 1 $" o_carry $end
$var reg 8 %" s_mem_data_to_ual[7:0] $end
$var reg 8 &" s_ual_result[7:0] $end
$var reg 8 '" s_accu_data[7:0] $end
$var reg 1 (" s_carry $end
$scope module reg_mem_data $end
$var reg 1 )" reset $end
$var reg 1 *" clk $end
$var reg 1 +" ce $end
$var reg 1 ," i_load $end
$var reg 8 -" i_data[7:0] $end
$var reg 8 ." o_data[7:0] $end
$upscope $end
$scope module reg_accu $end
$var reg 1 /" reset $end
$var reg 1 0" clk $end
$var reg 1 1" ce $end
$var reg 1 2" i_load $end
$var reg 8 3" i_data[7:0] $end
$var reg 8 4" o_data[7:0] $end
$upscope $end
$scope module carry_flipflop $end
$var reg 1 5" reset $end
$var reg 1 6" clk $end
$var reg 1 7" ce $end
$var reg 1 8" i_load $end
$var reg 1 9" i_init $end
$var reg 1 :" i_data $end
$var reg 1 ;" o_data $end
$upscope $end
$scope module ual_i $end
$var reg 1 <" i_selec_op $end
$var reg 8 =" i_data_l[7:0] $end
$var reg 8 >" i_data_r[7:0] $end
$var reg 8 ?" o_data[7:0] $end
$var reg 1 @" o_carry $end
$var reg 8 A" s_data_add[7:0] $end
$var reg 1 B" s_carry_add $end
$scope module addi_n_bits_i $end
$var reg 8 C" i_data_l[7:0] $end
$var reg 8 D" i_data_r[7:0] $end
$var reg 8 E" o_data[7:0] $end
$var reg 1 F" o_carry $end
$var reg 9 G" s_carry[8:0] $end
$scope module addi_n(0) $end
$scope module addi_1 $end
$var reg 1 H" i_data_l $end
$var reg 1 I" i_data_r $end
$var reg 1 J" i_carry $end
$var reg 1 K" o_data $end
$var reg 1 L" o_carry $end
$upscope $end
$upscope $end
$scope module addi_n(1) $end
$scope module addi_1 $end
$var reg 1 M" i_data_l $end
$var reg 1 N" i_data_r $end
$var reg 1 O" i_carry $end
$var reg 1 P" o_data $end
$var reg 1 Q" o_carry $end
$upscope $end
$upscope $end
$scope module addi_n(2) $end
$scope module addi_1 $end
$var reg 1 R" i_data_l $end
$var reg 1 S" i_data_r $end
$var reg 1 T" i_carry $end
$var reg 1 U" o_data $end
$var reg 1 V" o_carry $end
$upscope $end
$upscope $end
$scope module addi_n(3) $end
$scope module addi_1 $end
$var reg 1 W" i_data_l $end
$var reg 1 X" i_data_r $end
$var reg 1 Y" i_carry $end
$var reg 1 Z" o_data $end
$var reg 1 [" o_carry $end
$upscope $end
$upscope $end
$scope module addi_n(4) $end
$scope module addi_1 $end
$var reg 1 \" i_data_l $end
$var reg 1 ]" i_data_r $end
$var reg 1 ^" i_carry $end
$var reg 1 _" o_data $end
$var reg 1 `" o_carry $end
$upscope $end
$upscope $end
$scope module addi_n(5) $end
$scope module addi_1 $end
$var reg 1 a" i_data_l $end
$var reg 1 b" i_data_r $end
$var reg 1 c" i_carry $end
$var reg 1 d" o_data $end
$var reg 1 e" o_carry $end
$upscope $end
$upscope $end
$scope module addi_n(6) $end
$scope module addi_1 $end
$var reg 1 f" i_data_l $end
$var reg 1 g" i_data_r $end
$var reg 1 h" i_carry $end
$var reg 1 i" o_data $end
$var reg 1 j" o_carry $end
$upscope $end
$upscope $end
$scope module addi_n(7) $end
$scope module addi_1 $end
$var reg 1 k" i_data_l $end
$var reg 1 l" i_data_r $end
$var reg 1 m" i_carry $end
$var reg 1 n" o_data $end
$var reg 1 o" o_carry $end
$upscope $end
$upscope $end
$upscope $end
$upscope $end
$upscope $end
$scope module sync_ram_i $end
$var reg 1 p" clk $end
$var reg 1 q" ce $end
$var reg 1 r" i_load $end
$var reg 1 s" i_rw_mode $end
$var reg 6 t" i_address[5:0] $end
$var reg 8 u" i_data[7:0] $end
$var reg 8 v" o_data[7:0] $end
$comment ram is not handled $end
$var reg 6 w" read_address[5:0] $end
$upscope $end
$upscope $end
$enddefinitions $end
#0
1!
0"
1#
bUUUUUU $
b00010001 %
bUUUUUUUU &
1'
0(
1)
bUUUUUU *
bUUUUUUUU +
b00010001 ,
bUUUUUU -
b00010001 .
bUUUUUUUU /
U0
U1
U2
U3
U4
U5
U6
U7
18
09
1:
U;
b00010001 <
bUUUUUU =
U>
U?
U@
UA
UB
UC
UD
0E
UF
0G
UH
UI
0J
0K
0L
0M
UN
UO
0P
bUUUUUUUU Q
bUUUUUU R
1S
0T
1U
UV
bUU W
UX
UY
UZ
U[
U\
U]
U^
U_
U`
Ua
Ub
Uc
1d
0e
1f
Ug
Uh
Ui
bUUUUUU j
bUUUUUU k
bUUUUUU l
Um
bUUUUUU n
bUUUUUU o
bUUUUUU p
1q
0r
1s
Ut
b00010001 u
bUUUUUUUU v
1w
0x
1y
b00010001 z
U{
U|
U}
U!"
U""
bUUUUUUUU #"
U$"
bUUUUUUUU %"
bUUUUUUUU &"
bUUUUUUUU '"
0("
1)"
0*"
1+"
U,"
b00010001 -"
bUUUUUUUU ."
1/"
00"
11"
U2"
bUUUUUUUU 3"
bUUUUUUUU 4"
15"
06"
17"
U8"
U9"
0:"
U;"
U<"
bUUUUUUUU ="
bUUUUUUUU >"
bUUUUUUUU ?"
0@"
bUUUUUUUU A"
UB"
bUUUUUUUU C"
bUUUUUUUU D"
bUUUUUUUU E"
UF"
bUUUUUUUU0 G"
UH"
UI"
0J"
UK"
UL"
UM"
UN"
UO"
UP"
UQ"
UR"
US"
UT"
UU"
UV"
UW"
UX"
UY"
UZ"
U["
U\"
U]"
U^"
U_"
U`"
Ua"
Ub"
Uc"
Ud"
Ue"
Uf"
Ug"
Uh"
Ui"
Uj"
Uk"
Ul"
Um"
Un"
Uo"
0p"
1q"
Ur"
Us"
bUUUUUU t"
bUUUUUUUU u"
b00010001 v"
b000000 w"
#5000000
1"
b000000 $
b00000000 &
1(
b000000 *
b00000000 +
b000000 -
b00000000 /
00
11
02
03
04
05
06
07
19
0;
b000000 =
1>
0?
0@
0A
0B
0C
0D
1F
0H
0I
0N
0O
b00000000 Q
b000000 R
1T
0V
b00 W
1X
1Y
0Z
0[
0\
0]
0^
0_
0`
0a
0b
0c
1e
0g
1h
0i
b000000 j
b000000 k
b000000 l
0m
b000000 n
b000000 o
b000000 p
1r
0t
b00000000 v
1x
0{
0|
0}
0!"
1""
b00000000 #"
0$"
b00000000 %"
b11111111 &"
b00000000 '"
1*"
0,"
b00000000 ."
10"
02"
b11111111 3"
b00000000 4"
16"
08"
19"
0;"
0<"
b00000000 ="
b00000000 >"
b11111111 ?"
b00000000 A"
0B"
b00000000 C"
b00000000 D"
b00000000 E"
0F"
b000000000 G"
0H"
0I"
0K"
0L"
0M"
0N"
0O"
0P"
0Q"
0R"
0S"
0T"
0U"
0V"
0W"
0X"
0Y"
0Z"
0["
0\"
0]"
0^"
0_"
0`"
0a"
0b"
0c"
0d"
0e"
0f"
0g"
0h"
0i"
0j"
0k"
0l"
0m"
0n"
0o"
1p"
0r"
0s"
b000000 t"
b00000000 u"
#10000000
0"
0(
09
0T
0e
0r
0x
0*"
00"
06"
0p"
#15000000
0!
1"
0'
1(
08
19
0S
1T
0d
1e
0q
1r
0w
1x
0)"
1*"
0/"
10"
05"
16"
1p"
#20000000
0"
0(
09
0T
0e
0r
0x
0*"
00"
06"
0p"
#25000000
1"
1(
19
1T
1e
1r
1x
1*"
10"
16"
1p"
#30000000
0"
0(
09
0T
0e
0r
0x
0*"
00"
06"
0p"
#35000000
1"
1(
01
14
19
0>
1A
0F
1I
1N
1T
0X
0Y
1\
1^
1a
1e
1g
0h
1r
1t
1x
0""
1*"
10"
16"
09"
1p"
1r"
#40000000
0"
0(
09
0T
0e
0r
0x
0*"
00"
06"
0p"
#45000000
1"
b010001 $
1(
b010001 *
b010001 -
19
b010001 =
0I
0N
1O
b00010001 Q
b000001 R
1T
0\
0a
1b
1e
0g
b010001 j
b000001 k
b000001 l
1m
b000001 n
b010001 o
b010001 p
1r
0t
b00010001 v
1x
1*"
10"
16"
1p"
b010001 t"
#50000000
0"
b11111111 %
0(
b11111111 ,
b11111111 .
09
b11111111 <
0T
0e
0r
b11111111 u
0x
b11111111 z
0*"
b11111111 -"
00"
06"
0p"
b11111111 v"
b010001 w"
#55000000
1"
1(
04
15
19
0A
1B
1T
0^
1_
1e
1r
1x
1|
1*"
1,"
10"
16"
1p"
0r"
#60000000
0"
0(
09
0T
0e
0r
0x
0*"
00"
06"
0p"
#65000000
1"
1(
13
05
19
1@
0B
1T
1]
0_
1e
1r
1x
0|
1}
b11111111 %"
b00000000 &"
1*"
0,"
b11111111 ."
10"
12"
b00000000 3"
16"
b11111111 ="
b00000000 ?"
b11111111 A"
b11111111 C"
b11111111 E"
1H"
1K"
1M"
1P"
1R"
1U"
1W"
1Z"
1\"
1_"
1a"
1d"
1f"
1i"
1k"
1n"
1p"
#70000000
0"
0(
09
0T
0e
0r
0x
0*"
00"
06"
0p"
#75000000
1"
b000001 $
1(
b000001 *
b000001 -
03
14
19
b000001 =
0@
1A
1I
1N
0O
1T
1\
0]
1^
1a
0b
1e
1g
0m
b000001 p
1r
1t
1x
0}
1*"
10"
02"
16"
1p"
1r"
b000001 t"
#80000000
0"
b00010101 %
0(
b00010101 ,
b00010101 .
09
b00010101 <
0T
0e
0r
b00010101 u
0x
b00010101 z
0*"
b00010101 -"
00"
06"
0p"
b00010101 v"
b000001 w"
#85000000
1"
b010101 $
1(
b010101 *
b010101 -
19
b010101 =
0I
0N
1O
b00010101 Q
b000010 R
1T
0\
0a
1b
1e
0g
b010101 j
b000010 k
b000010 l
1m
b000010 n
b010101 o
b010101 p
1r
0t
b00010101 v
1x
1*"
10"
16"
1p"
b010101 t"
#90000000
0"
b00011000 %
0(
b00011000 ,
b00011000 .
09
b00011000 <
0T
0e
0r
b00011000 u
0x
b00011000 z
0*"
b00011000 -"
00"
06"
0p"
b00011000 v"
b010101 w"
#95000000
1"
1(
04
15
19
0A
1B
1T
0^
1_
1e
1r
1x
1|
1*"
1,"
10"
16"
1p"
0r"
#100000000
0"
0(
09
0T
0e
0r
0x
0*"
00"
06"
0p"
#105000000
1"
1(
13
05
19
1@
0B
1T
1]
0_
1e
1r
1x
0|
1}
b00011000 %"
b11100111 &"
1*"
0,"
b00011000 ."
10"
12"
b11100111 3"
16"
b00011000 ="
b11100111 ?"
b00011000 A"
b00011000 C"
b00011000 E"
0H"
0K"
0M"
0P"
0R"
0U"
0a"
0d"
0f"
0i"
0k"
0n"
1p"
#110000000
0"
0(
09
0T
0e
0r
0x
0*"
00"
06"
0p"
#115000000
1"
b000010 $
b11100111 &
1(
b000010 *
b11100111 +
b000010 -
b11100111 /
03
14
19
b000010 =
0@
1A
1I
1N
0O
1T
1\
0]
1^
1a
0b
1e
1g
0m
b000010 p
1r
1t
1x
0}
b11100111 #"
b00000000 &"
b11100111 '"
1*"
10"
02"
b00000000 3"
b11100111 4"
16"
b11100111 >"
b00000000 ?"
b11111111 A"
b11100111 D"
b11111111 E"
1I"
1K"
1N"
1P"
1S"
1U"
1b"
1d"
1g"
1i"
1l"
1n"
1p"
1r"
b000010 t"
b11100111 u"
#120000000
0"
b01010010 %
0(
b01010010 ,
b01010010 .
09
b01010010 <
0T
0e
0r
b01010010 u
0x
b01010010 z
0*"
b01010010 -"
00"
06"
0p"
b01010010 v"
b000010 w"
#125000000
1"
b010010 $
1(
b010010 *
b010010 -
19
b010010 =
0I
0N
1O
b01010010 Q
b000011 R
1T
b01 W
0\
0a
1b
1e
0g
b010010 j
b000011 k
b000011 l
1m
b000011 n
b010010 o
b010010 p
1r
0t
b01010010 v
1x
1*"
10"
16"
1p"
b010010 t"
#130000000
0"
b00000001 %
0(
b00000001 ,
b00000001 .
09
b00000001 <
0T
0e
0r
b00000001 u
0x
b00000001 z
0*"
b00000001 -"
00"
06"
0p"
b00000001 v"
b010010 w"
#135000000
1"
1(
04
15
19
0A
1B
1T
0^
1_
1e
1r
1x
1|
1*"
1,"
10"
16"
1p"
0r"
#140000000
0"
0(
09
0T
0e
0r
0x
0*"
00"
06"
0p"
#145000000
1"
1(
12
13
05
17
19
1?
1@
0B
1D
1T
1Z
1]
0_
1c
1e
1r
1x
1{
0|
1}
1!"
b00000001 %"
b11101000 &"
1*"
0,"
b00000001 ."
10"
12"
b11101000 3"
16"
18"
1<"
b00000001 ="
b11101000 ?"
b11101000 A"
b00000001 C"
b11101000 E"
b000001110 G"
1H"
0K"
1L"
1O"
0P"
1Q"
1T"
0U"
1V"
0W"
1Y"
1Z"
0\"
0_"
1p"
#150000000
0"
0(
09
0T
0e
0r
0x
0*"
00"
06"
0p"
#155000000
1"
b000011 $
b11101000 &
1(
b000011 *
b11101000 +
b000011 -
b11101000 /
02
03
14
07
19
b000011 =
0?
0@
1A
0D
1I
1N
0O
1T
0Z
1\
0]
1^
1a
0b
0c
1e
1g
0m
b000011 p
1r
1t
1x
0{
0}
0!"
b11101000 #"
b00010110 &"
b11101000 '"
1*"
10"
02"
b00010110 3"
b11101000 4"
16"
08"
0<"
b11101000 >"
b00010110 ?"
b11101001 A"
b11101000 D"
b11101001 E"
b000000000 G"
0I"
1K"
0L"
0N"
0O"
0P"
0Q"
0S"
0T"
0U"
0V"
1X"
0Y"
1Z"
0["
0^"
0_"
1p"
1r"
b000011 t"
b11101000 u"
#160000000
0"
b01010100 %
0(
b01010100 ,
b01010100 .
09
b01010100 <
0T
0e
0r
b01010100 u
0x
b01010100 z
0*"
b01010100 -"
00"
06"
0p"
b01010100 v"
b000011 w"
#165000000
1"
b010100 $
1(
b010100 *
b010100 -
19
b010100 =
0I
0N
1O
b01010100 Q
b000100 R
1T
0\
0a
1b
1e
0g
b010100 j
b000100 k
b000100 l
1m
b000100 n
b010100 o
b010100 p
1r
0t
b01010100 v
1x
1*"
10"
16"
1p"
b010100 t"
#170000000
0"
b00101000 %
0(
b00101000 ,
b00101000 .
09
b00101000 <
0T
0e
0r
b00101000 u
0x
b00101000 z
0*"
b00101000 -"
00"
06"
0p"
b00101000 v"
b010100 w"
#175000000
1"
1(
04
15
19
0A
1B
1T
0^
1_
1e
1r
1x
1|
1*"
1,"
10"
16"
1p"
0r"
#180000000
0"
0(
09
0T
0e
0r
0x
0*"
00"
06"
0p"
#185000000
1"
1(
12
13
05
17
19
1?
1@
0B
1D
1T
1Z
1]
0_
1c
1e
1r
1x
1{
0|
1}
1!"
b00101000 %"
b00010000 &"
1("
1*"
0,"
b00101000 ."
10"
12"
b00010000 3"
16"
18"
1:"
1<"
b00101000 ="
b00010000 ?"
1@"
b00010000 A"
1B"
b00101000 C"
b00010000 E"
1F"
b111010000 G"
0H"
0K"
1W"
0Z"
1["
1^"
1_"
1a"
0d"
1e"
1h"
0i"
1j"
1m"
0n"
1o"
1p"
#190000000
0"
0(
09
0T
0e
0r
0x
0*"
00"
06"
0p"
#195000000
1"
b000100 $
b00010000 &
1(
b000100 *
b00010000 +
b000100 -
b00010000 /
10
02
03
14
07
19
1;
b000100 =
0?
0@
1A
0D
1I
1N
0O
1T
1V
0Z
1\
0]
1^
1a
0b
0c
1e
1g
0m
b000100 p
1r
1t
1x
0{
0}
0!"
b00010000 #"
1$"
b11000111 &"
b00010000 '"
0("
1*"
10"
02"
b11000111 3"
b00010000 4"
16"
08"
0:"
1;"
0<"
b00010000 >"
b11000111 ?"
0@"
b00111000 A"
0B"
b00010000 D"
b00111000 E"
0F"
b000000000 G"
0X"
1Z"
0["
1]"
0^"
1_"
0`"
0b"
0c"
1d"
0e"
0g"
0h"
0i"
0j"
0l"
0m"
0n"
0o"
1p"
1r"
b000100 t"
b00010000 u"
#200000000
0"
b11001001 %
0(
b11001001 ,
b11001001 .
09
b11001001 <
0T
0e
0r
b11001001 u
0x
b11001001 z
0*"
b11001001 -"
00"
06"
0p"
b11001001 v"
b000100 w"
#205000000
1"
b001001 $
1(
b001001 *
b001001 -
19
b001001 =
0I
0N
1O
b11001001 Q
b000101 R
1T
b11 W
0\
0a
1b
1e
0g
b001001 j
b000101 k
b000101 l
1m
b000101 n
b001001 o
b001001 p
1r
0t
b11001001 v
1x
1*"
10"
16"
1p"
b001001 t"
#210000000
0"
b00010011 %
0(
b00010011 ,
b00010011 .
09
b00010011 <
0T
0e
0r
b00010011 u
0x
b00010011 z
0*"
b00010011 -"
00"
06"
0p"
b00010011 v"
b001001 w"
#215000000
1"
1(
04
15
19
0A
1B
1T
0^
1_
1e
1r
1x
1|
1*"
1,"
10"
16"
1p"
0r"
#220000000
0"
0(
09
0T
0e
0r
0x
0*"
00"
06"
0p"
#225000000
1"
1(
11
05
19
1>
0B
1T
1X
0_
1e
1r
1x
0|
1""
b00010011 %"
b11101100 &"
1*"
0,"
b00010011 ."
10"
b11101100 3"
16"
19"
b00010011 ="
b11101100 ?"
b00100011 A"
b00010011 C"
b00100011 E"
b000100000 G"
1H"
1K"
1M"
1P"
0W"
0Z"
1\"
0_"
1`"
0a"
1c"
1d"
1p"
#230000000
0"
0(
09
0T
0e
0r
0x
0*"
00"
06"
0p"
#235000000
1"
b000101 $
1(
b000101 *
b000101 -
00
01
14
19
0;
b000101 =
0>
1A
1I
1N
0O
1T
0V
0X
1\
1^
1a
0b
1e
1g
0m
b000101 p
1r
1t
1x
0""
0$"
1*"
10"
16"
09"
0;"
1p"
1r"
b000101 t"
#240000000
0"
b10010100 %
0(
b10010100 ,
b10010100 .
09
b10010100 <
0T
0e
0r
b10010100 u
0x
b10010100 z
0*"
b10010100 -"
00"
06"
0p"
b10010100 v"
b000101 w"
#245000000
1"
b010100 $
1(
b010100 *
b010100 -
19
b010100 =
0I
0N
1O
b10010100 Q
b000110 R
1T
b10 W
0\
0a
1b
1e
0g
b010100 j
b000110 k
b000110 l
1m
b000110 n
b010100 o
b010100 p
1r
0t
b10010100 v
1x
1*"
10"
16"
1p"
b010100 t"
#250000000
0"
b00101000 %
0(
b00101000 ,
b00101000 .
09
b00101000 <
0T
0e
0r
b00101000 u
0x
b00101000 z
0*"
b00101000 -"
00"
06"
0p"
b00101000 v"
b010100 w"
#255000000
1"
1(
04
15
19
0A
1B
1T
0^
1_
1e
1r
1x
1|
1*"
1,"
10"
16"
1p"
0r"
#260000000
0"
0(
09
0T
0e
0r
0x
0*"
00"
06"
0p"
#265000000
1"
1(
14
05
16
19
1A
0B
1C
1T
1^
0_
1`
1e
1r
1x
0|
b00101000 %"
b11000111 &"
1*"
0,"
b00101000 ."
10"
b11000111 3"
16"
b00101000 ="
b11000111 ?"
b00111000 A"
b00101000 C"
b00111000 E"
b000000000 G"
0H"
0K"
0M"
0P"
1W"
1Z"
0\"
1_"
0`"
1a"
0c"
1d"
0e"
0h"
0i"
1p"
1r"
1s"
#270000000
0"
b00010000 %
0(
b00010000 ,
b00010000 .
09
b00010000 <
0T
0e
0r
b00010000 u
0x
b00010000 z
0*"
b00010000 -"
00"
06"
0p"
b00010000 v"
#275000000
1"
b000110 $
1(
b000110 *
b000110 -
06
19
b000110 =
0C
1I
1N
0O
1T
1\
0`
1a
0b
1e
1g
0m
b000110 p
1r
1t
1x
1*"
10"
16"
1p"
0s"
b000110 t"
#280000000
0"
b01010001 %
0(
b01010001 ,
b01010001 .
09
b01010001 <
0T
0e
0r
b01010001 u
0x
b01010001 z
0*"
b01010001 -"
00"
06"
0p"
b01010001 v"
b000110 w"
#285000000
1"
b010001 $
1(
b010001 *
b010001 -
19
b010001 =
0I
0N
1O
b01010001 Q
b000111 R
1T
b01 W
0\
0a
1b
1e
0g
b010001 j
b000111 k
b000111 l
1m
b000111 n
b010001 o
b010001 p
1r
0t
b01010001 v
1x
1*"
10"
16"
1p"
b010001 t"
#290000000
0"
b11111111 %
0(
b11111111 ,
b11111111 .
09
b11111111 <
0T
0e
0r
b11111111 u
0x
b11111111 z
0*"
b11111111 -"
00"
06"
0p"
b11111111 v"
b010001 w"
#295000000
1"
1(
04
15
19
0A
1B
1T
0^
1_
1e
1r
1x
1|
1*"
1,"
10"
16"
1p"
0r"
#300000000
0"
0(
09
0T
0e
0r
0x
0*"
00"
06"
0p"
#305000000
1"
1(
12
13
05
17
19
1?
1@
0B
1D
1T
1Z
1]
0_
1c
1e
1r
1x
1{
0|
1}
1!"
b11111111 %"
b00001111 &"
1("
1*"
0,"
b11111111 ."
10"
12"
b00001111 3"
16"
18"
1:"
1<"
b11111111 ="
b00001111 ?"
1@"
b00001111 A"
1B"
b11111111 C"
b00001111 E"
1F"
b111100000 G"
1H"
1K"
1M"
1P"
1R"
1U"
1\"
0_"
1`"
1c"
0d"
1e"
1f"
1h"
0i"
1j"
1k"
1m"
0n"
1o"
1p"
#310000000
0"
0(
09
0T
0e
0r
0x
0*"
00"
06"
0p"
#315000000
1"
b000111 $
b00001111 &
1(
b000111 *
b00001111 +
b000111 -
b00001111 /
10
02
03
14
07
19
1;
b000111 =
0?
0@
1A
0D
1I
1N
0O
1T
1V
0Z
1\
0]
1^
1a
0b
0c
1e
1g
0m
b000111 p
1r
1t
1x
0{
0}
0!"
b00001111 #"
1$"
b00000000 &"
b00001111 '"
0("
1*"
10"
02"
b00000000 3"
b00001111 4"
16"
08"
0:"
1;"
0<"
b00001111 >"
b00000000 ?"
0@"
b00001110 A"
1B"
b00001111 D"
b00001110 E"
1F"
b111111110 G"
1I"
0K"
1L"
1N"
1O"
1P"
1Q"
1S"
1T"
1U"
1V"
1X"
1Y"
1Z"
1["
0]"
1^"
0_"
1`"
1c"
0d"
1e"
1h"
0i"
1j"
1m"
0n"
1o"
1p"
1r"
b000111 t"
b00001111 u"
#320000000
0"
b11001101 %
0(
b11001101 ,
b11001101 .
09
b11001101 <
0T
0e
0r
b11001101 u
0x
b11001101 z
0*"
b11001101 -"
00"
06"
0p"
b11001101 v"
b000111 w"
#325000000
1"
b001101 $
1(
b001101 *
b001101 -
19
b001101 =
0I
0N
1O
b11001101 Q
b001000 R
1T
b11 W
0\
0a
1b
1e
0g
b001101 j
b001000 k
b001000 l
1m
b001000 n
b001101 o
b001101 p
1r
0t
b11001101 v
1x
1*"
10"
16"
1p"
b001101 t"
#330000000
0"
0(
09
0T
0e
0r
0x
0*"
00"
06"
0p"
b001101 w"
#335000000
1"
1(
04
15
19
0A
1B
1T
0^
1_
1e
1r
1x
1|
1*"
1,"
10"
16"
1p"
0r"
#340000000
0"
0(
09
0T
0e
0r
0x
0*"
00"
06"
0p"
#345000000
1"
1(
11
05
19
1>
0B
1T
1X
0_
1e
1r
1x
0|
1""
b11001101 %"
b00110000 &"
1*"
0,"
b11001101 ."
10"
b00110000 3"
16"
19"
b11001101 ="
b00110000 ?"
b11011100 A"
0B"
b11001101 C"
b11011100 E"
0F"
b000011110 G"
0M"
0P"
0\"
1_"
0`"
0a"
0c"
0d"
0e"
0h"
1i"
0j"
0m"
1n"
0o"
1p"
#350000000
0"
0(
09
0T
0e
0r
0x
0*"
00"
06"
0p"
#355000000
1"
b001000 $
1(
b001000 *
b001000 -
00
01
14
19
0;
b001000 =
0>
1A
1I
1N
0O
1T
0V
0X
1\
1^
1a
0b
1e
1g
0m
b001000 p
1r
1t
1x
0""
0$"
1*"
10"
16"
09"
0;"
1p"
1r"
b001000 t"
#360000000
0"
b11000000 %
0(
b11000000 ,
b11000000 .
09
b11000000 <
0T
0e
0r
b11000000 u
0x
b11000000 z
0*"
b11000000 -"
00"
06"
0p"
b11000000 v"
b001000 w"
#365000000
1"
b000000 $
1(
b000000 *
b000000 -
19
b000000 =
0I
0N
1O
b11000000 Q
b001001 R
1T
0\
0a
1b
1e
0g
b000000 j
b001001 k
b001001 l
1m
b001001 n
b000000 o
b000000 p
1r
0t
b11000000 v
1x
1*"
10"
16"
1p"
b000000 t"
#370000000
0"
b00010001 %
0(
b00010001 ,
b00010001 .
09
b00010001 <
0T
0e
0r
b00010001 u
0x
b00010001 z
0*"
b00010001 -"
00"
06"
0p"
b00010001 v"
b000000 w"
#375000000
1"
1(
04
15
19
0A
1B
1T
0^
1_
1e
1r
1x
1|
1*"
1,"
10"
16"
1p"
0r"
#380000000
0"
0(
09
0T
0e
0r
0x
0*"
00"
06"
0p"
#385000000
1"
1(
05
19
0B
1H
1T
1[
0_
1e
1i
1r
1x
0|
b00010001 %"
b11100000 &"
1*"
0,"
b00010001 ."
10"
b11100000 3"
16"
b00010001 ="
b11100000 ?"
b00100000 A"
b00010001 C"
b00100000 E"
b000111110 G"
0R"
0U"
0W"
0Z"
1\"
0_"
1`"
1c"
1d"
0f"
0i"
0k"
0n"
1p"
#390000000
0"
0(
09
0T
0e
0r
0x
0*"
00"
06"
0p"
#395000000
1"
b000000 $
1(
b000000 *
b000000 -
14
19
b000000 =
1A
0H
1I
1N
0O
b000000 R
1T
0[
1\
1^
1a
0b
1e
1g
0i
b000000 k
b000000 l
0m
b000000 n
b000000 p
1r
1t
1x
1*"
10"
16"
1p"
1r"
b000000 t"
#400000000
0"
0(
09
0T
0e
0r
0x
0*"
00"
06"
0p"
#405000000
1"
b010001 $
1(
b010001 *
b010001 -
19
b010001 =
0I
0N
1O
b00010001 Q
b000001 R
1T
b00 W
0\
0a
1b
1e
0g
b010001 j
b000001 k
b000001 l
1m
b000001 n
b010001 o
b010001 p
1r
0t
b00010001 v
1x
1*"
10"
16"
1p"
b010001 t"
#410000000
0"
b11111111 %
0(
b11111111 ,
b11111111 .
09
b11111111 <
0T
0e
0r
b11111111 u
0x
b11111111 z
0*"
b11111111 -"
00"
06"
0p"
b11111111 v"
b010001 w"
#415000000
1"
1(
04
15
19
0A
1B
1T
0^
1_
1e
1r
1x
1|
1*"
1,"
10"
16"
1p"
0r"
#420000000
0"
0(
09
0T
0e
0r
0x
0*"
00"
06"
0p"
