vcd/tb_cpu.vcd
$date
  Sun Feb 10 16:13:32 2019
$end
$version
  GHDL v0
$end
$timescale
  1 fs
$end
$var reg 1 ! reset $end
$var reg 1 " clk $end
$scope module cpu_i $end
$var reg 1 # reset $end
$var reg 1 $ clk $end
$var reg 6 % s_mem_address[5:0] $end
$var reg 8 & s_mem_out[7:0] $end
$var reg 8 ' s_mem_in[7:0] $end
$var reg 1 ( s_carry $end
$var reg 1 ) s_init_carry $end
$var reg 1 * s_ld_carry $end
$var reg 1 + s_ld_accu $end
$var reg 1 , s_ld_mem $end
$var reg 1 - s_ld_mem_data $end
$var reg 1 . s_rw_mem_mode $end
$var reg 1 / s_selec_op $end
$scope module uc_i $end
$var reg 1 0 reset $end
$var reg 1 1 clk $end
$var reg 1 2 i_carry $end
$var reg 8 3 i_mem_data[7:0] $end
$var reg 6 4 o_mem_data[5:0] $end
$var reg 1 5 o_init_carry $end
$var reg 1 6 o_ld_carry $end
$var reg 1 7 o_ld_accu $end
$var reg 1 8 o_ld_mem $end
$var reg 1 9 o_ld_mem_data $end
$var reg 1 : o_rw_mem_mode $end
$var reg 1 ; o_selec_op $end
$var reg 1 < s_init_carry $end
$var reg 1 = s_init_cpt_add $end
$var reg 1 > s_ld_carry $end
$var reg 1 ? s_ld_cpt_add $end
$var reg 1 @ s_ld_inst $end
$var reg 1 A s_ld_accu $end
$var reg 1 B s_ld_mem $end
$var reg 1 C s_ld_mem_data $end
$var reg 1 D s_rw_mem_mode $end
$var reg 1 E s_en_cpt_add $end
$var reg 1 F s_selec_mux $end
$var reg 1 G s_selec_op $end
$var reg 8 H s_cur_inst[7:0] $end
$var reg 6 I s_mux_in_0[5:0] $end
$scope module uc_fsm_i $end
$var reg 1 J reset $end
$var reg 1 K clk $end
$var reg 1 L i_carry $end
$var reg 2 M i_op_code[1:0] $end
$var reg 1 N o_init_carry $end
$var reg 1 O o_init_cpt_add $end
$var reg 1 P o_ld_carry $end
$var reg 1 Q o_ld_cpt_add $end
$var reg 1 R o_ld_inst $end
$var reg 1 S o_ld_accu $end
$var reg 1 T o_ld_mem $end
$var reg 1 U o_ld_mem_data $end
$var reg 1 V o_rw_mem_mode $end
$var reg 1 W o_en_cpt_add $end
$var reg 1 X o_selec_mux $end
$var reg 1 Y o_selec_op $end
$comment cur_state is not handled $end
$comment next_state is not handled $end
$upscope $end
$scope module add_counter $end
$var reg 1 Z reset $end
$var reg 1 [ clk $end
$var reg 1 \ i_enable $end
$var reg 1 ] i_init $end
$var reg 1 ^ i_load $end
$var reg 6 _ i_data[5:0] $end
$var reg 6 ` o_data[5:0] $end
$var reg 6 a s_data[5:0] $end
$upscope $end
$scope module mux_2_in_i $end
$var reg 1 b i_select $end
$var reg 6 c i_data_0[5:0] $end
$var reg 6 d i_data_1[5:0] $end
$var reg 6 e o_data[5:0] $end
$upscope $end
$scope module reg_inst $end
$var reg 1 f reset $end
$var reg 1 g clk $end
$var reg 1 h i_load $end
$var reg 8 i i_data[7:0] $end
$var reg 8 j o_data[7:0] $end
$upscope $end
$upscope $end
$scope module ut_i $end
$var reg 1 k reset $end
$var reg 1 l clk $end
$var reg 8 m i_mem_data[7:0] $end
$var reg 1 n i_selec_op $end
$var reg 1 o i_ld_mem_data $end
$var reg 1 p i_ld_accu $end
$var reg 1 q i_ld_carry $end
$var reg 1 r i_init_carry $end
$var reg 8 s o_mem_data[7:0] $end
$var reg 1 t o_carry $end
$var reg 8 u s_mem_data_to_ual[7:0] $end
$var reg 8 v s_ual_result[7:0] $end
$var reg 8 w s_accu_data[7:0] $end
$var reg 1 x s_carry $end
$scope module reg_mem_data $end
$var reg 1 y reset $end
$var reg 1 z clk $end
$var reg 1 { i_load $end
$var reg 8 | i_data[7:0] $end
$var reg 8 } o_data[7:0] $end
$upscope $end
$scope module reg_accu $end
$var reg 1 !" reset $end
$var reg 1 "" clk $end
$var reg 1 #" i_load $end
$var reg 8 $" i_data[7:0] $end
$var reg 8 %" o_data[7:0] $end
$upscope $end
$scope module carry_flipflop $end
$var reg 1 &" reset $end
$var reg 1 '" clk $end
$var reg 1 (" i_load $end
$var reg 1 )" i_init $end
$var reg 1 *" i_data $end
$var reg 1 +" o_data $end
$upscope $end
$scope module ual_i $end
$var reg 1 ," i_selec_op $end
$var reg 8 -" i_data_l[7:0] $end
$var reg 8 ." i_data_r[7:0] $end
$var reg 8 /" o_data[7:0] $end
$var reg 1 0" o_carry $end
$var reg 8 1" s_data_add[7:0] $end
$var reg 1 2" s_carry_add $end
$scope module addi_n_bits_i $end
$var reg 8 3" i_data_l[7:0] $end
$var reg 8 4" i_data_r[7:0] $end
$var reg 8 5" o_data[7:0] $end
$var reg 1 6" o_carry $end
$var reg 9 7" s_carry[8:0] $end
$scope module addi_n(0) $end
$scope module addi_1 $end
$var reg 1 8" i_data_l $end
$var reg 1 9" i_data_r $end
$var reg 1 :" i_carry $end
$var reg 1 ;" o_data $end
$var reg 1 <" o_carry $end
$upscope $end
$upscope $end
$scope module addi_n(1) $end
$scope module addi_1 $end
$var reg 1 =" i_data_l $end
$var reg 1 >" i_data_r $end
$var reg 1 ?" i_carry $end
$var reg 1 @" o_data $end
$var reg 1 A" o_carry $end
$upscope $end
$upscope $end
$scope module addi_n(2) $end
$scope module addi_1 $end
$var reg 1 B" i_data_l $end
$var reg 1 C" i_data_r $end
$var reg 1 D" i_carry $end
$var reg 1 E" o_data $end
$var reg 1 F" o_carry $end
$upscope $end
$upscope $end
$scope module addi_n(3) $end
$scope module addi_1 $end
$var reg 1 G" i_data_l $end
$var reg 1 H" i_data_r $end
$var reg 1 I" i_carry $end
$var reg 1 J" o_data $end
$var reg 1 K" o_carry $end
$upscope $end
$upscope $end
$scope module addi_n(4) $end
$scope module addi_1 $end
$var reg 1 L" i_data_l $end
$var reg 1 M" i_data_r $end
$var reg 1 N" i_carry $end
$var reg 1 O" o_data $end
$var reg 1 P" o_carry $end
$upscope $end
$upscope $end
$scope module addi_n(5) $end
$scope module addi_1 $end
$var reg 1 Q" i_data_l $end
$var reg 1 R" i_data_r $end
$var reg 1 S" i_carry $end
$var reg 1 T" o_data $end
$var reg 1 U" o_carry $end
$upscope $end
$upscope $end
$scope module addi_n(6) $end
$scope module addi_1 $end
$var reg 1 V" i_data_l $end
$var reg 1 W" i_data_r $end
$var reg 1 X" i_carry $end
$var reg 1 Y" o_data $end
$var reg 1 Z" o_carry $end
$upscope $end
$upscope $end
$scope module addi_n(7) $end
$scope module addi_1 $end
$var reg 1 [" i_data_l $end
$var reg 1 \" i_data_r $end
$var reg 1 ]" i_carry $end
$var reg 1 ^" o_data $end
$var reg 1 _" o_carry $end
$upscope $end
$upscope $end
$upscope $end
$upscope $end
$upscope $end
$scope module sync_ram_i $end
$var reg 1 `" clk $end
$var reg 1 a" i_load $end
$var reg 1 b" i_rw_mode $end
$var reg 6 c" i_address[5:0] $end
$var reg 8 d" i_data[7:0] $end
$var reg 8 e" o_data[7:0] $end
$comment ram is not handled $end
$var reg 6 f" read_address[5:0] $end
$upscope $end
$upscope $end
$enddefinitions $end
#0
1!
0"
1#
0$
bUUUUUU %
b00010001 &
bUUUUUUUU '
U(
U)
U*
U+
U,
U-
U.
U/
10
01
U2
b00010001 3
bUUUUUU 4
U5
U6
U7
U8
U9
U:
U;
0<
U=
0>
U?
U@
0A
0B
0C
0D
UE
UF
0G
bUUUUUUUU H
bUUUUUU I
1J
0K
UL
bUU M
UN
UO
UP
UQ
UR
US
UT
UU
UV
UW
UX
UY
1Z
0[
U\
U]
U^
bUUUUUU _
bUUUUUU `
bUUUUUU a
Ub
bUUUUUU c
bUUUUUU d
bUUUUUU e
1f
0g
Uh
b00010001 i
bUUUUUUUU j
1k
0l
b00010001 m
Un
Uo
Up
Uq
Ur
bUUUUUUUU s
Ut
bUUUUUUUU u
bUUUUUUUU v
bUUUUUUUU w
0x
1y
0z
U{
b00010001 |
bUUUUUUUU }
1!"
0""
U#"
bUUUUUUUU $"
bUUUUUUUU %"
1&"
0'"
U("
U)"
0*"
U+"
U,"
bUUUUUUUU -"
bUUUUUUUU ."
bUUUUUUUU /"
00"
bUUUUUUUU 1"
U2"
bUUUUUUUU 3"
bUUUUUUUU 4"
bUUUUUUUU 5"
U6"
bUUUUUUUU0 7"
U8"
U9"
0:"
U;"
U<"
U="
U>"
U?"
U@"
UA"
UB"
UC"
UD"
UE"
UF"
UG"
UH"
UI"
UJ"
UK"
UL"
UM"
UN"
UO"
UP"
UQ"
UR"
US"
UT"
UU"
UV"
UW"
UX"
UY"
UZ"
U["
U\"
U]"
U^"
U_"
0`"
Ua"
Ub"
bUUUUUU c"
bUUUUUUUU d"
b00010001 e"
bUUUUUU f"
#5000000
1"
1$
b000000 %
b00000000 '
0(
1)
0*
0+
0,
0-
0.
0/
11
02
b000000 4
15
06
07
08
09
0:
0;
1=
0?
0@
0E
0F
b00000000 H
b000000 I
1K
0L
b00 M
1N
1O
0P
0Q
0R
0S
0T
0U
0V
0W
0X
0Y
1[
0\
1]
0^
b000000 _
b000000 `
b000000 a
0b
b000000 c
b000000 d
b000000 e
1g
0h
b00000000 j
1l
0n
0o
0p
0q
1r
b00000000 s
0t
b00000000 u
b11111111 v
b00000000 w
1z
0{
b00000000 }
1""
0#"
b11111111 $"
b00000000 %"
1'"
0("
1)"
0+"
0,"
b00000000 -"
b00000000 ."
b11111111 /"
b00000000 1"
02"
b00000000 3"
b00000000 4"
b00000000 5"
06"
b000000000 7"
08"
09"
0;"
0<"
0="
0>"
0?"
0@"
0A"
0B"
0C"
0D"
0E"
0F"
0G"
0H"
0I"
0J"
0K"
0L"
0M"
0N"
0O"
0P"
0Q"
0R"
0S"
0T"
0U"
0V"
0W"
0X"
0Y"
0Z"
0["
0\"
0]"
0^"
0_"
1`"
0a"
0b"
b000000 c"
b00000000 d"
#10000000
0"
0$
01
0K
0[
0g
0l
0z
0""
0'"
0`"
#15000000
0!
1"
0#
1$
00
11
0J
1K
0Z
1[
0f
1g
0k
1l
0y
1z
0!"
1""
0&"
1'"
1`"
#20000000
0"
0$
01
0K
0[
0g
0l
0z
0""
0'"
0`"
#25000000
1"
1$
11
1K
1[
1g
1l
1z
1""
1'"
1`"
#30000000
0"
0$
01
0K
0[
0g
0l
0z
0""
0'"
0`"
#35000000
1"
1$
0)
1,
11
05
18
0=
1@
1E
1K
0N
0O
1R
1T
1W
1[
1\
0]
1g
1h
1l
0r
1z
1""
1'"
0)"
1`"
1a"
#40000000
0"
0$
01
0K
0[
0g
0l
0z
0""
0'"
0`"
b000000 f"
#45000000
1"
1$
b010001 %
11
b010001 4
0@
0E
1F
b00010001 H
b000001 I
1K
0R
0W
1X
1[
0\
b010001 _
b000001 `
b000001 a
1b
b000001 c
b010001 d
b010001 e
1g
0h
b00010001 j
1l
1z
1""
1'"
1`"
b010001 c"
#50000000
0"
0$
b11111111 &
01
b11111111 3
0K
0[
0g
b11111111 i
0l
b11111111 m
0z
b11111111 |
0""
0'"
0`"
b11111111 e"
b010001 f"
#55000000
1"
1$
0,
1-
11
08
19
1K
0T
1U
1[
1g
1l
1o
1z
1{
1""
1'"
1`"
0a"
#60000000
0"
0$
01
0K
0[
0g
0l
0z
0""
0'"
0`"
#65000000
1"
1$
1+
0-
11
17
09
1K
1S
0U
1[
1g
1l
0o
1p
b11111111 u
b00000000 v
1z
0{
b11111111 }
1""
1#"
b00000000 $"
1'"
b11111111 -"
b00000000 /"
b11111111 1"
b11111111 3"
b11111111 5"
18"
1;"
1="
1@"
1B"
1E"
1G"
1J"
1L"
1O"
1Q"
1T"
1V"
1Y"
1["
1^"
1`"
#70000000
0"
0$
01
0K
0[
0g
0l
0z
0""
0'"
0`"
#75000000
1"
1$
b000001 %
0+
1,
11
b000001 4
07
18
1@
1E
0F
1K
1R
0S
1T
1W
0X
1[
1\
0b
b000001 e
1g
1h
1l
0p
1z
1""
0#"
1'"
1`"
1a"
b000001 c"
#80000000
0"
0$
b00010101 &
01
b00010101 3
0K
0[
0g
b00010101 i
0l
b00010101 m
0z
b00010101 |
0""
0'"
0`"
b00010101 e"
b000001 f"
#85000000
1"
1$
b010101 %
11
b010101 4
0@
0E
1F
b00010101 H
b000010 I
1K
0R
0W
1X
1[
0\
b010101 _
b000010 `
b000010 a
1b
b000010 c
b010101 d
b010101 e
1g
0h
b00010101 j
1l
1z
1""
1'"
1`"
b010101 c"
#90000000
0"
0$
b00011000 &
01
b00011000 3
0K
0[
0g
b00011000 i
0l
b00011000 m
0z
b00011000 |
0""
0'"
0`"
b00011000 e"
b010101 f"
#95000000
1"
1$
0,
1-
11
08
19
1K
0T
1U
1[
1g
1l
1o
1z
1{
1""
1'"
1`"
0a"
#100000000
0"
0$
01
0K
0[
0g
0l
0z
0""
0'"
0`"
#105000000
1"
1$
1+
0-
11
17
09
1K
1S
0U
1[
1g
1l
0o
1p
b00011000 u
b11100111 v
1z
0{
b00011000 }
1""
1#"
b11100111 $"
1'"
b00011000 -"
b11100111 /"
b00011000 1"
b00011000 3"
b00011000 5"
08"
0;"
0="
0@"
0B"
0E"
0Q"
0T"
0V"
0Y"
0["
0^"
1`"
#110000000
0"
0$
01
0K
0[
0g
0l
0z
0""
0'"
0`"
#115000000
1"
1$
b000010 %
b11100111 '
0+
1,
11
b000010 4
07
18
1@
1E
0F
1K
1R
0S
1T
1W
0X
1[
1\
0b
b000010 e
1g
1h
1l
0p
b11100111 s
b00000000 v
b11100111 w
1z
1""
0#"
b00000000 $"
b11100111 %"
1'"
b11100111 ."
b00000000 /"
b11111111 1"
b11100111 4"
b11111111 5"
19"
1;"
1>"
1@"
1C"
1E"
1R"
1T"
1W"
1Y"
1\"
1^"
1`"
1a"
b000010 c"
b11100111 d"
#120000000
0"
0$
b01010010 &
01
b01010010 3
0K
0[
0g
b01010010 i
0l
b01010010 m
0z
b01010010 |
0""
0'"
0`"
b01010010 e"
b000010 f"
#125000000
1"
1$
b010010 %
11
b010010 4
0@
0E
1F
b01010010 H
b000011 I
1K
b01 M
0R
0W
1X
1[
0\
b010010 _
b000011 `
b000011 a
1b
b000011 c
b010010 d
b010010 e
1g
0h
b01010010 j
1l
1z
1""
1'"
1`"
b010010 c"
#130000000
0"
0$
b00000001 &
01
b00000001 3
0K
0[
0g
b00000001 i
0l
b00000001 m
0z
b00000001 |
0""
0'"
0`"
b00000001 e"
b010010 f"
#135000000
1"
1$
0,
1-
11
08
19
1K
0T
1U
1[
1g
1l
1o
1z
1{
1""
1'"
1`"
0a"
#140000000
0"
0$
01
0K
0[
0g
0l
0z
0""
0'"
0`"
#145000000
1"
1$
1*
1+
0-
1/
11
16
17
09
1;
1K
1P
1S
0U
1Y
1[
1g
1l
1n
0o
1p
1q
b00000001 u
b11101000 v
1z
0{
b00000001 }
1""
1#"
b11101000 $"
1'"
1("
1,"
b00000001 -"
b11101000 /"
b11101000 1"
b00000001 3"
b11101000 5"
b000001110 7"
18"
0;"
1<"
1?"
0@"
1A"
1D"
0E"
1F"
0G"
1I"
1J"
0L"
0O"
1`"
#150000000
0"
0$
01
0K
0[
0g
0l
0z
0""
0'"
0`"
#155000000
1"
1$
b000011 %
b11101000 '
0*
0+
1,
0/
11
b000011 4
06
07
18
0;
1@
1E
0F
1K
0P
1R
0S
1T
1W
0X
0Y
1[
1\
0b
b000011 e
1g
1h
1l
0n
0p
0q
b11101000 s
b00010110 v
b11101000 w
1z
1""
0#"
b00010110 $"
b11101000 %"
1'"
0("
0,"
b11101000 ."
b00010110 /"
b11101001 1"
b11101000 4"
b11101001 5"
b000000000 7"
09"
1;"
0<"
0>"
0?"
0@"
0A"
0C"
0D"
0E"
0F"
1H"
0I"
1J"
0K"
0N"
0O"
1`"
1a"
b000011 c"
b11101000 d"
#160000000
0"
0$
b01010100 &
01
b01010100 3
0K
0[
0g
b01010100 i
0l
b01010100 m
0z
b01010100 |
0""
0'"
0`"
b01010100 e"
b000011 f"
#165000000
1"
1$
b010100 %
11
b010100 4
0@
0E
1F
b01010100 H
b000100 I
1K
0R
0W
1X
1[
0\
b010100 _
b000100 `
b000100 a
1b
b000100 c
b010100 d
b010100 e
1g
0h
b01010100 j
1l
1z
1""
1'"
1`"
b010100 c"
#170000000
0"
0$
b00101000 &
01
b00101000 3
0K
0[
0g
b00101000 i
0l
b00101000 m
0z
b00101000 |
0""
0'"
0`"
b00101000 e"
b010100 f"
#175000000
1"
1$
0,
1-
11
08
19
1K
0T
1U
1[
1g
1l
1o
1z
1{
1""
1'"
1`"
0a"
#180000000
0"
0$
01
0K
0[
0g
0l
0z
0""
0'"
0`"
#185000000
1"
1$
1*
1+
0-
1/
11
16
17
09
1;
1K
1P
1S
0U
1Y
1[
1g
1l
1n
0o
1p
1q
b00101000 u
b00010000 v
1x
1z
0{
b00101000 }
1""
1#"
b00010000 $"
1'"
1("
1*"
1,"
b00101000 -"
b00010000 /"
10"
b00010000 1"
12"
b00101000 3"
b00010000 5"
16"
b111010000 7"
08"
0;"
1G"
0J"
1K"
1N"
1O"
1Q"
0T"
1U"
1X"
0Y"
1Z"
1]"
0^"
1_"
1`"
#190000000
0"
0$
01
0K
0[
0g
0l
0z
0""
0'"
0`"
#195000000
1"
1$
b000100 %
b00010000 '
1(
0*
0+
1,
0/
11
12
b000100 4
06
07
18
0;
1@
1E
0F
1K
1L
0P
1R
0S
1T
1W
0X
0Y
1[
1\
0b
b000100 e
1g
1h
1l
0n
0p
0q
b00010000 s
1t
b11000111 v
b00010000 w
0x
1z
1""
0#"
b11000111 $"
b00010000 %"
1'"
0("
0*"
1+"
0,"
b00010000 ."
b11000111 /"
00"
b00111000 1"
02"
b00010000 4"
b00111000 5"
06"
b000000000 7"
0H"
1J"
0K"
1M"
0N"
1O"
0P"
0R"
0S"
1T"
0U"
0W"
0X"
0Y"
0Z"
0\"
0]"
0^"
0_"
1`"
1a"
b000100 c"
b00010000 d"
#200000000
0"
0$
b11001001 &
01
b11001001 3
0K
0[
0g
b11001001 i
0l
b11001001 m
0z
b11001001 |
0""
0'"
0`"
b11001001 e"
b000100 f"
#205000000
1"
1$
b001001 %
11
b001001 4
0@
0E
1F
b11001001 H
b000101 I
1K
b11 M
0R
0W
1X
1[
0\
b001001 _
b000101 `
b000101 a
1b
b000101 c
b001001 d
b001001 e
1g
0h
b11001001 j
1l
1z
1""
1'"
1`"
b001001 c"
#210000000
0"
0$
b00010011 &
01
b00010011 3
0K
0[
0g
b00010011 i
0l
b00010011 m
0z
b00010011 |
0""
0'"
0`"
b00010011 e"
b001001 f"
#215000000
1"
1$
0,
1-
11
08
19
1K
0T
1U
1[
1g
1l
1o
1z
1{
1""
1'"
1`"
0a"
#220000000
0"
0$
01
0K
0[
0g
0l
0z
0""
0'"
0`"
#225000000
1"
1$
1)
0-
11
15
09
1K
1N
0U
1[
1g
1l
0o
1r
b00010011 u
b11101100 v
1z
0{
b00010011 }
1""
b11101100 $"
1'"
1)"
b00010011 -"
b11101100 /"
b00100011 1"
b00010011 3"
b00100011 5"
b000100000 7"
18"
1;"
1="
1@"
0G"
0J"
1L"
0O"
1P"
0Q"
1S"
1T"
1`"
#230000000
0"
0$
01
0K
0[
0g
0l
0z
0""
0'"
0`"
#235000000
1"
1$
b000101 %
0(
0)
1,
11
02
b000101 4
05
18
1@
1E
0F
1K
0L
0N
1R
1T
1W
0X
1[
1\
0b
b000101 e
1g
1h
1l
0r
0t
1z
1""
1'"
0)"
0+"
1`"
1a"
b000101 c"
#240000000
0"
0$
b10010100 &
01
b10010100 3
0K
0[
0g
b10010100 i
0l
b10010100 m
0z
b10010100 |
0""
0'"
0`"
b10010100 e"
b000101 f"
#245000000
1"
1$
b010100 %
11
b010100 4
0@
0E
1F
b10010100 H
b000110 I
1K
b10 M
0R
0W
1X
1[
0\
b010100 _
b000110 `
b000110 a
1b
b000110 c
b010100 d
b010100 e
1g
0h
b10010100 j
1l
1z
1""
1'"
1`"
b010100 c"
#250000000
0"
0$
b00101000 &
01
b00101000 3
0K
0[
0g
b00101000 i
0l
b00101000 m
0z
b00101000 |
0""
0'"
0`"
b00101000 e"
b010100 f"
#255000000
1"
1$
0,
1-
11
08
19
1K
0T
1U
1[
1g
1l
1o
1z
1{
1""
1'"
1`"
0a"
#260000000
0"
0$
01
0K
0[
0g
0l
0z
0""
0'"
0`"
#265000000
1"
1$
1,
0-
1.
11
18
09
1:
1K
1T
0U
1V
1[
1g
1l
0o
b00101000 u
b11000111 v
1z
0{
b00101000 }
1""
b11000111 $"
1'"
b00101000 -"
b11000111 /"
b00111000 1"
b00101000 3"
b00111000 5"
b000000000 7"
08"
0;"
0="
0@"
1G"
1J"
0L"
1O"
0P"
1Q"
0S"
1T"
0U"
0X"
0Y"
1`"
1a"
1b"
#270000000
0"
0$
b00010000 &
01
b00010000 3
0K
0[
0g
b00010000 i
0l
b00010000 m
0z
b00010000 |
0""
0'"
0`"
b00010000 e"
#275000000
1"
1$
b000110 %
0.
11
b000110 4
0:
1@
1E
0F
1K
1R
0V
1W
0X
1[
1\
0b
b000110 e
1g
1h
1l
1z
1""
1'"
1`"
0b"
b000110 c"
#280000000
0"
0$
b01010001 &
01
b01010001 3
0K
0[
0g
b01010001 i
0l
b01010001 m
0z
b01010001 |
0""
0'"
0`"
b01010001 e"
b000110 f"
#285000000
1"
1$
b010001 %
11
b010001 4
0@
0E
1F
b01010001 H
b000111 I
1K
b01 M
0R
0W
1X
1[
0\
b010001 _
b000111 `
b000111 a
1b
b000111 c
b010001 d
b010001 e
1g
0h
b01010001 j
1l
1z
1""
1'"
1`"
b010001 c"
#290000000
0"
0$
b11111111 &
01
b11111111 3
0K
0[
0g
b11111111 i
0l
b11111111 m
0z
b11111111 |
0""
0'"
0`"
b11111111 e"
b010001 f"
#295000000
1"
1$
0,
1-
11
08
19
1K
0T
1U
1[
1g
1l
1o
1z
1{
1""
1'"
1`"
0a"
#300000000
0"
0$
01
0K
0[
0g
0l
0z
0""
0'"
0`"
#305000000
1"
1$
1*
1+
0-
1/
11
16
17
09
1;
1K
1P
1S
0U
1Y
1[
1g
1l
1n
0o
1p
1q
b11111111 u
b00001111 v
1x
1z
0{
b11111111 }
1""
1#"
b00001111 $"
1'"
1("
1*"
1,"
b11111111 -"
b00001111 /"
10"
b00001111 1"
12"
b11111111 3"
b00001111 5"
16"
b111100000 7"
18"
1;"
1="
1@"
1B"
1E"
1L"
0O"
1P"
1S"
0T"
1U"
1V"
1X"
0Y"
1Z"
1["
1]"
0^"
1_"
1`"
#310000000
0"
0$
01
0K
0[
0g
0l
0z
0""
0'"
0`"
#315000000
1"
1$
b000111 %
b00001111 '
1(
0*
0+
1,
0/
11
12
b000111 4
06
07
18
0;
1@
1E
0F
1K
1L
0P
1R
0S
1T
1W
0X
0Y
1[
1\
0b
b000111 e
1g
1h
1l
0n
0p
0q
b00001111 s
1t
b00000000 v
b00001111 w
0x
1z
1""
0#"
b00000000 $"
b00001111 %"
1'"
0("
0*"
1+"
0,"
b00001111 ."
b00000000 /"
00"
b00001110 1"
12"
b00001111 4"
b00001110 5"
16"
b111111110 7"
19"
0;"
1<"
1>"
1?"
1@"
1A"
1C"
1D"
1E"
1F"
1H"
1I"
1J"
1K"
0M"
1N"
0O"
1P"
1S"
0T"
1U"
1X"
0Y"
1Z"
1]"
0^"
1_"
1`"
1a"
b000111 c"
b00001111 d"
#320000000
0"
0$
b11001101 &
01
b11001101 3
0K
0[
0g
b11001101 i
0l
b11001101 m
0z
b11001101 |
0""
0'"
0`"
b11001101 e"
b000111 f"
#325000000
1"
1$
b001101 %
11
b001101 4
0@
0E
1F
b11001101 H
b001000 I
1K
b11 M
0R
0W
1X
1[
0\
b001101 _
b001000 `
b001000 a
1b
b001000 c
b001101 d
b001101 e
1g
0h
b11001101 j
1l
1z
1""
1'"
1`"
b001101 c"
#330000000
0"
0$
01
0K
0[
0g
0l
0z
0""
0'"
0`"
b001101 f"
#335000000
1"
1$
0,
1-
11
08
19
1K
0T
1U
1[
1g
1l
1o
1z
1{
1""
1'"
1`"
0a"
#340000000
0"
0$
01
0K
0[
0g
0l
0z
0""
0'"
0`"
#345000000
1"
1$
1)
0-
11
15
09
1K
1N
0U
1[
1g
1l
0o
1r
b11001101 u
b00110000 v
1z
0{
b11001101 }
1""
b00110000 $"
1'"
1)"
b11001101 -"
b00110000 /"
b11011100 1"
02"
b11001101 3"
b11011100 5"
06"
b000011110 7"
0="
0@"
0L"
1O"
0P"
0Q"
0S"
0T"
0U"
0X"
1Y"
0Z"
0]"
1^"
0_"
1`"
#350000000
0"
0$
01
0K
0[
0g
0l
0z
0""
0'"
0`"
#355000000
1"
1$
b001000 %
0(
0)
1,
11
02
b001000 4
05
18
1@
1E
0F
1K
0L
0N
1R
1T
1W
0X
1[
1\
0b
b001000 e
1g
1h
1l
0r
0t
1z
1""
1'"
0)"
0+"
1`"
1a"
b001000 c"
#360000000
0"
0$
b11000000 &
01
b11000000 3
0K
0[
0g
b11000000 i
0l
b11000000 m
0z
b11000000 |
0""
0'"
0`"
b11000000 e"
b001000 f"
#365000000
1"
1$
b000000 %
11
b000000 4
0@
0E
1F
b11000000 H
b001001 I
1K
0R
0W
1X
1[
0\
b000000 _
b001001 `
b001001 a
1b
b001001 c
b000000 d
b000000 e
1g
0h
b11000000 j
1l
1z
1""
1'"
1`"
b000000 c"
#370000000
0"
0$
b00010001 &
01
b00010001 3
0K
0[
0g
b00010001 i
0l
b00010001 m
0z
b00010001 |
0""
0'"
0`"
b00010001 e"
b000000 f"
#375000000
1"
1$
0,
1-
11
08
19
1K
0T
1U
1[
1g
1l
1o
1z
1{
1""
1'"
1`"
0a"
#380000000
0"
0$
01
0K
0[
0g
0l
0z
0""
0'"
0`"
#385000000
1"
1$
0-
11
09
1?
1K
1Q
0U
1[
1^
1g
1l
0o
b00010001 u
b11100000 v
1z
0{
b00010001 }
1""
b11100000 $"
1'"
b00010001 -"
b11100000 /"
b00100000 1"
b00010001 3"
b00100000 5"
b000111110 7"
0B"
0E"
0G"
0J"
1L"
0O"
1P"
1S"
1T"
0V"
0Y"
0["
0^"
1`"
#390000000
0"
0$
01
0K
0[
0g
0l
0z
0""
0'"
0`"
#395000000
1"
1$
b000000 %
1,
11
b000000 4
18
0?
1@
1E
0F
b000000 I
1K
0Q
1R
1T
1W
0X
1[
1\
0^
b000000 `
b000000 a
0b
b000000 c
b000000 e
1g
1h
1l
1z
1""
1'"
1`"
1a"
b000000 c"
#400000000
0"
0$
01
0K
0[
0g
0l
0z
0""
0'"
0`"
#405000000
1"
1$
b010001 %
11
b010001 4
0@
0E
1F
b00010001 H
b000001 I
1K
b00 M
0R
0W
1X
1[
0\
b010001 _
b000001 `
b000001 a
1b
b000001 c
b010001 d
b010001 e
1g
0h
b00010001 j
1l
1z
1""
1'"
1`"
b010001 c"
#410000000
0"
0$
b11111111 &
01
b11111111 3
0K
0[
0g
b11111111 i
0l
b11111111 m
0z
b11111111 |
0""
0'"
0`"
b11111111 e"
b010001 f"
#415000000
1"
1$
0,
1-
11
08
19
1K
0T
1U
1[
1g
1l
1o
1z
1{
1""
1'"
1`"
0a"
#420000000
0"
0$
01
0K
0[
0g
0l
0z
0""
0'"
0`"
#425000000
1"
1$
1+
0-
11
17
09
1K
1S
0U
1[
1g
1l
0o
1p
b11111111 u
b00000000 v
1z
0{
b11111111 }
1""
1#"
b00000000 $"
1'"
b11111111 -"
b00000000 /"
b00001110 1"
12"
b11111111 3"
b00001110 5"
16"
b111111110 7"
1="
1@"
1B"
1E"
1G"
1J"
1Q"
0T"
1U"
1V"
1X"
0Y"
1Z"
1["
1]"
0^"
1_"
1`"
#430000000
0"
0$
01
0K
0[
0g
0l
0z
0""
0'"
0`"
#435000000
1"
1$
b000001 %
b00000000 '
0+
1,
11
b000001 4
07
18
1@
1E
0F
1K
1R
0S
1T
1W
0X
1[
1\
0b
b000001 e
1g
1h
1l
0p
b00000000 s
b00000000 w
1z
1""
0#"
b00000000 %"
1'"
b00000000 ."
b11111111 1"
02"
b00000000 4"
b11111111 5"
06"
b000000000 7"
09"
1;"
0<"
0>"
0?"
1@"
0A"
0C"
0D"
1E"
0F"
0H"
0I"
1J"
0K"
0N"
1O"
0P"
0S"
1T"
0U"
0X"
1Y"
0Z"
0]"
1^"
0_"
1`"
1a"
b000001 c"
b00000000 d"
#440000000
0"
0$
b00010101 &
01
b00010101 3
0K
0[
0g
b00010101 i
0l
b00010101 m
0z
b00010101 |
0""
0'"
0`"
b00010101 e"
b000001 f"
#445000000
1"
1$
b010101 %
11
b010101 4
0@
0E
1F
b00010101 H
b000010 I
1K
0R
0W
1X
1[
0\
b010101 _
b000010 `
b000010 a
1b
b000010 c
b010101 d
b010101 e
1g
0h
b00010101 j
1l
1z
1""
1'"
1`"
b010101 c"
#450000000
0"
0$
b00011000 &
01
b00011000 3
0K
0[
0g
b00011000 i
0l
b00011000 m
0z
b00011000 |
0""
0'"
0`"
b00011000 e"
b010101 f"
#455000000
1"
1$
0,
1-
11
08
19
1K
0T
1U
1[
1g
1l
1o
1z
1{
1""
1'"
1`"
0a"
#460000000
0"
0$
01
0K
0[
0g
0l
0z
0""
0'"
0`"
#465000000
1"
1$
1+
0-
11
17
09
1K
1S
0U
1[
1g
1l
0o
1p
b00011000 u
b11100111 v
1z
0{
b00011000 }
1""
1#"
b11100111 $"
1'"
b00011000 -"
b11100111 /"
b00011000 1"
b00011000 3"
b00011000 5"
08"
0;"
0="
0@"
0B"
0E"
0Q"
0T"
0V"
0Y"
0["
0^"
1`"
#470000000
0"
0$
01
0K
0[
0g
0l
0z
0""
0'"
0`"
