vcd/tb_flipflop.vcd
$date
  Mon Feb 11 17:46:59 2019
$end
$version
  GHDL v0
$end
$timescale
  1 fs
$end
$var reg 1 ! clk $end
$var reg 1 " reset $end
$var reg 1 # ce $end
$var reg 1 $ s_load $end
$var reg 1 % s_init $end
$var reg 1 & s_i_data $end
$var reg 1 ' s_o_data $end
$scope module carry_flipflop $end
$var reg 1 ( reset $end
$var reg 1 ) clk $end
$var reg 1 * ce $end
$var reg 1 + i_load $end
$var reg 1 , i_init $end
$var reg 1 - i_data $end
$var reg 1 . o_data $end
$upscope $end
$enddefinitions $end
#0
0!
1"
0#
0$
0%
0&
U'
1(
0)
1*
0+
0,
0-
U.
#5000000
1!
0'
1)
0.
#10000000
0!
0)
#15000000
1!
0"
1$
0(
1)
1+
#20000000
0!
0)
#25000000
1!
0$
1)
0+
#30000000
0!
0)
#35000000
1!
1&
1)
1-
#40000000
0!
0)
#45000000
1!
0&
1)
0-
#50000000
0!
0)
#55000000
1!
1$
1&
1)
1+
1-
#60000000
0!
0)
#65000000
1!
0$
1'
1)
0+
1.
#70000000
0!
0)
#75000000
1!
1%
1)
1,
#80000000
0!
0)
#85000000
1!
0'
1)
0.
