vcd/tb_mux_2_in.vcd
$date
  Mon Feb 11 16:41:58 2019
$end
$version
  GHDL v0
$end
$timescale
  1 fs
$end
$var reg 1 ! clk $end
$var reg 1 " s_selec_mux $end
$var reg 6 # s_mux_in_0[5:0] $end
$var reg 6 $ s_mux_in_1[5:0] $end
$var reg 6 % s_data[5:0] $end
$scope module mux_2_in_i $end
$var reg 1 & i_select $end
$var reg 6 ' i_data_0[5:0] $end
$var reg 6 ( i_data_1[5:0] $end
$var reg 6 ) o_data[5:0] $end
$upscope $end
$enddefinitions $end
#0
0!
0"
b000000 #
b000000 $
b000000 %
0&
b000000 '
b000000 (
b000000 )
#5000000
1!
1"
1&
#10000000
0!
#15000000
1!
b000001 $
b000001 %
b000001 (
b000001 )
#20000000
0!
#25000000
1!
b111111 #
b111111 '
#30000000
0!
#35000000
1!
b000001 #
b111111 $
b111111 %
b000001 '
b111111 (
b111111 )
#40000000
0!
#45000000
1!
b111111 #
b111111 '
#50000000
0!
#55000000
1!
0"
b000000 #
b000000 $
b000000 %
0&
b000000 '
b000000 (
b000000 )
#60000000
0!
#65000000
1!
b000001 $
b000001 (
#70000000
0!
#75000000
1!
b000001 #
b000000 $
b000001 %
b000001 '
b000000 (
b000001 )
#80000000
0!
#85000000
1!
b111111 $
b111111 (
