vcd/tb_ut.vcd
$date
  Sun Feb 10 17:08:01 2019
$end
$version
  GHDL v0
$end
$timescale
  1 fs
$end
$var reg 1 ! reset $end
$var reg 1 " clk $end
$var reg 8 # s_i_mem_data[7:0] $end
$var reg 1 $ s_selec_op $end
$var reg 1 % s_ld_mem_data $end
$var reg 1 & s_ld_accu $end
$var reg 1 ' s_ld_carry $end
$var reg 1 ( s_init_carry $end
$var reg 8 ) s_o_mem_data[7:0] $end
$var reg 8 * s_o_mem_data_old[7:0] $end
$var reg 1 + s_carry $end
$scope module ut_i $end
$var reg 1 , reset $end
$var reg 1 - clk $end
$var reg 8 . i_mem_data[7:0] $end
$var reg 1 / i_selec_op $end
$var reg 1 0 i_ld_mem_data $end
$var reg 1 1 i_ld_accu $end
$var reg 1 2 i_ld_carry $end
$var reg 1 3 i_init_carry $end
$var reg 8 4 o_mem_data[7:0] $end
$var reg 1 5 o_carry $end
$var reg 8 6 s_mem_data_to_ual[7:0] $end
$var reg 8 7 s_ual_result[7:0] $end
$var reg 8 8 s_accu_data[7:0] $end
$var reg 1 9 s_carry $end
$scope module reg_mem_data $end
$var reg 1 : reset $end
$var reg 1 ; clk $end
$var reg 1 < i_load $end
$var reg 8 = i_data[7:0] $end
$var reg 8 > o_data[7:0] $end
$upscope $end
$scope module reg_accu $end
$var reg 1 ? reset $end
$var reg 1 @ clk $end
$var reg 1 A i_load $end
$var reg 8 B i_data[7:0] $end
$var reg 8 C o_data[7:0] $end
$upscope $end
$scope module carry_flipflop $end
$var reg 1 D reset $end
$var reg 1 E clk $end
$var reg 1 F i_load $end
$var reg 1 G i_init $end
$var reg 1 H i_data $end
$var reg 1 I o_data $end
$upscope $end
$scope module ual_i $end
$var reg 1 J i_selec_op $end
$var reg 8 K i_data_l[7:0] $end
$var reg 8 L i_data_r[7:0] $end
$var reg 8 M o_data[7:0] $end
$var reg 1 N o_carry $end
$var reg 8 O s_data_add[7:0] $end
$var reg 1 P s_carry_add $end
$scope module addi_n_bits_i $end
$var reg 8 Q i_data_l[7:0] $end
$var reg 8 R i_data_r[7:0] $end
$var reg 8 S o_data[7:0] $end
$var reg 1 T o_carry $end
$var reg 9 U s_carry[8:0] $end
$scope module addi_n(0) $end
$scope module addi_1 $end
$var reg 1 V i_data_l $end
$var reg 1 W i_data_r $end
$var reg 1 X i_carry $end
$var reg 1 Y o_data $end
$var reg 1 Z o_carry $end
$upscope $end
$upscope $end
$scope module addi_n(1) $end
$scope module addi_1 $end
$var reg 1 [ i_data_l $end
$var reg 1 \ i_data_r $end
$var reg 1 ] i_carry $end
$var reg 1 ^ o_data $end
$var reg 1 _ o_carry $end
$upscope $end
$upscope $end
$scope module addi_n(2) $end
$scope module addi_1 $end
$var reg 1 ` i_data_l $end
$var reg 1 a i_data_r $end
$var reg 1 b i_carry $end
$var reg 1 c o_data $end
$var reg 1 d o_carry $end
$upscope $end
$upscope $end
$scope module addi_n(3) $end
$scope module addi_1 $end
$var reg 1 e i_data_l $end
$var reg 1 f i_data_r $end
$var reg 1 g i_carry $end
$var reg 1 h o_data $end
$var reg 1 i o_carry $end
$upscope $end
$upscope $end
$scope module addi_n(4) $end
$scope module addi_1 $end
$var reg 1 j i_data_l $end
$var reg 1 k i_data_r $end
$var reg 1 l i_carry $end
$var reg 1 m o_data $end
$var reg 1 n o_carry $end
$upscope $end
$upscope $end
$scope module addi_n(5) $end
$scope module addi_1 $end
$var reg 1 o i_data_l $end
$var reg 1 p i_data_r $end
$var reg 1 q i_carry $end
$var reg 1 r o_data $end
$var reg 1 s o_carry $end
$upscope $end
$upscope $end
$scope module addi_n(6) $end
$scope module addi_1 $end
$var reg 1 t i_data_l $end
$var reg 1 u i_data_r $end
$var reg 1 v i_carry $end
$var reg 1 w o_data $end
$var reg 1 x o_carry $end
$upscope $end
$upscope $end
$scope module addi_n(7) $end
$scope module addi_1 $end
$var reg 1 y i_data_l $end
$var reg 1 z i_data_r $end
$var reg 1 { i_carry $end
$var reg 1 | o_data $end
$var reg 1 } o_carry $end
$upscope $end
$upscope $end
$upscope $end
$upscope $end
$upscope $end
$enddefinitions $end
#0
1!
0"
b00000000 #
0$
0%
0&
0'
0(
bUUUUUUUU )
b00000000 *
U+
1,
0-
b00000000 .
0/
00
01
02
03
bUUUUUUUU 4
U5
bUUUUUUUU 6
bUUUUUUUU 7
bUUUUUUUU 8
09
1:
0;
0<
b00000000 =
bUUUUUUUU >
1?
0@
0A
bUUUUUUUU B
bUUUUUUUU C
1D
0E
0F
0G
0H
UI
0J
bUUUUUUUU K
bUUUUUUUU L
bUUUUUUUU M
0N
bUUUUUUUU O
UP
bUUUUUUUU Q
bUUUUUUUU R
bUUUUUUUU S
UT
bUUUUUUUU0 U
UV
UW
0X
UY
UZ
U[
U\
U]
U^
U_
U`
Ua
Ub
Uc
Ud
Ue
Uf
Ug
Uh
Ui
Uj
Uk
Ul
Um
Un
Uo
Up
Uq
Ur
Us
Ut
Uu
Uv
Uw
Ux
Uy
Uz
U{
U|
U}
#5000000
1"
b00000000 )
0+
1-
b00000000 4
05
b00000000 6
b11111111 7
b00000000 8
1;
b00000000 >
1@
b11111111 B
b00000000 C
1E
0I
b00000000 K
b00000000 L
b11111111 M
b00000000 O
0P
b00000000 Q
b00000000 R
b00000000 S
0T
b000000000 U
0V
0W
0Y
0Z
0[
0\
0]
0^
0_
0`
0a
0b
0c
0d
0e
0f
0g
0h
0i
0j
0k
0l
0m
0n
0o
0p
0q
0r
0s
0t
0u
0v
0w
0x
0y
0z
0{
0|
0}
#10000000
0!
0"
0,
0-
0:
0;
0?
0@
0D
0E
#15000000
1"
b00100000 #
1%
1-
b00100000 .
10
1;
1<
b00100000 =
1@
1E
#20000000
0"
0-
0;
0@
0E
#25000000
1"
1$
0%
1&
1'
1-
1/
00
11
12
b00100000 6
b00100000 7
1;
0<
b00100000 >
1@
1A
b00100000 B
1E
1F
1J
b00100000 K
b00100000 M
b00100000 O
b00100000 Q
b00100000 S
1o
1r
#30000000
0"
0-
0;
0@
0E
#35000000
1"
0&
0'
b00100000 )
1-
01
02
b00100000 4
b01000000 7
b00100000 8
1;
1@
0A
b01000000 B
b00100000 C
1E
0F
b00100000 L
b01000000 M
b01000000 O
b00100000 R
b01000000 S
b001000000 U
1p
0r
1s
1v
1w
#40000000
0"
0-
0;
0@
0E
#45000000
1"
1%
1-
10
1;
1<
1@
1E
#50000000
0"
0-
0;
0@
0E
#55000000
1"
0$
0%
1&
1-
0/
00
11
b11011111 7
1;
0<
1@
1A
b11011111 B
1E
0J
b11011111 M
#60000000
0"
0-
0;
0@
0E
#65000000
1"
0&
b11011111 )
1-
01
b11011111 4
b00000000 7
b11011111 8
1;
1@
0A
b00000000 B
b11011111 C
1E
b11011111 L
b00000000 M
b11111111 O
0P
b11011111 R
b11111111 S
0T
b000000000 U
1W
1Y
1\
1^
1a
1c
1f
1h
1k
1m
0p
1r
0s
1u
0v
1w
0x
1z
0{
1|
0}
#70000000
0"
0-
0;
0@
0E
#75000000
1"
1-
1;
1@
1E
#80000000
0"
0-
0;
0@
0E
#85000000
1"
1%
b11011111 *
1-
10
1;
1<
1@
1E
#90000000
0"
0-
0;
0@
0E
#95000000
1"
1$
0%
1&
1'
1-
1/
00
11
12
b11111111 7
1;
0<
1@
1A
b11111111 B
1E
1F
1J
b11111111 M
#100000000
0"
0-
0;
0@
0E
#105000000
1"
0&
0'
b11111111 )
1-
01
02
b11111111 4
b00011111 7
b11111111 8
19
1;
1@
0A
b00011111 B
b11111111 C
1E
0F
1H
b11111111 L
b00011111 M
1N
b00011111 O
1P
b11111111 R
b00011111 S
1T
b111000000 U
1p
0r
1s
1v
0w
1x
1{
0|
1}
#110000000
0"
0-
0;
0@
0E
#115000000
1"
1%
1-
10
1;
1<
1@
1E
#120000000
0"
0-
0;
0@
0E
#125000000
1"
0$
0%
1&
1-
0/
00
11
b00000000 7
09
1;
0<
1@
1A
b00000000 B
1E
0H
0J
b00000000 M
0N
#130000000
0"
0-
0;
0@
0E
#135000000
1"
0&
b00000000 )
1-
01
b00000000 4
b11011111 7
b00000000 8
1;
1@
0A
b11011111 B
b00000000 C
1E
b00000000 L
b11011111 M
b00100000 O
0P
b00000000 R
b00100000 S
0T
b000000000 U
0W
0Y
0\
0^
0a
0c
0f
0h
0k
0m
0p
1r
0s
0u
0v
0w
0x
0z
0{
0|
0}
#140000000
0"
0-
0;
0@
0E
#145000000
1"
1-
1;
1@
1E
#150000000
0"
0-
0;
0@
0E
#155000000
1"
1%
b00000000 *
1-
10
1;
1<
1@
1E
#160000000
0"
0-
0;
0@
0E
#165000000
1"
1$
0%
1&
1'
1-
1/
00
11
12
b00100000 7
1;
0<
1@
1A
b00100000 B
1E
1F
1J
b00100000 M
#170000000
0"
0-
0;
0@
0E
#175000000
1"
0&
0'
b00100000 )
1-
01
02
b00100000 4
b01000000 7
b00100000 8
1;
1@
0A
b01000000 B
b00100000 C
1E
0F
b00100000 L
b01000000 M
b01000000 O
b00100000 R
b01000000 S
b001000000 U
1p
0r
1s
1v
1w
#180000000
0"
0-
0;
0@
0E
#185000000
1"
1%
1-
10
1;
1<
1@
1E
#190000000
0"
0-
0;
0@
0E
#195000000
1"
0$
0%
1&
1-
0/
00
11
b11011111 7
1;
0<
1@
1A
b11011111 B
1E
0J
b11011111 M
#200000000
0"
0-
0;
0@
0E
#205000000
1"
0&
b11011111 )
1-
01
b11011111 4
b00000000 7
b11011111 8
1;
1@
0A
b00000000 B
b11011111 C
1E
b11011111 L
b00000000 M
b11111111 O
0P
b11011111 R
b11111111 S
0T
b000000000 U
1W
1Y
1\
1^
1a
1c
1f
1h
1k
1m
0p
1r
0s
1u
0v
1w
0x
1z
0{
1|
0}
#210000000
0"
0-
0;
0@
0E
#215000000
1"
1-
1;
1@
1E
#220000000
0"
0-
0;
0@
0E
#225000000
1"
1%
b11011111 *
1-
10
1;
1<
1@
1E
#230000000
0"
0-
0;
0@
0E
#235000000
1"
1$
0%
1&
1'
1-
1/
00
11
12
b11111111 7
1;
0<
1@
1A
b11111111 B
1E
1F
1J
b11111111 M
#240000000
0"
0-
0;
0@
0E
#245000000
1"
0&
0'
b11111111 )
1-
01
02
b11111111 4
b00011111 7
b11111111 8
19
1;
1@
0A
b00011111 B
b11111111 C
1E
0F
1H
b11111111 L
b00011111 M
1N
b00011111 O
1P
b11111111 R
b00011111 S
1T
b111000000 U
1p
0r
1s
1v
0w
1x
1{
0|
1}
#250000000
0"
0-
0;
0@
0E
#255000000
1"
1%
1-
10
1;
1<
1@
1E
#260000000
0"
0-
0;
0@
0E
#265000000
1"
0$
0%
1&
1-
0/
00
11
b00000000 7
09
1;
0<
1@
1A
b00000000 B
1E
0H
0J
b00000000 M
0N
#270000000
0"
0-
0;
0@
0E
#275000000
1"
0&
b00000000 )
1-
01
b00000000 4
b11011111 7
b00000000 8
1;
1@
0A
b11011111 B
b00000000 C
1E
b00000000 L
b11011111 M
b00100000 O
0P
b00000000 R
b00100000 S
0T
b000000000 U
0W
0Y
0\
0^
0a
0c
0f
0h
0k
0m
0p
1r
0s
0u
0v
0w
0x
0z
0{
0|
0}
#280000000
0"
0-
0;
0@
0E
#285000000
1"
1-
1;
1@
1E
#290000000
0"
0-
0;
0@
0E
#295000000
1"
1%
b00000000 *
1-
10
1;
1<
1@
1E
#300000000
0"
0-
0;
0@
0E
#305000000
1"
1$
0%
1&
1'
1-
1/
00
11
12
b00100000 7
1;
0<
1@
1A
b00100000 B
1E
1F
1J
b00100000 M
#310000000
0"
0-
0;
0@
0E
#315000000
1"
0&
0'
b00100000 )
1-
01
02
b00100000 4
b01000000 7
b00100000 8
1;
1@
0A
b01000000 B
b00100000 C
1E
0F
b00100000 L
b01000000 M
b01000000 O
b00100000 R
b01000000 S
b001000000 U
1p
0r
1s
1v
1w
#320000000
0"
0-
0;
0@
0E
#325000000
1"
1%
1-
10
1;
1<
1@
1E
#330000000
0"
0-
0;
0@
0E
#335000000
1"
0$
0%
1&
1-
0/
00
11
b11011111 7
1;
0<
1@
1A
b11011111 B
1E
0J
b11011111 M
#340000000
0"
0-
0;
0@
0E
#345000000
1"
0&
b11011111 )
1-
01
b11011111 4
b00000000 7
b11011111 8
1;
1@
0A
b00000000 B
b11011111 C
1E
b11011111 L
b00000000 M
b11111111 O
0P
b11011111 R
b11111111 S
0T
b000000000 U
1W
1Y
1\
1^
1a
1c
1f
1h
1k
1m
0p
1r
0s
1u
0v
1w
0x
1z
0{
1|
0}
#350000000
0"
0-
0;
0@
0E
#355000000
1"
1-
1;
1@
1E
#360000000
0"
0-
0;
0@
0E
#365000000
1"
1%
b11011111 *
1-
10
1;
1<
1@
1E
#370000000
0"
0-
0;
0@
0E
#375000000
1"
1$
0%
1&
1'
1-
1/
00
11
12
b11111111 7
1;
0<
1@
1A
b11111111 B
1E
1F
1J
b11111111 M
#380000000
0"
0-
0;
0@
0E
#385000000
1"
0&
0'
b11111111 )
1-
01
02
b11111111 4
b00011111 7
b11111111 8
19
1;
1@
0A
b00011111 B
b11111111 C
1E
0F
1H
b11111111 L
b00011111 M
1N
b00011111 O
1P
b11111111 R
b00011111 S
1T
b111000000 U
1p
0r
1s
1v
0w
1x
1{
0|
1}
#390000000
0"
0-
0;
0@
0E
#395000000
1"
1%
1-
10
1;
1<
1@
1E
#400000000
0"
0-
0;
0@
0E
#405000000
1"
0$
0%
1&
1-
0/
00
11
b00000000 7
09
1;
0<
1@
1A
b00000000 B
1E
0H
0J
b00000000 M
0N
#410000000
0"
0-
0;
0@
0E
#415000000
1"
0&
b00000000 )
1-
01
b00000000 4
b11011111 7
b00000000 8
1;
1@
0A
b11011111 B
b00000000 C
1E
b00000000 L
b11011111 M
b00100000 O
0P
b00000000 R
b00100000 S
0T
b000000000 U
0W
0Y
0\
0^
0a
0c
0f
0h
0k
0m
0p
1r
0s
0u
0v
0w
0x
0z
0{
0|
0}
#420000000
0"
0-
0;
0@
0E
#425000000
1"
1-
1;
1@
1E
#430000000
0"
0-
0;
0@
0E
#435000000
1"
1%
b00000000 *
1-
10
1;
1<
1@
1E
#440000000
0"
0-
0;
0@
0E
#445000000
1"
1$
0%
1&
1'
1-
1/
00
11
12
b00100000 7
1;
0<
1@
1A
b00100000 B
1E
1F
1J
b00100000 M
#450000000
0"
0-
0;
0@
0E
#455000000
1"
0&
0'
b00100000 )
1-
01
02
b00100000 4
b01000000 7
b00100000 8
1;
1@
0A
b01000000 B
b00100000 C
1E
0F
b00100000 L
b01000000 M
b01000000 O
b00100000 R
b01000000 S
b001000000 U
1p
0r
1s
1v
1w
#460000000
0"
0-
0;
0@
0E
#465000000
1"
1%
1-
10
1;
1<
1@
1E
#470000000
0"
0-
0;
0@
0E
#475000000
1"
0$
0%
1&
1-
0/
00
11
b11011111 7
1;
0<
1@
1A
b11011111 B
1E
0J
b11011111 M
#480000000
0"
0-
0;
0@
0E
#485000000
1"
0&
b11011111 )
1-
01
b11011111 4
b00000000 7
b11011111 8
1;
1@
0A
b00000000 B
b11011111 C
1E
b11011111 L
b00000000 M
b11111111 O
0P
b11011111 R
b11111111 S
0T
b000000000 U
1W
1Y
1\
1^
1a
1c
1f
1h
1k
1m
0p
1r
0s
1u
0v
1w
0x
1z
0{
1|
0}
#490000000
0"
0-
0;
0@
0E
#495000000
1"
1-
1;
1@
1E
#500000000
0"
0-
0;
0@
0E
#505000000
1"
1%
b11011111 *
1-
10
1;
1<
1@
1E
#510000000
0"
0-
0;
0@
0E
#515000000
1"
1$
0%
1&
1'
1-
1/
00
11
12
b11111111 7
1;
0<
1@
1A
b11111111 B
1E
1F
1J
b11111111 M
#520000000
0"
0-
0;
0@
0E
#525000000
1"
0&
0'
b11111111 )
1-
01
02
b11111111 4
b00011111 7
b11111111 8
19
1;
1@
0A
b00011111 B
b11111111 C
1E
0F
1H
b11111111 L
b00011111 M
1N
b00011111 O
1P
b11111111 R
b00011111 S
1T
b111000000 U
1p
0r
1s
1v
0w
1x
1{
0|
1}
#530000000
0"
0-
0;
0@
0E
#535000000
1"
1%
1-
10
1;
1<
1@
1E
#540000000
0"
0-
0;
0@
0E
#545000000
1"
0$
0%
1&
1-
0/
00
11
b00000000 7
09
1;
0<
1@
1A
b00000000 B
1E
0H
0J
b00000000 M
0N
#550000000
0"
0-
0;
0@
0E
#555000000
1"
0&
b00000000 )
1-
01
b00000000 4
b11011111 7
b00000000 8
1;
1@
0A
b11011111 B
b00000000 C
1E
b00000000 L
b11011111 M
b00100000 O
0P
b00000000 R
b00100000 S
0T
b000000000 U
0W
0Y
0\
0^
0a
0c
0f
0h
0k
0m
0p
1r
0s
0u
0v
0w
0x
0z
0{
0|
0}
#560000000
0"
0-
0;
0@
0E
#565000000
1"
1-
1;
1@
1E
#570000000
0"
0-
0;
0@
0E
#575000000
1"
1%
b00000000 *
1-
10
1;
1<
1@
1E
#580000000
0"
0-
0;
0@
0E
#585000000
1"
1$
0%
1&
1'
1-
1/
00
11
12
b00100000 7
1;
0<
1@
1A
b00100000 B
1E
1F
1J
b00100000 M
#590000000
0"
0-
0;
0@
0E
#595000000
1"
0&
0'
b00100000 )
1-
01
02
b00100000 4
b01000000 7
b00100000 8
1;
1@
0A
b01000000 B
b00100000 C
1E
0F
b00100000 L
b01000000 M
b01000000 O
b00100000 R
b01000000 S
b001000000 U
1p
0r
1s
1v
1w
#600000000
0"
0-
0;
0@
0E
#605000000
1"
1%
1-
10
1;
1<
1@
1E
#610000000
0"
0-
0;
0@
0E
#615000000
1"
0$
0%
1&
1-
0/
00
11
b11011111 7
1;
0<
1@
1A
b11011111 B
1E
0J
b11011111 M
#620000000
0"
0-
0;
0@
0E
#625000000
1"
0&
b11011111 )
1-
01
b11011111 4
b00000000 7
b11011111 8
1;
1@
0A
b00000000 B
b11011111 C
1E
b11011111 L
b00000000 M
b11111111 O
0P
b11011111 R
b11111111 S
0T
b000000000 U
1W
1Y
1\
1^
1a
1c
1f
1h
1k
1m
0p
1r
0s
1u
0v
1w
0x
1z
0{
1|
0}
#630000000
0"
0-
0;
0@
0E
#635000000
1"
1-
1;
1@
1E
#640000000
0"
0-
0;
0@
0E
#645000000
1"
1%
b11011111 *
1-
10
1;
1<
1@
1E
#650000000
0"
0-
0;
0@
0E
#655000000
1"
1$
0%
1&
1'
1-
1/
00
11
12
b11111111 7
1;
0<
1@
1A
b11111111 B
1E
1F
1J
b11111111 M
#660000000
0"
0-
0;
0@
0E
#665000000
1"
0&
0'
b11111111 )
1-
01
02
b11111111 4
b00011111 7
b11111111 8
19
1;
1@
0A
b00011111 B
b11111111 C
1E
0F
1H
b11111111 L
b00011111 M
1N
b00011111 O
1P
b11111111 R
b00011111 S
1T
b111000000 U
1p
0r
1s
1v
0w
1x
1{
0|
1}
#670000000
0"
0-
0;
0@
0E
#675000000
1"
1%
1-
10
1;
1<
1@
1E
#680000000
0"
0-
0;
0@
0E
#685000000
1"
0$
0%
1&
1-
0/
00
11
b00000000 7
09
1;
0<
1@
1A
b00000000 B
1E
0H
0J
b00000000 M
0N
#690000000
0"
0-
0;
0@
0E
#695000000
1"
0&
b00000000 )
1-
01
b00000000 4
b11011111 7
b00000000 8
1;
1@
0A
b11011111 B
b00000000 C
1E
b00000000 L
b11011111 M
b00100000 O
0P
b00000000 R
b00100000 S
0T
b000000000 U
0W
0Y
0\
0^
0a
0c
0f
0h
0k
0m
0p
1r
0s
0u
0v
0w
0x
0z
0{
0|
0}
#700000000
0"
0-
0;
0@
0E
#705000000
1"
1-
1;
1@
1E
#710000000
0"
0-
0;
0@
0E
#715000000
1"
1%
b00000000 *
1-
10
1;
1<
1@
1E
#720000000
0"
0-
0;
0@
0E
#725000000
1"
1$
0%
1&
1'
1-
1/
00
11
12
b00100000 7
1;
0<
1@
1A
b00100000 B
1E
1F
1J
b00100000 M
#730000000
0"
0-
0;
0@
0E
#735000000
1"
0&
0'
b00100000 )
1-
01
02
b00100000 4
b01000000 7
b00100000 8
1;
1@
0A
b01000000 B
b00100000 C
1E
0F
b00100000 L
b01000000 M
b01000000 O
b00100000 R
b01000000 S
b001000000 U
1p
0r
1s
1v
1w
#740000000
0"
0-
0;
0@
0E
#745000000
1"
1%
1-
10
1;
1<
1@
1E
#750000000
0"
0-
0;
0@
0E
#755000000
1"
0$
0%
1&
1-
0/
00
11
b11011111 7
1;
0<
1@
1A
b11011111 B
1E
0J
b11011111 M
#760000000
0"
0-
0;
0@
0E
#765000000
1"
0&
b11011111 )
1-
01
b11011111 4
b00000000 7
b11011111 8
1;
1@
0A
b00000000 B
b11011111 C
1E
b11011111 L
b00000000 M
b11111111 O
0P
b11011111 R
b11111111 S
0T
b000000000 U
1W
1Y
1\
1^
1a
1c
1f
1h
1k
1m
0p
1r
0s
1u
0v
1w
0x
1z
0{
1|
0}
#770000000
0"
0-
0;
0@
0E
#775000000
1"
1-
1;
1@
1E
#780000000
0"
0-
0;
0@
0E
#785000000
1"
1%
b11011111 *
1-
10
1;
1<
1@
1E
#790000000
0"
0-
0;
0@
0E
#795000000
1"
1$
0%
1&
1'
1-
1/
00
11
12
b11111111 7
1;
0<
1@
1A
b11111111 B
1E
1F
1J
b11111111 M
#800000000
0"
0-
0;
0@
0E
#805000000
1"
0&
0'
b11111111 )
1-
01
02
b11111111 4
b00011111 7
b11111111 8
19
1;
1@
0A
b00011111 B
b11111111 C
1E
0F
1H
b11111111 L
b00011111 M
1N
b00011111 O
1P
b11111111 R
b00011111 S
1T
b111000000 U
1p
0r
1s
1v
0w
1x
1{
0|
1}
#810000000
0"
0-
0;
0@
0E
#815000000
1"
1%
1-
10
1;
1<
1@
1E
#820000000
0"
0-
0;
0@
0E
#825000000
1"
0$
0%
1&
1-
0/
00
11
b00000000 7
09
1;
0<
1@
1A
b00000000 B
1E
0H
0J
b00000000 M
0N
#830000000
0"
0-
0;
0@
0E
#835000000
1"
0&
b00000000 )
1-
01
b00000000 4
b11011111 7
b00000000 8
1;
1@
0A
b11011111 B
b00000000 C
1E
b00000000 L
b11011111 M
b00100000 O
0P
b00000000 R
b00100000 S
0T
b000000000 U
0W
0Y
0\
0^
0a
0c
0f
0h
0k
0m
0p
1r
0s
0u
0v
0w
0x
0z
0{
0|
0}
#840000000
0"
0-
0;
0@
0E
#845000000
1"
1-
1;
1@
1E
#850000000
0"
0-
0;
0@
0E
#855000000
1"
1%
b00000000 *
1-
10
1;
1<
1@
1E
#860000000
0"
0-
0;
0@
0E
#865000000
1"
1$
0%
1&
1'
1-
1/
00
11
12
b00100000 7
1;
0<
1@
1A
b00100000 B
1E
1F
1J
b00100000 M
#870000000
0"
0-
0;
0@
0E
#875000000
1"
0&
0'
b00100000 )
1-
01
02
b00100000 4
b01000000 7
b00100000 8
1;
1@
0A
b01000000 B
b00100000 C
1E
0F
b00100000 L
b01000000 M
b01000000 O
b00100000 R
b01000000 S
b001000000 U
1p
0r
1s
1v
1w
#880000000
0"
0-
0;
0@
0E
#885000000
1"
1%
1-
10
1;
1<
1@
1E
#890000000
0"
0-
0;
0@
0E
#895000000
1"
0$
0%
1&
1-
0/
00
11
b11011111 7
1;
0<
1@
1A
b11011111 B
1E
0J
b11011111 M
#900000000
0"
0-
0;
0@
0E
#905000000
1"
0&
b11011111 )
1-
01
b11011111 4
b00000000 7
b11011111 8
1;
1@
0A
b00000000 B
b11011111 C
1E
b11011111 L
b00000000 M
b11111111 O
0P
b11011111 R
b11111111 S
0T
b000000000 U
1W
1Y
1\
1^
1a
1c
1f
1h
1k
1m
0p
1r
0s
1u
0v
1w
0x
1z
0{
1|
0}
#910000000
0"
0-
0;
0@
0E
#915000000
1"
1-
1;
1@
1E
#920000000
0"
0-
0;
0@
0E
#925000000
1"
1%
b11011111 *
1-
10
1;
1<
1@
1E
#930000000
0"
0-
0;
0@
0E
#935000000
1"
1$
0%
1&
1'
1-
1/
00
11
12
b11111111 7
1;
0<
1@
1A
b11111111 B
1E
1F
1J
b11111111 M
#940000000
0"
0-
0;
0@
0E
#945000000
1"
0&
0'
b11111111 )
1-
01
02
b11111111 4
b00011111 7
b11111111 8
19
1;
1@
0A
b00011111 B
b11111111 C
1E
0F
1H
b11111111 L
b00011111 M
1N
b00011111 O
1P
b11111111 R
b00011111 S
1T
b111000000 U
1p
0r
1s
1v
0w
1x
1{
0|
1}
#950000000
0"
0-
0;
0@
0E
#955000000
1"
1%
1-
10
1;
1<
1@
1E
#960000000
0"
0-
0;
0@
0E
#965000000
1"
0$
0%
1&
1-
0/
00
11
b00000000 7
09
1;
0<
1@
1A
b00000000 B
1E
0H
0J
b00000000 M
0N
#970000000
0"
0-
0;
0@
0E
#975000000
1"
0&
b00000000 )
1-
01
b00000000 4
b11011111 7
b00000000 8
1;
1@
0A
b11011111 B
b00000000 C
1E
b00000000 L
b11011111 M
b00100000 O
0P
b00000000 R
b00100000 S
0T
b000000000 U
0W
0Y
0\
0^
0a
0c
0f
0h
0k
0m
0p
1r
0s
0u
0v
0w
0x
0z
0{
0|
0}
#980000000
0"
0-
0;
0@
0E
#985000000
1"
1-
1;
1@
1E
#990000000
0"
0-
0;
0@
0E
#995000000
1"
1%
b00000000 *
1-
10
1;
1<
1@
1E
#1000000000
0"
0-
0;
0@
0E
#1005000000
1"
1$
0%
1&
1'
1-
1/
00
11
12
b00100000 7
1;
0<
1@
1A
b00100000 B
1E
1F
1J
b00100000 M
#1010000000
0"
0-
0;
0@
0E
#1015000000
1"
0&
0'
b00100000 )
1-
01
02
b00100000 4
b01000000 7
b00100000 8
1;
1@
0A
b01000000 B
b00100000 C
1E
0F
b00100000 L
b01000000 M
b01000000 O
b00100000 R
b01000000 S
b001000000 U
1p
0r
1s
1v
1w
#1020000000
0"
0-
0;
0@
0E
#1025000000
1"
1%
1-
10
1;
1<
1@
1E
#1030000000
0"
0-
0;
0@
0E
#1035000000
1"
0$
0%
1&
1-
0/
00
11
b11011111 7
1;
0<
1@
1A
b11011111 B
1E
0J
b11011111 M
#1040000000
0"
0-
0;
0@
0E
#1045000000
1"
0&
b11011111 )
1-
01
b11011111 4
b00000000 7
b11011111 8
1;
1@
0A
b00000000 B
b11011111 C
1E
b11011111 L
b00000000 M
b11111111 O
0P
b11011111 R
b11111111 S
0T
b000000000 U
1W
1Y
1\
1^
1a
1c
1f
1h
1k
1m
0p
1r
0s
1u
0v
1w
0x
1z
0{
1|
0}
#1050000000
0"
0-
0;
0@
0E
#1055000000
1"
1-
1;
1@
1E
#1060000000
0"
0-
0;
0@
0E
#1065000000
1"
1%
b11011111 *
1-
10
1;
1<
1@
1E
#1070000000
0"
0-
0;
0@
0E
#1075000000
1"
1$
0%
1&
1'
1-
1/
00
11
12
b11111111 7
1;
0<
1@
1A
b11111111 B
1E
1F
1J
b11111111 M
#1080000000
0"
0-
0;
0@
0E
#1085000000
1"
0&
0'
b11111111 )
1-
01
02
b11111111 4
b00011111 7
b11111111 8
19
1;
1@
0A
b00011111 B
b11111111 C
1E
0F
1H
b11111111 L
b00011111 M
1N
b00011111 O
1P
b11111111 R
b00011111 S
1T
b111000000 U
1p
0r
1s
1v
0w
1x
1{
0|
1}
#1090000000
0"
0-
0;
0@
0E
#1095000000
1"
1%
1-
10
1;
1<
1@
1E
#1100000000
0"
0-
0;
0@
0E
#1105000000
1"
0$
0%
1&
1-
0/
00
11
b00000000 7
09
1;
0<
1@
1A
b00000000 B
1E
0H
0J
b00000000 M
0N
#1110000000
0"
0-
0;
0@
0E
#1115000000
1"
0&
b00000000 )
1-
01
b00000000 4
b11011111 7
b00000000 8
1;
1@
0A
b11011111 B
b00000000 C
1E
b00000000 L
b11011111 M
b00100000 O
0P
b00000000 R
b00100000 S
0T
b000000000 U
0W
0Y
0\
0^
0a
0c
0f
0h
0k
0m
0p
1r
0s
0u
0v
0w
0x
0z
0{
0|
0}
#1120000000
0"
0-
0;
0@
0E
#1125000000
1"
1-
1;
1@
1E
#1130000000
0"
0-
0;
0@
0E
#1135000000
1"
1%
b00000000 *
1-
10
1;
1<
1@
1E
#1140000000
0"
0-
0;
0@
0E
#1145000000
1"
1$
0%
1&
1'
1-
1/
00
11
12
b00100000 7
1;
0<
1@
1A
b00100000 B
1E
1F
1J
b00100000 M
#1150000000
0"
0-
0;
0@
0E
#1155000000
1"
0&
0'
b00100000 )
1-
01
02
b00100000 4
b01000000 7
b00100000 8
1;
1@
0A
b01000000 B
b00100000 C
1E
0F
b00100000 L
b01000000 M
b01000000 O
b00100000 R
b01000000 S
b001000000 U
1p
0r
1s
1v
1w
#1160000000
0"
0-
0;
0@
0E
#1165000000
1"
1%
1-
10
1;
1<
1@
1E
#1170000000
0"
0-
0;
0@
0E
#1175000000
1"
0$
0%
1&
1-
0/
00
11
b11011111 7
1;
0<
1@
1A
b11011111 B
1E
0J
b11011111 M
#1180000000
0"
0-
0;
0@
0E
#1185000000
1"
0&
b11011111 )
1-
01
b11011111 4
b00000000 7
b11011111 8
1;
1@
0A
b00000000 B
b11011111 C
1E
b11011111 L
b00000000 M
b11111111 O
0P
b11011111 R
b11111111 S
0T
b000000000 U
1W
1Y
1\
1^
1a
1c
1f
1h
1k
1m
0p
1r
0s
1u
0v
1w
0x
1z
0{
1|
0}
#1190000000
0"
0-
0;
0@
0E
#1195000000
1"
1-
1;
1@
1E
#1200000000
0"
0-
0;
0@
0E
#1205000000
1"
1%
b11011111 *
1-
10
1;
1<
1@
1E
#1210000000
0"
0-
0;
0@
0E
#1215000000
1"
1$
0%
1&
1'
1-
1/
00
11
12
b11111111 7
1;
0<
1@
1A
b11111111 B
1E
1F
1J
b11111111 M
#1220000000
0"
0-
0;
0@
0E
