vcd/tb_ual.vcd
$date
  Sun Feb 10 17:07:24 2019
$end
$version
  GHDL v0
$end
$timescale
  1 fs
$end
$var reg 1 ! reset $end
$var reg 1 " clk $end
$var reg 1 # s_selec_op $end
$var reg 8 $ s_data_l[7:0] $end
$var reg 8 % s_data_r[7:0] $end
$var reg 8 & s_data[7:0] $end
$var reg 1 ' s_carry $end
$scope module ual_i $end
$var reg 1 ( i_selec_op $end
$var reg 8 ) i_data_l[7:0] $end
$var reg 8 * i_data_r[7:0] $end
$var reg 8 + o_data[7:0] $end
$var reg 1 , o_carry $end
$var reg 8 - s_data_add[7:0] $end
$var reg 1 . s_carry_add $end
$scope module addi_n_bits_i $end
$var reg 8 / i_data_l[7:0] $end
$var reg 8 0 i_data_r[7:0] $end
$var reg 8 1 o_data[7:0] $end
$var reg 1 2 o_carry $end
$var reg 9 3 s_carry[8:0] $end
$scope module addi_n(0) $end
$scope module addi_1 $end
$var reg 1 4 i_data_l $end
$var reg 1 5 i_data_r $end
$var reg 1 6 i_carry $end
$var reg 1 7 o_data $end
$var reg 1 8 o_carry $end
$upscope $end
$upscope $end
$scope module addi_n(1) $end
$scope module addi_1 $end
$var reg 1 9 i_data_l $end
$var reg 1 : i_data_r $end
$var reg 1 ; i_carry $end
$var reg 1 < o_data $end
$var reg 1 = o_carry $end
$upscope $end
$upscope $end
$scope module addi_n(2) $end
$scope module addi_1 $end
$var reg 1 > i_data_l $end
$var reg 1 ? i_data_r $end
$var reg 1 @ i_carry $end
$var reg 1 A o_data $end
$var reg 1 B o_carry $end
$upscope $end
$upscope $end
$scope module addi_n(3) $end
$scope module addi_1 $end
$var reg 1 C i_data_l $end
$var reg 1 D i_data_r $end
$var reg 1 E i_carry $end
$var reg 1 F o_data $end
$var reg 1 G o_carry $end
$upscope $end
$upscope $end
$scope module addi_n(4) $end
$scope module addi_1 $end
$var reg 1 H i_data_l $end
$var reg 1 I i_data_r $end
$var reg 1 J i_carry $end
$var reg 1 K o_data $end
$var reg 1 L o_carry $end
$upscope $end
$upscope $end
$scope module addi_n(5) $end
$scope module addi_1 $end
$var reg 1 M i_data_l $end
$var reg 1 N i_data_r $end
$var reg 1 O i_carry $end
$var reg 1 P o_data $end
$var reg 1 Q o_carry $end
$upscope $end
$upscope $end
$scope module addi_n(6) $end
$scope module addi_1 $end
$var reg 1 R i_data_l $end
$var reg 1 S i_data_r $end
$var reg 1 T i_carry $end
$var reg 1 U o_data $end
$var reg 1 V o_carry $end
$upscope $end
$upscope $end
$scope module addi_n(7) $end
$scope module addi_1 $end
$var reg 1 W i_data_l $end
$var reg 1 X i_data_r $end
$var reg 1 Y i_carry $end
$var reg 1 Z o_data $end
$var reg 1 [ o_carry $end
$upscope $end
$upscope $end
$upscope $end
$upscope $end
$enddefinitions $end
#0
1!
0"
0#
b00000000 $
b00000000 %
b11111111 &
0'
0(
b00000000 )
b00000000 *
b11111111 +
0,
b00000000 -
0.
b00000000 /
b00000000 0
b00000000 1
02
b000000000 3
04
05
06
07
08
09
0:
0;
0<
0=
0>
0?
0@
0A
0B
0C
0D
0E
0F
0G
0H
0I
0J
0K
0L
0M
0N
0O
0P
0Q
0R
0S
0T
0U
0V
0W
0X
0Y
0Z
0[
#5000000
1"
b00000001 $
b11111110 &
b00000001 )
b11111110 +
b00000001 -
b00000001 /
b00000001 1
14
17
#10000000
0"
#15000000
1"
b00000010 $
b11111101 &
b00000010 )
b11111101 +
b00000010 -
b00000010 /
b00000010 1
04
07
19
1<
#20000000
0!
0"
#25000000
1"
b00000011 $
b11111100 &
b00000011 )
b11111100 +
b00000011 -
b00000011 /
b00000011 1
14
17
#30000000
0"
#35000000
1"
b00000100 $
b11111011 &
b00000100 )
b11111011 +
b00000100 -
b00000100 /
b00000100 1
04
07
09
0<
1>
1A
#40000000
0"
#45000000
1"
b00000101 $
b11111010 &
b00000101 )
b11111010 +
b00000101 -
b00000101 /
b00000101 1
14
17
#50000000
0"
#55000000
1"
b00000110 $
b11111001 &
b00000110 )
b11111001 +
b00000110 -
b00000110 /
b00000110 1
04
07
19
1<
#60000000
0"
#65000000
1"
b00000111 $
b11111000 &
b00000111 )
b11111000 +
b00000111 -
b00000111 /
b00000111 1
14
17
#70000000
0"
#75000000
1"
b00001000 $
b11110111 &
b00001000 )
b11110111 +
b00001000 -
b00001000 /
b00001000 1
04
07
09
0<
0>
0A
1C
1F
#80000000
0"
#85000000
1"
b00001001 $
b11110110 &
b00001001 )
b11110110 +
b00001001 -
b00001001 /
b00001001 1
14
17
#90000000
0"
#95000000
1"
b00001010 $
b11110101 &
b00001010 )
b11110101 +
b00001010 -
b00001010 /
b00001010 1
04
07
19
1<
#100000000
0"
#105000000
1"
b00001011 $
b11110100 &
b00001011 )
b11110100 +
b00001011 -
b00001011 /
b00001011 1
14
17
#110000000
0"
#115000000
1"
b00001100 $
b11110011 &
b00001100 )
b11110011 +
b00001100 -
b00001100 /
b00001100 1
04
07
09
0<
1>
1A
#120000000
0"
#125000000
1"
b00001101 $
b11110010 &
b00001101 )
b11110010 +
b00001101 -
b00001101 /
b00001101 1
14
17
#130000000
0"
#135000000
1"
b00001110 $
b11110001 &
b00001110 )
b11110001 +
b00001110 -
b00001110 /
b00001110 1
04
07
19
1<
#140000000
0"
#145000000
1"
b00001111 $
b11110000 &
b00001111 )
b11110000 +
b00001111 -
b00001111 /
b00001111 1
14
17
#150000000
0"
#155000000
1"
b00010000 $
b11101111 &
b00010000 )
b11101111 +
b00010000 -
b00010000 /
b00010000 1
04
07
09
0<
0>
0A
0C
0F
1H
1K
#160000000
0"
#165000000
1"
b00010001 $
b11101110 &
b00010001 )
b11101110 +
b00010001 -
b00010001 /
b00010001 1
14
17
#170000000
0"
#175000000
1"
b00010010 $
b11101101 &
b00010010 )
b11101101 +
b00010010 -
b00010010 /
b00010010 1
04
07
19
1<
#180000000
0"
#185000000
1"
b00010011 $
b11101100 &
b00010011 )
b11101100 +
b00010011 -
b00010011 /
b00010011 1
14
17
#190000000
0"
#195000000
1"
b00010100 $
b11101011 &
b00010100 )
b11101011 +
b00010100 -
b00010100 /
b00010100 1
04
07
09
0<
1>
1A
#200000000
0"
#205000000
1"
b00010101 $
b11101010 &
b00010101 )
b11101010 +
b00010101 -
b00010101 /
b00010101 1
14
17
#210000000
0"
#215000000
1"
b00010110 $
b11101001 &
b00010110 )
b11101001 +
b00010110 -
b00010110 /
b00010110 1
04
07
19
1<
#220000000
0"
#225000000
1"
b00010111 $
b11101000 &
b00010111 )
b11101000 +
b00010111 -
b00010111 /
b00010111 1
14
17
#230000000
0"
#235000000
1"
b00011000 $
b11100111 &
b00011000 )
b11100111 +
b00011000 -
b00011000 /
b00011000 1
04
07
09
0<
0>
0A
1C
1F
#240000000
0"
#245000000
1"
b00011001 $
b11100110 &
b00011001 )
b11100110 +
b00011001 -
b00011001 /
b00011001 1
14
17
#250000000
0"
#255000000
1"
b00011010 $
b11100101 &
b00011010 )
b11100101 +
b00011010 -
b00011010 /
b00011010 1
04
07
19
1<
#260000000
0"
#265000000
1"
b00011011 $
b11100100 &
b00011011 )
b11100100 +
b00011011 -
b00011011 /
b00011011 1
14
17
#270000000
0"
#275000000
1"
b00011100 $
b11100011 &
b00011100 )
b11100011 +
b00011100 -
b00011100 /
b00011100 1
04
07
09
0<
1>
1A
#280000000
0"
#285000000
1"
b00011101 $
b11100010 &
b00011101 )
b11100010 +
b00011101 -
b00011101 /
b00011101 1
14
17
#290000000
0"
#295000000
1"
b00011110 $
b11100001 &
b00011110 )
b11100001 +
b00011110 -
b00011110 /
b00011110 1
04
07
19
1<
#300000000
0"
#305000000
1"
b00011111 $
b11100000 &
b00011111 )
b11100000 +
b00011111 -
b00011111 /
b00011111 1
14
17
#310000000
0"
#315000000
1"
b00100000 $
b11011111 &
b00100000 )
b11011111 +
b00100000 -
b00100000 /
b00100000 1
04
07
09
0<
0>
0A
0C
0F
0H
0K
1M
1P
#320000000
0"
#325000000
1"
b00100001 $
b11011110 &
b00100001 )
b11011110 +
b00100001 -
b00100001 /
b00100001 1
14
17
#330000000
0"
#335000000
1"
b00100010 $
b11011101 &
b00100010 )
b11011101 +
b00100010 -
b00100010 /
b00100010 1
04
07
19
1<
#340000000
0"
#345000000
1"
b00100011 $
b11011100 &
b00100011 )
b11011100 +
b00100011 -
b00100011 /
b00100011 1
14
17
#350000000
0"
#355000000
1"
b00100100 $
b11011011 &
b00100100 )
b11011011 +
b00100100 -
b00100100 /
b00100100 1
04
07
09
0<
1>
1A
#360000000
0"
#365000000
1"
b00100101 $
b11011010 &
b00100101 )
b11011010 +
b00100101 -
b00100101 /
b00100101 1
14
17
#370000000
0"
#375000000
1"
b00100110 $
b11011001 &
b00100110 )
b11011001 +
b00100110 -
b00100110 /
b00100110 1
04
07
19
1<
#380000000
0"
#385000000
1"
b00100111 $
b11011000 &
b00100111 )
b11011000 +
b00100111 -
b00100111 /
b00100111 1
14
17
#390000000
0"
#395000000
1"
b00101000 $
b11010111 &
b00101000 )
b11010111 +
b00101000 -
b00101000 /
b00101000 1
04
07
09
0<
0>
0A
1C
1F
#400000000
0"
#405000000
1"
b00101001 $
b11010110 &
b00101001 )
b11010110 +
b00101001 -
b00101001 /
b00101001 1
14
17
#410000000
0"
#415000000
1"
b00101010 $
b11010101 &
b00101010 )
b11010101 +
b00101010 -
b00101010 /
b00101010 1
04
07
19
1<
#420000000
0"
#425000000
1"
b00101011 $
b11010100 &
b00101011 )
b11010100 +
b00101011 -
b00101011 /
b00101011 1
14
17
#430000000
0"
#435000000
1"
b00101100 $
b11010011 &
b00101100 )
b11010011 +
b00101100 -
b00101100 /
b00101100 1
04
07
09
0<
1>
1A
#440000000
0"
#445000000
1"
b00101101 $
b11010010 &
b00101101 )
b11010010 +
b00101101 -
b00101101 /
b00101101 1
14
17
#450000000
0"
#455000000
1"
b00101110 $
b11010001 &
b00101110 )
b11010001 +
b00101110 -
b00101110 /
b00101110 1
04
07
19
1<
#460000000
0"
#465000000
1"
b00101111 $
b11010000 &
b00101111 )
b11010000 +
b00101111 -
b00101111 /
b00101111 1
14
17
#470000000
0"
#475000000
1"
b00110000 $
b11001111 &
b00110000 )
b11001111 +
b00110000 -
b00110000 /
b00110000 1
04
07
09
0<
0>
0A
0C
0F
1H
1K
#480000000
0"
#485000000
1"
b00110001 $
b11001110 &
b00110001 )
b11001110 +
b00110001 -
b00110001 /
b00110001 1
14
17
#490000000
0"
#495000000
1"
b00110010 $
b11001101 &
b00110010 )
b11001101 +
b00110010 -
b00110010 /
b00110010 1
04
07
19
1<
#500000000
0"
#505000000
1"
b00110011 $
b11001100 &
b00110011 )
b11001100 +
b00110011 -
b00110011 /
b00110011 1
14
17
#510000000
0"
#515000000
1"
b00110100 $
b11001011 &
b00110100 )
b11001011 +
b00110100 -
b00110100 /
b00110100 1
04
07
09
0<
1>
1A
#520000000
0"
#525000000
1"
b00110101 $
b11001010 &
b00110101 )
b11001010 +
b00110101 -
b00110101 /
b00110101 1
14
17
#530000000
0"
#535000000
1"
b00110110 $
b11001001 &
b00110110 )
b11001001 +
b00110110 -
b00110110 /
b00110110 1
04
07
19
1<
#540000000
0"
#545000000
1"
b00110111 $
b11001000 &
b00110111 )
b11001000 +
b00110111 -
b00110111 /
b00110111 1
14
17
#550000000
0"
#555000000
1"
b00111000 $
b11000111 &
b00111000 )
b11000111 +
b00111000 -
b00111000 /
b00111000 1
04
07
09
0<
0>
0A
1C
1F
#560000000
0"
#565000000
1"
b00111001 $
b11000110 &
b00111001 )
b11000110 +
b00111001 -
b00111001 /
b00111001 1
14
17
#570000000
0"
#575000000
1"
b00111010 $
b11000101 &
b00111010 )
b11000101 +
b00111010 -
b00111010 /
b00111010 1
04
07
19
1<
#580000000
0"
#585000000
1"
b00111011 $
b11000100 &
b00111011 )
b11000100 +
b00111011 -
b00111011 /
b00111011 1
14
17
#590000000
0"
#595000000
1"
b00111100 $
b11000011 &
b00111100 )
b11000011 +
b00111100 -
b00111100 /
b00111100 1
04
07
09
0<
1>
1A
#600000000
0"
#605000000
1"
b00111101 $
b11000010 &
b00111101 )
b11000010 +
b00111101 -
b00111101 /
b00111101 1
14
17
#610000000
0"
#615000000
1"
b00111110 $
b11000001 &
b00111110 )
b11000001 +
b00111110 -
b00111110 /
b00111110 1
04
07
19
1<
#620000000
0"
#625000000
1"
b00000000 $
b00000001 %
b11111110 &
b00000000 )
b00000001 *
b11111110 +
b00000001 -
b00000000 /
b00000001 0
b00000001 1
15
17
09
0<
0>
0A
0C
0F
0H
0K
0M
0P
#630000000
0"
#635000000
1"
b00000001 $
b00000001 )
b00000010 -
b00000001 /
b00000010 1
b000000010 3
14
07
18
1;
1<
#640000000
0"
#645000000
1"
b00000010 $
b11111100 &
b00000010 )
b11111100 +
b00000011 -
b00000010 /
b00000011 1
b000000000 3
04
17
08
19
0;
1<
0=
0@
0A
#650000000
0"
#655000000
1"
b00000011 $
b00000011 )
b00000100 -
b00000011 /
b00000100 1
b000000110 3
14
07
18
1;
0<
1=
1@
1A
#660000000
0"
#665000000
1"
b00000100 $
b11111010 &
b00000100 )
b11111010 +
b00000101 -
b00000100 /
b00000101 1
b000000000 3
04
17
08
09
0;
0<
0=
1>
0@
1A
0B
0E
0F
#670000000
0"
#675000000
1"
b00000101 $
b00000101 )
b00000110 -
b00000101 /
b00000110 1
b000000010 3
14
07
18
1;
1<
#680000000
0"
#685000000
1"
b00000110 $
b11111000 &
b00000110 )
b11111000 +
b00000111 -
b00000110 /
b00000111 1
b000000000 3
04
17
08
19
0;
1<
0=
0@
1A
0B
0E
0F
#690000000
0"
#695000000
1"
b00000111 $
b00000111 )
b00001000 -
b00000111 /
b00001000 1
b000001110 3
14
07
18
1;
0<
1=
1@
0A
1B
1E
1F
#700000000
0"
#705000000
1"
b00001000 $
b11110110 &
b00001000 )
b11110110 +
b00001001 -
b00001000 /
b00001001 1
b000000000 3
04
17
08
09
0;
0<
0=
0>
0@
0A
0B
1C
0E
1F
0G
0J
0K
#710000000
0"
#715000000
1"
b00001001 $
b00001001 )
b00001010 -
b00001001 /
b00001010 1
b000000010 3
14
07
18
1;
1<
#720000000
0"
#725000000
1"
b00001010 $
b11110100 &
b00001010 )
b11110100 +
b00001011 -
b00001010 /
b00001011 1
b000000000 3
04
17
08
19
0;
1<
0=
0@
0A
#730000000
0"
#735000000
1"
b00001011 $
b00001011 )
b00001100 -
b00001011 /
b00001100 1
b000000110 3
14
07
18
1;
0<
1=
1@
1A
#740000000
0"
#745000000
1"
b00001100 $
b11110010 &
b00001100 )
b11110010 +
b00001101 -
b00001100 /
b00001101 1
b000000000 3
04
17
08
09
0;
0<
0=
1>
0@
1A
0B
0E
1F
0G
0J
0K
#750000000
0"
#755000000
1"
b00001101 $
b00001101 )
b00001110 -
b00001101 /
b00001110 1
b000000010 3
14
07
18
1;
1<
#760000000
0"
#765000000
1"
b00001110 $
b11110000 &
b00001110 )
b11110000 +
b00001111 -
b00001110 /
b00001111 1
b000000000 3
04
17
08
19
0;
1<
0=
0@
1A
0B
0E
1F
0G
0J
0K
#770000000
0"
#775000000
1"
b00001111 $
b00001111 )
b00010000 -
b00001111 /
b00010000 1
b000011110 3
14
07
18
1;
0<
1=
1@
0A
1B
1E
0F
1G
1J
1K
#780000000
0"
#785000000
1"
b00010000 $
b11101110 &
b00010000 )
b11101110 +
b00010001 -
b00010000 /
b00010001 1
b000000000 3
04
17
08
09
0;
0<
0=
0>
0@
0A
0B
0C
0E
0F
0G
1H
0J
1K
0L
0O
0P
#790000000
0"
#795000000
1"
b00010001 $
b00010001 )
b00010010 -
b00010001 /
b00010010 1
b000000010 3
14
07
18
1;
1<
#800000000
0"
#805000000
1"
b00010010 $
b11101100 &
b00010010 )
b11101100 +
b00010011 -
b00010010 /
b00010011 1
b000000000 3
04
17
08
19
0;
1<
0=
0@
0A
#810000000
0"
#815000000
1"
b00010011 $
b00010011 )
b00010100 -
b00010011 /
b00010100 1
b000000110 3
14
07
18
1;
0<
1=
1@
1A
#820000000
0"
#825000000
1"
b00010100 $
b11101010 &
b00010100 )
b11101010 +
b00010101 -
b00010100 /
b00010101 1
b000000000 3
04
17
08
09
0;
0<
0=
1>
0@
1A
0B
0E
0F
#830000000
0"
#835000000
1"
b00010101 $
b00010101 )
b00010110 -
b00010101 /
b00010110 1
b000000010 3
14
07
18
1;
1<
#840000000
0"
#845000000
1"
b00010110 $
b11101000 &
b00010110 )
b11101000 +
b00010111 -
b00010110 /
b00010111 1
b000000000 3
04
17
08
19
0;
1<
0=
0@
1A
0B
0E
0F
#850000000
0"
#855000000
1"
b00010111 $
b00010111 )
b00011000 -
b00010111 /
b00011000 1
b000001110 3
14
07
18
1;
0<
1=
1@
0A
1B
1E
1F
#860000000
0"
#865000000
1"
b00011000 $
b11100110 &
b00011000 )
b11100110 +
b00011001 -
b00011000 /
b00011001 1
b000000000 3
04
17
08
09
0;
0<
0=
0>
0@
0A
0B
1C
0E
1F
0G
0J
1K
0L
0O
0P
#870000000
0"
#875000000
1"
b00011001 $
b00011001 )
b00011010 -
b00011001 /
b00011010 1
b000000010 3
14
07
18
1;
1<
#880000000
0"
#885000000
1"
b00011010 $
b11100100 &
b00011010 )
b11100100 +
b00011011 -
b00011010 /
b00011011 1
b000000000 3
04
17
08
19
0;
1<
0=
0@
0A
#890000000
0"
#895000000
1"
b00011011 $
b00011011 )
b00011100 -
b00011011 /
b00011100 1
b000000110 3
14
07
18
1;
0<
1=
1@
1A
#900000000
0"
#905000000
1"
b00011100 $
b11100010 &
b00011100 )
b11100010 +
b00011101 -
b00011100 /
b00011101 1
b000000000 3
04
17
08
09
0;
0<
0=
1>
0@
1A
0B
0E
1F
0G
0J
1K
0L
0O
0P
#910000000
0"
#915000000
1"
b00011101 $
b00011101 )
b00011110 -
b00011101 /
b00011110 1
b000000010 3
14
07
18
1;
1<
#920000000
0"
#925000000
1"
b00011110 $
b11100000 &
b00011110 )
b11100000 +
b00011111 -
b00011110 /
b00011111 1
b000000000 3
04
17
08
19
0;
1<
0=
0@
1A
0B
0E
1F
0G
0J
1K
0L
0O
0P
#930000000
0"
#935000000
1"
b00011111 $
b00011111 )
b00100000 -
b00011111 /
b00100000 1
b000111110 3
14
07
18
1;
0<
1=
1@
0A
1B
1E
0F
1G
1J
0K
1L
1O
1P
#940000000
0"
#945000000
1"
b00100000 $
b11011110 &
b00100000 )
b11011110 +
b00100001 -
b00100000 /
b00100001 1
b000000000 3
04
17
08
09
0;
0<
0=
0>
0@
0A
0B
0C
0E
0F
0G
0H
0J
0K
0L
1M
0O
1P
0Q
0T
0U
#950000000
0"
#955000000
1"
b00100001 $
b00100001 )
b00100010 -
b00100001 /
b00100010 1
b000000010 3
14
07
18
1;
1<
#960000000
0"
#965000000
1"
b00100010 $
b11011100 &
b00100010 )
b11011100 +
b00100011 -
b00100010 /
b00100011 1
b000000000 3
04
17
08
19
0;
1<
0=
0@
0A
#970000000
0"
#975000000
1"
b00100011 $
b00100011 )
b00100100 -
b00100011 /
b00100100 1
b000000110 3
14
07
18
1;
0<
1=
1@
1A
#980000000
0"
#985000000
1"
b00100100 $
b11011010 &
b00100100 )
b11011010 +
b00100101 -
b00100100 /
b00100101 1
b000000000 3
04
17
08
09
0;
0<
0=
1>
0@
1A
0B
0E
0F
#990000000
0"
#995000000
1"
b00100101 $
b00100101 )
b00100110 -
b00100101 /
b00100110 1
b000000010 3
14
07
18
1;
1<
#1000000000
0"
#1005000000
1"
b00100110 $
b11011000 &
b00100110 )
b11011000 +
b00100111 -
b00100110 /
b00100111 1
b000000000 3
04
17
08
19
0;
1<
0=
0@
1A
0B
0E
0F
#1010000000
0"
#1015000000
1"
b00100111 $
b00100111 )
b00101000 -
b00100111 /
b00101000 1
b000001110 3
14
07
18
1;
0<
1=
1@
0A
1B
1E
1F
#1020000000
0"
#1025000000
1"
b00101000 $
b11010110 &
b00101000 )
b11010110 +
b00101001 -
b00101000 /
b00101001 1
b000000000 3
04
17
08
09
0;
0<
0=
0>
0@
0A
0B
1C
0E
1F
0G
0J
0K
#1030000000
0"
#1035000000
1"
b00101001 $
b00101001 )
b00101010 -
b00101001 /
b00101010 1
b000000010 3
14
07
18
1;
1<
#1040000000
0"
#1045000000
1"
b00101010 $
b11010100 &
b00101010 )
b11010100 +
b00101011 -
b00101010 /
b00101011 1
b000000000 3
04
17
08
19
0;
1<
0=
0@
0A
#1050000000
0"
#1055000000
1"
b00101011 $
b00101011 )
b00101100 -
b00101011 /
b00101100 1
b000000110 3
14
07
18
1;
0<
1=
1@
1A
#1060000000
0"
#1065000000
1"
b00101100 $
b11010010 &
b00101100 )
b11010010 +
b00101101 -
b00101100 /
b00101101 1
b000000000 3
04
17
08
09
0;
0<
0=
1>
0@
1A
0B
0E
1F
0G
0J
0K
#1070000000
0"
#1075000000
1"
b00101101 $
b00101101 )
b00101110 -
b00101101 /
b00101110 1
b000000010 3
14
07
18
1;
1<
#1080000000
0"
#1085000000
1"
b00101110 $
b11010000 &
b00101110 )
b11010000 +
b00101111 -
b00101110 /
b00101111 1
b000000000 3
04
17
08
19
0;
1<
0=
0@
1A
0B
0E
1F
0G
0J
0K
#1090000000
0"
#1095000000
1"
b00101111 $
b00101111 )
b00110000 -
b00101111 /
b00110000 1
b000011110 3
14
07
18
1;
0<
1=
1@
0A
1B
1E
0F
1G
1J
1K
#1100000000
0"
#1105000000
1"
b00110000 $
b11001110 &
b00110000 )
b11001110 +
b00110001 -
b00110000 /
b00110001 1
b000000000 3
04
17
08
09
0;
0<
0=
0>
0@
0A
0B
0C
0E
0F
0G
1H
0J
1K
0L
0O
1P
0Q
0T
0U
#1110000000
0"
#1115000000
1"
b00110001 $
b00110001 )
b00110010 -
b00110001 /
b00110010 1
b000000010 3
14
07
18
1;
1<
#1120000000
0"
#1125000000
1"
b00110010 $
b11001100 &
b00110010 )
b11001100 +
b00110011 -
b00110010 /
b00110011 1
b000000000 3
04
17
08
19
0;
1<
0=
0@
0A
#1130000000
0"
#1135000000
1"
b00110011 $
b00110011 )
b00110100 -
b00110011 /
b00110100 1
b000000110 3
14
07
18
1;
0<
1=
1@
1A
#1140000000
0"
#1145000000
1"
b00110100 $
b11001010 &
b00110100 )
b11001010 +
b00110101 -
b00110100 /
b00110101 1
b000000000 3
04
17
08
09
0;
0<
0=
1>
0@
1A
0B
0E
0F
#1150000000
0"
#1155000000
1"
b00110101 $
b00110101 )
b00110110 -
b00110101 /
b00110110 1
b000000010 3
14
07
18
1;
1<
#1160000000
0"
#1165000000
1"
b00110110 $
b11001000 &
b00110110 )
b11001000 +
b00110111 -
b00110110 /
b00110111 1
b000000000 3
04
17
08
19
0;
1<
0=
0@
1A
0B
0E
0F
#1170000000
0"
#1175000000
1"
b00110111 $
b00110111 )
b00111000 -
b00110111 /
b00111000 1
b000001110 3
14
07
18
1;
0<
1=
1@
0A
1B
1E
1F
#1180000000
0"
#1185000000
1"
b00111000 $
b11000110 &
b00111000 )
b11000110 +
b00111001 -
b00111000 /
b00111001 1
b000000000 3
04
17
08
09
0;
0<
0=
0>
0@
0A
0B
1C
0E
1F
0G
0J
1K
0L
0O
1P
0Q
0T
0U
#1190000000
0"
#1195000000
1"
b00111001 $
b00111001 )
b00111010 -
b00111001 /
b00111010 1
b000000010 3
14
07
18
1;
1<
#1200000000
0"
#1205000000
1"
b00111010 $
b11000100 &
b00111010 )
b11000100 +
b00111011 -
b00111010 /
b00111011 1
b000000000 3
04
17
08
19
0;
1<
0=
0@
0A
#1210000000
0"
#1215000000
1"
b00111011 $
b00111011 )
b00111100 -
b00111011 /
b00111100 1
b000000110 3
14
07
18
1;
0<
1=
1@
1A
#1220000000
0"
#1225000000
1"
b00111100 $
b11000010 &
b00111100 )
b11000010 +
b00111101 -
b00111100 /
b00111101 1
b000000000 3
04
17
08
09
0;
0<
0=
1>
0@
1A
0B
0E
1F
0G
0J
1K
0L
0O
1P
0Q
0T
0U
#1230000000
0"
#1235000000
1"
b00111101 $
b00111101 )
b00111110 -
b00111101 /
b00111110 1
b000000010 3
14
07
18
1;
1<
#1240000000
0"
#1245000000
1"
b00111110 $
b11000000 &
b00111110 )
b11000000 +
b00111111 -
b00111110 /
b00111111 1
b000000000 3
04
17
08
19
0;
1<
0=
0@
1A
0B
0E
1F
0G
0J
1K
0L
0O
1P
0Q
0T
0U
#1250000000
0"
#1255000000
1"
b00000000 $
b00000010 %
b11111101 &
b00000000 )
b00000010 *
b11111101 +
b00000010 -
b00000000 /
b00000010 0
b00000010 1
05
07
09
1:
0>
0A
0C
0F
0H
0K
0M
0P
#1260000000
0"
#1265000000
1"
b00000001 $
b11111100 &
b00000001 )
b11111100 +
b00000011 -
b00000001 /
b00000011 1
14
17
#1270000000
0"
#1275000000
1"
b00000010 $
b11111101 &
b00000010 )
b11111101 +
b00000100 -
b00000010 /
b00000100 1
b000000100 3
04
07
19
0<
1=
1@
1A
#1280000000
0"
#1285000000
1"
b00000011 $
b11111100 &
b00000011 )
b11111100 +
b00000101 -
b00000011 /
b00000101 1
14
17
#1290000000
0"
#1295000000
1"
b00000100 $
b11111001 &
b00000100 )
b11111001 +
b00000110 -
b00000100 /
b00000110 1
b000000000 3
04
07
09
1<
0=
1>
0@
1A
0B
0E
0F
#1300000000
0"
#1305000000
1"
b00000101 $
b11111000 &
b00000101 )
b11111000 +
b00000111 -
b00000101 /
b00000111 1
14
17
#1310000000
0"
#1315000000
1"
b00000110 $
b11111001 &
b00000110 )
b11111001 +
b00001000 -
b00000110 /
b00001000 1
b000001100 3
04
07
19
0<
1=
1@
0A
1B
1E
1F
#1320000000
0"
#1325000000
1"
b00000111 $
b11111000 &
b00000111 )
b11111000 +
b00001001 -
b00000111 /
b00001001 1
14
17
#1330000000
0"
#1335000000
1"
b00001000 $
b11110101 &
b00001000 )
b11110101 +
b00001010 -
b00001000 /
b00001010 1
b000000000 3
04
07
09
1<
0=
0>
0@
0A
0B
1C
0E
1F
0G
0J
0K
#1340000000
0"
#1345000000
1"
b00001001 $
b11110100 &
b00001001 )
b11110100 +
b00001011 -
b00001001 /
b00001011 1
14
17
#1350000000
0"
#1355000000
1"
b00001010 $
b11110101 &
b00001010 )
b11110101 +
b00001100 -
b00001010 /
b00001100 1
b000000100 3
04
07
19
0<
1=
1@
1A
#1360000000
0"
#1365000000
1"
b00001011 $
b11110100 &
b00001011 )
b11110100 +
b00001101 -
b00001011 /
b00001101 1
14
17
#1370000000
0"
#1375000000
1"
b00001100 $
b11110001 &
b00001100 )
b11110001 +
b00001110 -
b00001100 /
b00001110 1
b000000000 3
04
07
09
1<
0=
1>
0@
1A
0B
0E
1F
0G
0J
0K
#1380000000
0"
#1385000000
1"
b00001101 $
b11110000 &
b00001101 )
b11110000 +
b00001111 -
b00001101 /
b00001111 1
14
17
#1390000000
0"
#1395000000
1"
b00001110 $
b11110001 &
b00001110 )
b11110001 +
b00010000 -
b00001110 /
b00010000 1
b000011100 3
04
07
19
0<
1=
1@
0A
1B
1E
0F
1G
1J
1K
#1400000000
0"
#1405000000
1"
b00001111 $
b11110000 &
b00001111 )
b11110000 +
b00010001 -
b00001111 /
b00010001 1
14
17
#1410000000
0"
#1415000000
1"
b00010000 $
b11101101 &
b00010000 )
b11101101 +
b00010010 -
b00010000 /
b00010010 1
b000000000 3
04
07
09
1<
0=
0>
0@
0A
0B
0C
0E
0F
0G
1H
0J
1K
0L
0O
0P
#1420000000
0"
#1425000000
1"
b00010001 $
b11101100 &
b00010001 )
b11101100 +
b00010011 -
b00010001 /
b00010011 1
14
17
#1430000000
0"
#1435000000
1"
b00010010 $
b11101101 &
b00010010 )
b11101101 +
b00010100 -
b00010010 /
b00010100 1
b000000100 3
04
07
19
0<
1=
1@
1A
#1440000000
0"
#1445000000
1"
b00010011 $
b11101100 &
b00010011 )
b11101100 +
b00010101 -
b00010011 /
b00010101 1
14
17
#1450000000
0"
#1455000000
1"
b00010100 $
b11101001 &
b00010100 )
b11101001 +
b00010110 -
b00010100 /
b00010110 1
b000000000 3
04
07
09
1<
0=
1>
0@
1A
0B
0E
0F
#1460000000
0"
#1465000000
1"
b00010101 $
b11101000 &
b00010101 )
b11101000 +
b00010111 -
b00010101 /
b00010111 1
14
17
#1470000000
0"
#1475000000
1"
b00010110 $
b11101001 &
b00010110 )
b11101001 +
b00011000 -
b00010110 /
b00011000 1
b000001100 3
04
07
19
0<
1=
1@
0A
1B
1E
1F
#1480000000
0"
#1485000000
1"
b00010111 $
b11101000 &
b00010111 )
b11101000 +
b00011001 -
b00010111 /
b00011001 1
14
17
#1490000000
0"
#1495000000
1"
b00011000 $
b11100101 &
b00011000 )
b11100101 +
b00011010 -
b00011000 /
b00011010 1
b000000000 3
04
07
09
1<
0=
0>
0@
0A
0B
1C
0E
1F
0G
0J
1K
0L
0O
0P
