vcd/tb_ual.vcd
$date
  Mon Feb 11 16:16:36 2019
$end
$version
  GHDL v0
$end
$timescale
  1 fs
$end
$var reg 1 ! reset $end
$var reg 1 " clk $end
$var reg 1 # s_selec_op $end
$var reg 8 $ s_data_l[7:0] $end
$var reg 8 % s_data_r[7:0] $end
$var reg 8 & s_data[7:0] $end
$var reg 1 ' s_carry $end
$scope module ual_i $end
$var reg 1 ( i_selec_op $end
$var reg 8 ) i_data_l[7:0] $end
$var reg 8 * i_data_r[7:0] $end
$var reg 8 + o_data[7:0] $end
$var reg 1 , o_carry $end
$var reg 8 - s_data_add[7:0] $end
$var reg 1 . s_carry_add $end
$scope module addi_n_bits_i $end
$var reg 8 / i_data_l[7:0] $end
$var reg 8 0 i_data_r[7:0] $end
$var reg 8 1 o_data[7:0] $end
$var reg 1 2 o_carry $end
$var reg 9 3 s_carry[8:0] $end
$scope module addi_n(0) $end
$scope module addi_1 $end
$var reg 1 4 i_data_l $end
$var reg 1 5 i_data_r $end
$var reg 1 6 i_carry $end
$var reg 1 7 o_data $end
$var reg 1 8 o_carry $end
$upscope $end
$upscope $end
$scope module addi_n(1) $end
$scope module addi_1 $end
$var reg 1 9 i_data_l $end
$var reg 1 : i_data_r $end
$var reg 1 ; i_carry $end
$var reg 1 < o_data $end
$var reg 1 = o_carry $end
$upscope $end
$upscope $end
$scope module addi_n(2) $end
$scope module addi_1 $end
$var reg 1 > i_data_l $end
$var reg 1 ? i_data_r $end
$var reg 1 @ i_carry $end
$var reg 1 A o_data $end
$var reg 1 B o_carry $end
$upscope $end
$upscope $end
$scope module addi_n(3) $end
$scope module addi_1 $end
$var reg 1 C i_data_l $end
$var reg 1 D i_data_r $end
$var reg 1 E i_carry $end
$var reg 1 F o_data $end
$var reg 1 G o_carry $end
$upscope $end
$upscope $end
$scope module addi_n(4) $end
$scope module addi_1 $end
$var reg 1 H i_data_l $end
$var reg 1 I i_data_r $end
$var reg 1 J i_carry $end
$var reg 1 K o_data $end
$var reg 1 L o_carry $end
$upscope $end
$upscope $end
$scope module addi_n(5) $end
$scope module addi_1 $end
$var reg 1 M i_data_l $end
$var reg 1 N i_data_r $end
$var reg 1 O i_carry $end
$var reg 1 P o_data $end
$var reg 1 Q o_carry $end
$upscope $end
$upscope $end
$scope module addi_n(6) $end
$scope module addi_1 $end
$var reg 1 R i_data_l $end
$var reg 1 S i_data_r $end
$var reg 1 T i_carry $end
$var reg 1 U o_data $end
$var reg 1 V o_carry $end
$upscope $end
$upscope $end
$scope module addi_n(7) $end
$scope module addi_1 $end
$var reg 1 W i_data_l $end
$var reg 1 X i_data_r $end
$var reg 1 Y i_carry $end
$var reg 1 Z o_data $end
$var reg 1 [ o_carry $end
$upscope $end
$upscope $end
$upscope $end
$upscope $end
$enddefinitions $end
#0
1!
0"
0#
b00000000 $
b00000000 %
b11111111 &
0'
0(
b00000000 )
b00000000 *
b11111111 +
0,
b00000000 -
0.
b00000000 /
b00000000 0
b00000000 1
02
b000000000 3
04
05
06
07
08
09
0:
0;
0<
0=
0>
0?
0@
0A
0B
0C
0D
0E
0F
0G
0H
0I
0J
0K
0L
0M
0N
0O
0P
0Q
0R
0S
0T
0U
0V
0W
0X
0Y
0Z
0[
#5000000
1"
1#
b00000000 &
1(
b00000000 +
#10000000
0"
#15000000
1"
b00000001 %
b00000001 &
b00000001 *
b00000001 +
b00000001 -
b00000001 0
b00000001 1
15
17
#20000000
0!
0"
#25000000
1"
b11111111 $
b00000000 &
1'
b11111111 )
b00000000 +
1,
b00000000 -
1.
b11111111 /
b00000000 1
12
b111111110 3
14
07
18
19
1;
0<
1=
1>
1@
0A
1B
1C
1E
0F
1G
1H
1J
0K
1L
1M
1O
0P
1Q
1R
1T
0U
1V
1W
1Y
0Z
1[
#30000000
0"
#35000000
1"
b00000001 $
b11111111 %
b00000001 )
b11111111 *
b00000001 /
b11111111 0
09
1:
0>
1?
0C
1D
0H
1I
0M
1N
0R
1S
0W
1X
#40000000
0"
#45000000
1"
b11111111 $
b11111110 &
b11111111 )
b11111110 +
b11111110 -
b11111111 /
b11111110 1
19
1<
1>
1A
1C
1F
1H
1K
1M
1P
1R
1U
1W
1Z
#50000000
0"
#55000000
1"
0#
b00000000 $
b00000000 %
b11111111 &
0'
0(
b00000000 )
b00000000 *
b11111111 +
0,
b00000000 -
0.
b00000000 /
b00000000 0
b00000000 1
02
b000000000 3
04
05
08
09
0:
0;
0<
0=
0>
0?
0@
0A
0B
0C
0D
0E
0F
0G
0H
0I
0J
0K
0L
0M
0N
0O
0P
0Q
0R
0S
0T
0U
0V
0W
0X
0Y
0Z
0[
#60000000
0"
#65000000
1"
b00000001 %
b11111110 &
b00000001 *
b11111110 +
b00000001 -
b00000001 0
b00000001 1
15
17
#70000000
0"
#75000000
1"
b00000001 $
b00000000 %
b00000001 )
b00000000 *
b00000001 /
b00000000 0
14
05
#80000000
0"
#85000000
1"
b11111111 %
b00000000 &
b11111111 *
b00000000 +
b00000000 -
1.
b11111111 0
b00000000 1
12
b111111110 3
15
07
18
1:
1;
0<
1=
1?
1@
0A
1B
1D
1E
0F
1G
1I
1J
0K
1L
1N
1O
0P
1Q
1S
1T
0U
1V
1X
1Y
0Z
1[
