vcd/tb_ut.vcd
$date
  Mon Feb 11 15:25:24 2019
$end
$version
  GHDL v0
$end
$timescale
  1 fs
$end
$var reg 1 ! reset $end
$var reg 1 " clk $end
$var reg 8 # s_i_mem_data[7:0] $end
$var reg 1 $ s_selec_op $end
$var reg 1 % s_ld_mem_data $end
$var reg 1 & s_ld_accu $end
$var reg 1 ' s_ld_carry $end
$var reg 1 ( s_init_carry $end
$var reg 8 ) s_o_mem_data[7:0] $end
$var reg 8 * s_o_mem_data_old[7:0] $end
$var reg 1 + s_carry $end
$scope module ut_i $end
$var reg 1 , reset $end
$var reg 1 - clk $end
$var reg 1 . ce $end
$var reg 8 / i_mem_data[7:0] $end
$var reg 1 0 i_selec_op $end
$var reg 1 1 i_ld_mem_data $end
$var reg 1 2 i_ld_accu $end
$var reg 1 3 i_ld_carry $end
$var reg 1 4 i_init_carry $end
$var reg 8 5 o_mem_data[7:0] $end
$var reg 1 6 o_carry $end
$var reg 8 7 s_mem_data_to_ual[7:0] $end
$var reg 8 8 s_ual_result[7:0] $end
$var reg 8 9 s_accu_data[7:0] $end
$var reg 1 : s_carry $end
$scope module reg_mem_data $end
$var reg 1 ; reset $end
$var reg 1 < clk $end
$var reg 1 = ce $end
$var reg 1 > i_load $end
$var reg 8 ? i_data[7:0] $end
$var reg 8 @ o_data[7:0] $end
$upscope $end
$scope module reg_accu $end
$var reg 1 A reset $end
$var reg 1 B clk $end
$var reg 1 C ce $end
$var reg 1 D i_load $end
$var reg 8 E i_data[7:0] $end
$var reg 8 F o_data[7:0] $end
$upscope $end
$scope module carry_flipflop $end
$var reg 1 G reset $end
$var reg 1 H clk $end
$var reg 1 I ce $end
$var reg 1 J i_load $end
$var reg 1 K i_init $end
$var reg 1 L i_data $end
$var reg 1 M o_data $end
$upscope $end
$scope module ual_i $end
$var reg 1 N i_selec_op $end
$var reg 8 O i_data_l[7:0] $end
$var reg 8 P i_data_r[7:0] $end
$var reg 8 Q o_data[7:0] $end
$var reg 1 R o_carry $end
$var reg 8 S s_data_add[7:0] $end
$var reg 1 T s_carry_add $end
$scope module addi_n_bits_i $end
$var reg 8 U i_data_l[7:0] $end
$var reg 8 V i_data_r[7:0] $end
$var reg 8 W o_data[7:0] $end
$var reg 1 X o_carry $end
$var reg 9 Y s_carry[8:0] $end
$scope module addi_n(0) $end
$scope module addi_1 $end
$var reg 1 Z i_data_l $end
$var reg 1 [ i_data_r $end
$var reg 1 \ i_carry $end
$var reg 1 ] o_data $end
$var reg 1 ^ o_carry $end
$upscope $end
$upscope $end
$scope module addi_n(1) $end
$scope module addi_1 $end
$var reg 1 _ i_data_l $end
$var reg 1 ` i_data_r $end
$var reg 1 a i_carry $end
$var reg 1 b o_data $end
$var reg 1 c o_carry $end
$upscope $end
$upscope $end
$scope module addi_n(2) $end
$scope module addi_1 $end
$var reg 1 d i_data_l $end
$var reg 1 e i_data_r $end
$var reg 1 f i_carry $end
$var reg 1 g o_data $end
$var reg 1 h o_carry $end
$upscope $end
$upscope $end
$scope module addi_n(3) $end
$scope module addi_1 $end
$var reg 1 i i_data_l $end
$var reg 1 j i_data_r $end
$var reg 1 k i_carry $end
$var reg 1 l o_data $end
$var reg 1 m o_carry $end
$upscope $end
$upscope $end
$scope module addi_n(4) $end
$scope module addi_1 $end
$var reg 1 n i_data_l $end
$var reg 1 o i_data_r $end
$var reg 1 p i_carry $end
$var reg 1 q o_data $end
$var reg 1 r o_carry $end
$upscope $end
$upscope $end
$scope module addi_n(5) $end
$scope module addi_1 $end
$var reg 1 s i_data_l $end
$var reg 1 t i_data_r $end
$var reg 1 u i_carry $end
$var reg 1 v o_data $end
$var reg 1 w o_carry $end
$upscope $end
$upscope $end
$scope module addi_n(6) $end
$scope module addi_1 $end
$var reg 1 x i_data_l $end
$var reg 1 y i_data_r $end
$var reg 1 z i_carry $end
$var reg 1 { o_data $end
$var reg 1 | o_carry $end
$upscope $end
$upscope $end
$scope module addi_n(7) $end
$scope module addi_1 $end
$var reg 1 } i_data_l $end
$var reg 1 !" i_data_r $end
$var reg 1 "" i_carry $end
$var reg 1 #" o_data $end
$var reg 1 $" o_carry $end
$upscope $end
$upscope $end
$upscope $end
$upscope $end
$upscope $end
$enddefinitions $end
#0
1!
0"
b00000000 #
0$
0%
0&
0'
0(
bUUUUUUUU )
b00000000 *
U+
1,
0-
1.
b00000000 /
00
01
02
03
04
bUUUUUUUU 5
U6
bUUUUUUUU 7
bUUUUUUUU 8
bUUUUUUUU 9
0:
1;
0<
1=
0>
b00000000 ?
bUUUUUUUU @
1A
0B
1C
0D
bUUUUUUUU E
bUUUUUUUU F
1G
0H
1I
0J
0K
0L
UM
0N
bUUUUUUUU O
bUUUUUUUU P
bUUUUUUUU Q
0R
bUUUUUUUU S
UT
bUUUUUUUU U
bUUUUUUUU V
bUUUUUUUU W
UX
bUUUUUUUU0 Y
UZ
U[
0\
U]
U^
U_
U`
Ua
Ub
Uc
Ud
Ue
Uf
Ug
Uh
Ui
Uj
Uk
Ul
Um
Un
Uo
Up
Uq
Ur
Us
Ut
Uu
Uv
Uw
Ux
Uy
Uz
U{
U|
U}
U!"
U""
U#"
U$"
#5000000
1"
b00000000 )
0+
1-
b00000000 5
06
b00000000 7
b11111111 8
b00000000 9
1<
b00000000 @
1B
b11111111 E
b00000000 F
1H
0M
b00000000 O
b00000000 P
b11111111 Q
b00000000 S
0T
b00000000 U
b00000000 V
b00000000 W
0X
b000000000 Y
0Z
0[
0]
0^
0_
0`
0a
0b
0c
0d
0e
0f
0g
0h
0i
0j
0k
0l
0m
0n
0o
0p
0q
0r
0s
0t
0u
0v
0w
0x
0y
0z
0{
0|
0}
0!"
0""
0#"
0$"
#10000000
0!
0"
0,
0-
0;
0<
0A
0B
0G
0H
#15000000
1"
b00100000 #
1%
1-
b00100000 /
11
1<
1>
b00100000 ?
1B
1H
#20000000
0"
0-
0<
0B
0H
#25000000
1"
1$
0%
1&
1'
1-
10
01
12
13
b00100000 7
b00100000 8
1<
0>
b00100000 @
1B
1D
b00100000 E
1H
1J
1N
b00100000 O
b00100000 Q
b00100000 S
b00100000 U
b00100000 W
1s
1v
#30000000
0"
0-
0<
0B
0H
#35000000
1"
0&
0'
b00100000 )
1-
02
03
b00100000 5
b01000000 8
b00100000 9
1<
1B
0D
b01000000 E
b00100000 F
1H
0J
b00100000 P
b01000000 Q
b01000000 S
b00100000 V
b01000000 W
b001000000 Y
1t
0v
1w
1z
1{
#40000000
0"
0-
0<
0B
0H
#45000000
1"
1%
1-
11
1<
1>
1B
1H
#50000000
0"
0-
0<
0B
0H
#55000000
1"
0$
0%
1&
1-
00
01
12
b11011111 8
1<
0>
1B
1D
b11011111 E
1H
0N
b11011111 Q
#60000000
0"
0-
0<
0B
0H
#65000000
1"
0&
b11011111 )
1-
02
b11011111 5
b00000000 8
b11011111 9
1<
1B
0D
b00000000 E
b11011111 F
1H
b11011111 P
b00000000 Q
b11111111 S
0T
b11011111 V
b11111111 W
0X
b000000000 Y
1[
1]
1`
1b
1e
1g
1j
1l
1o
1q
0t
1v
0w
1y
0z
1{
0|
1!"
0""
1#"
0$"
#70000000
0"
0-
0<
0B
0H
#75000000
1"
1-
1<
1B
1H
#80000000
0"
0-
0<
0B
0H
#85000000
1"
1%
b11011111 *
1-
11
1<
1>
1B
1H
#90000000
0"
0-
0<
0B
0H
#95000000
1"
1$
0%
1&
1'
1-
10
01
12
13
b11111111 8
1<
0>
1B
1D
b11111111 E
1H
1J
1N
b11111111 Q
#100000000
0"
0-
0<
0B
0H
#105000000
1"
0&
0'
b11111111 )
1-
02
03
b11111111 5
b00011111 8
b11111111 9
1:
1<
1B
0D
b00011111 E
b11111111 F
1H
0J
1L
b11111111 P
b00011111 Q
1R
b00011111 S
1T
b11111111 V
b00011111 W
1X
b111000000 Y
1t
0v
1w
1z
0{
1|
1""
0#"
1$"
#110000000
0"
0-
0<
0B
0H
#115000000
1"
1%
1-
11
1<
1>
1B
1H
#120000000
0"
0-
0<
0B
0H
#125000000
1"
0$
0%
1&
1-
00
01
12
b00000000 8
0:
1<
0>
1B
1D
b00000000 E
1H
0L
0N
b00000000 Q
0R
#130000000
0"
0-
0<
0B
0H
#135000000
1"
0&
b00000000 )
1-
02
b00000000 5
b11011111 8
b00000000 9
1<
1B
0D
b11011111 E
b00000000 F
1H
b00000000 P
b11011111 Q
b00100000 S
0T
b00000000 V
b00100000 W
0X
b000000000 Y
0[
0]
0`
0b
0e
0g
0j
0l
0o
0q
0t
1v
0w
0y
0z
0{
0|
0!"
0""
0#"
0$"
#140000000
0"
0-
0<
0B
0H
#145000000
1"
1-
1<
1B
1H
#150000000
0"
0-
0<
0B
0H
#155000000
1"
1%
b00000000 *
1-
11
1<
1>
1B
1H
#160000000
0"
0-
0<
0B
0H
#165000000
1"
1$
0%
1&
1'
1-
10
01
12
13
b00100000 8
1<
0>
1B
1D
b00100000 E
1H
1J
1N
b00100000 Q
#170000000
0"
0-
0<
0B
0H
#175000000
1"
0&
0'
b00100000 )
1-
02
03
b00100000 5
b01000000 8
b00100000 9
1<
1B
0D
b01000000 E
b00100000 F
1H
0J
b00100000 P
b01000000 Q
b01000000 S
b00100000 V
b01000000 W
b001000000 Y
1t
0v
1w
1z
1{
#180000000
0"
0-
0<
0B
0H
#185000000
1"
1%
1-
11
1<
1>
1B
1H
#190000000
0"
0-
0<
0B
0H
#195000000
1"
0$
0%
1&
1-
00
01
12
b11011111 8
1<
0>
1B
1D
b11011111 E
1H
0N
b11011111 Q
#200000000
0"
0-
0<
0B
0H
#205000000
1"
0&
b11011111 )
1-
02
b11011111 5
b00000000 8
b11011111 9
1<
1B
0D
b00000000 E
b11011111 F
1H
b11011111 P
b00000000 Q
b11111111 S
0T
b11011111 V
b11111111 W
0X
b000000000 Y
1[
1]
1`
1b
1e
1g
1j
1l
1o
1q
0t
1v
0w
1y
0z
1{
0|
1!"
0""
1#"
0$"
#210000000
0"
0-
0<
0B
0H
#215000000
1"
1-
1<
1B
1H
#220000000
0"
0-
0<
0B
0H
#225000000
1"
1%
b11011111 *
1-
11
1<
1>
1B
1H
#230000000
0"
0-
0<
0B
0H
#235000000
1"
1$
0%
1&
1'
1-
10
01
12
13
b11111111 8
1<
0>
1B
1D
b11111111 E
1H
1J
1N
b11111111 Q
#240000000
0"
0-
0<
0B
0H
#245000000
1"
0&
0'
b11111111 )
1-
02
03
b11111111 5
b00011111 8
b11111111 9
1:
1<
1B
0D
b00011111 E
b11111111 F
1H
0J
1L
b11111111 P
b00011111 Q
1R
b00011111 S
1T
b11111111 V
b00011111 W
1X
b111000000 Y
1t
0v
1w
1z
0{
1|
1""
0#"
1$"
#250000000
0"
0-
0<
0B
0H
#255000000
1"
1%
1-
11
1<
1>
1B
1H
#260000000
0"
0-
0<
0B
0H
#265000000
1"
0$
0%
1&
1-
00
01
12
b00000000 8
0:
1<
0>
1B
1D
b00000000 E
1H
0L
0N
b00000000 Q
0R
#270000000
0"
0-
0<
0B
0H
#275000000
1"
0&
b00000000 )
1-
02
b00000000 5
b11011111 8
b00000000 9
1<
1B
0D
b11011111 E
b00000000 F
1H
b00000000 P
b11011111 Q
b00100000 S
0T
b00000000 V
b00100000 W
0X
b000000000 Y
0[
0]
0`
0b
0e
0g
0j
0l
0o
0q
0t
1v
0w
0y
0z
0{
0|
0!"
0""
0#"
0$"
#280000000
0"
0-
0<
0B
0H
#285000000
1"
1-
1<
1B
1H
#290000000
0"
0-
0<
0B
0H
#295000000
1"
1%
b00000000 *
1-
11
1<
1>
1B
1H
#300000000
0"
0-
0<
0B
0H
#305000000
1"
1$
0%
1&
1'
1-
10
01
12
13
b00100000 8
1<
0>
1B
1D
b00100000 E
1H
1J
1N
b00100000 Q
#310000000
0"
0-
0<
0B
0H
#315000000
1"
0&
0'
b00100000 )
1-
02
03
b00100000 5
b01000000 8
b00100000 9
1<
1B
0D
b01000000 E
b00100000 F
1H
0J
b00100000 P
b01000000 Q
b01000000 S
b00100000 V
b01000000 W
b001000000 Y
1t
0v
1w
1z
1{
#320000000
0"
0-
0<
0B
0H
#325000000
1"
1%
1-
11
1<
1>
1B
1H
#330000000
0"
0-
0<
0B
0H
#335000000
1"
0$
0%
1&
1-
00
01
12
b11011111 8
1<
0>
1B
1D
b11011111 E
1H
0N
b11011111 Q
#340000000
0"
0-
0<
0B
0H
#345000000
1"
0&
b11011111 )
1-
02
b11011111 5
b00000000 8
b11011111 9
1<
1B
0D
b00000000 E
b11011111 F
1H
b11011111 P
b00000000 Q
b11111111 S
0T
b11011111 V
b11111111 W
0X
b000000000 Y
1[
1]
1`
1b
1e
1g
1j
1l
1o
1q
0t
1v
0w
1y
0z
1{
0|
1!"
0""
1#"
0$"
#350000000
0"
0-
0<
0B
0H
#355000000
1"
1-
1<
1B
1H
#360000000
0"
0-
0<
0B
0H
#365000000
1"
1%
b11011111 *
1-
11
1<
1>
1B
1H
#370000000
0"
0-
0<
0B
0H
#375000000
1"
1$
0%
1&
1'
1-
10
01
12
13
b11111111 8
1<
0>
1B
1D
b11111111 E
1H
1J
1N
b11111111 Q
#380000000
0"
0-
0<
0B
0H
#385000000
1"
0&
0'
b11111111 )
1-
02
03
b11111111 5
b00011111 8
b11111111 9
1:
1<
1B
0D
b00011111 E
b11111111 F
1H
0J
1L
b11111111 P
b00011111 Q
1R
b00011111 S
1T
b11111111 V
b00011111 W
1X
b111000000 Y
1t
0v
1w
1z
0{
1|
1""
0#"
1$"
#390000000
0"
0-
0<
0B
0H
#395000000
1"
1%
1-
11
1<
1>
1B
1H
#400000000
0"
0-
0<
0B
0H
#405000000
1"
0$
0%
1&
1-
00
01
12
b00000000 8
0:
1<
0>
1B
1D
b00000000 E
1H
0L
0N
b00000000 Q
0R
#410000000
0"
0-
0<
0B
0H
#415000000
1"
0&
b00000000 )
1-
02
b00000000 5
b11011111 8
b00000000 9
1<
1B
0D
b11011111 E
b00000000 F
1H
b00000000 P
b11011111 Q
b00100000 S
0T
b00000000 V
b00100000 W
0X
b000000000 Y
0[
0]
0`
0b
0e
0g
0j
0l
0o
0q
0t
1v
0w
0y
0z
0{
0|
0!"
0""
0#"
0$"
#420000000
0"
0-
0<
0B
0H
#425000000
1"
1-
1<
1B
1H
#430000000
0"
0-
0<
0B
0H
#435000000
1"
1%
b00000000 *
1-
11
1<
1>
1B
1H
#440000000
0"
0-
0<
0B
0H
#445000000
1"
1$
0%
1&
1'
1-
10
01
12
13
b00100000 8
1<
0>
1B
1D
b00100000 E
1H
1J
1N
b00100000 Q
#450000000
0"
0-
0<
0B
0H
#455000000
1"
0&
0'
b00100000 )
1-
02
03
b00100000 5
b01000000 8
b00100000 9
1<
1B
0D
b01000000 E
b00100000 F
1H
0J
b00100000 P
b01000000 Q
b01000000 S
b00100000 V
b01000000 W
b001000000 Y
1t
0v
1w
1z
1{
#460000000
0"
0-
0<
0B
0H
#465000000
1"
1%
1-
11
1<
1>
1B
1H
#470000000
0"
0-
0<
0B
0H
#475000000
1"
0$
0%
1&
1-
00
01
12
b11011111 8
1<
0>
1B
1D
b11011111 E
1H
0N
b11011111 Q
#480000000
0"
0-
0<
0B
0H
#485000000
1"
0&
b11011111 )
1-
02
b11011111 5
b00000000 8
b11011111 9
1<
1B
0D
b00000000 E
b11011111 F
1H
b11011111 P
b00000000 Q
b11111111 S
0T
b11011111 V
b11111111 W
0X
b000000000 Y
1[
1]
1`
1b
1e
1g
1j
1l
1o
1q
0t
1v
0w
1y
0z
1{
0|
1!"
0""
1#"
0$"
#490000000
0"
0-
0<
0B
0H
#495000000
1"
1-
1<
1B
1H
#500000000
0"
0-
0<
0B
0H
#505000000
1"
1%
b11011111 *
1-
11
1<
1>
1B
1H
#510000000
0"
0-
0<
0B
0H
#515000000
1"
1$
0%
1&
1'
1-
10
01
12
13
b11111111 8
1<
0>
1B
1D
b11111111 E
1H
1J
1N
b11111111 Q
#520000000
0"
0-
0<
0B
0H
#525000000
1"
0&
0'
b11111111 )
1-
02
03
b11111111 5
b00011111 8
b11111111 9
1:
1<
1B
0D
b00011111 E
b11111111 F
1H
0J
1L
b11111111 P
b00011111 Q
1R
b00011111 S
1T
b11111111 V
b00011111 W
1X
b111000000 Y
1t
0v
1w
1z
0{
1|
1""
0#"
1$"
#530000000
0"
0-
0<
0B
0H
#535000000
1"
1%
1-
11
1<
1>
1B
1H
#540000000
0"
0-
0<
0B
0H
#545000000
1"
0$
0%
1&
1-
00
01
12
b00000000 8
0:
1<
0>
1B
1D
b00000000 E
1H
0L
0N
b00000000 Q
0R
#550000000
0"
0-
0<
0B
0H
#555000000
1"
0&
b00000000 )
1-
02
b00000000 5
b11011111 8
b00000000 9
1<
1B
0D
b11011111 E
b00000000 F
1H
b00000000 P
b11011111 Q
b00100000 S
0T
b00000000 V
b00100000 W
0X
b000000000 Y
0[
0]
0`
0b
0e
0g
0j
0l
0o
0q
0t
1v
0w
0y
0z
0{
0|
0!"
0""
0#"
0$"
#560000000
0"
0-
0<
0B
0H
#565000000
1"
1-
1<
1B
1H
#570000000
0"
0-
0<
0B
0H
#575000000
1"
1%
b00000000 *
1-
11
1<
1>
1B
1H
#580000000
0"
0-
0<
0B
0H
#585000000
1"
1$
0%
1&
1'
1-
10
01
12
13
b00100000 8
1<
0>
1B
1D
b00100000 E
1H
1J
1N
b00100000 Q
#590000000
0"
0-
0<
0B
0H
#595000000
1"
0&
0'
b00100000 )
1-
02
03
b00100000 5
b01000000 8
b00100000 9
1<
1B
0D
b01000000 E
b00100000 F
1H
0J
b00100000 P
b01000000 Q
b01000000 S
b00100000 V
b01000000 W
b001000000 Y
1t
0v
1w
1z
1{
#600000000
0"
0-
0<
0B
0H
#605000000
1"
1%
1-
11
1<
1>
1B
1H
#610000000
0"
0-
0<
0B
0H
#615000000
1"
0$
0%
1&
1-
00
01
12
b11011111 8
1<
0>
1B
1D
b11011111 E
1H
0N
b11011111 Q
#620000000
0"
0-
0<
0B
0H
#625000000
1"
0&
b11011111 )
1-
02
b11011111 5
b00000000 8
b11011111 9
1<
1B
0D
b00000000 E
b11011111 F
1H
b11011111 P
b00000000 Q
b11111111 S
0T
b11011111 V
b11111111 W
0X
b000000000 Y
1[
1]
1`
1b
1e
1g
1j
1l
1o
1q
0t
1v
0w
1y
0z
1{
0|
1!"
0""
1#"
0$"
#630000000
0"
0-
0<
0B
0H
#635000000
1"
1-
1<
1B
1H
#640000000
0"
0-
0<
0B
0H
#645000000
1"
1%
b11011111 *
1-
11
1<
1>
1B
1H
#650000000
0"
0-
0<
0B
0H
#655000000
1"
1$
0%
1&
1'
1-
10
01
12
13
b11111111 8
1<
0>
1B
1D
b11111111 E
1H
1J
1N
b11111111 Q
#660000000
0"
0-
0<
0B
0H
#665000000
1"
0&
0'
b11111111 )
1-
02
03
b11111111 5
b00011111 8
b11111111 9
1:
1<
1B
0D
b00011111 E
b11111111 F
1H
0J
1L
b11111111 P
b00011111 Q
1R
b00011111 S
1T
b11111111 V
b00011111 W
1X
b111000000 Y
1t
0v
1w
1z
0{
1|
1""
0#"
1$"
#670000000
0"
0-
0<
0B
0H
#675000000
1"
1%
1-
11
1<
1>
1B
1H
#680000000
0"
0-
0<
0B
0H
#685000000
1"
0$
0%
1&
1-
00
01
12
b00000000 8
0:
1<
0>
1B
1D
b00000000 E
1H
0L
0N
b00000000 Q
0R
#690000000
0"
0-
0<
0B
0H
#695000000
1"
0&
b00000000 )
1-
02
b00000000 5
b11011111 8
b00000000 9
1<
1B
0D
b11011111 E
b00000000 F
1H
b00000000 P
b11011111 Q
b00100000 S
0T
b00000000 V
b00100000 W
0X
b000000000 Y
0[
0]
0`
0b
0e
0g
0j
0l
0o
0q
0t
1v
0w
0y
0z
0{
0|
0!"
0""
0#"
0$"
#700000000
0"
0-
0<
0B
0H
#705000000
1"
1-
1<
1B
1H
#710000000
0"
0-
0<
0B
0H
#715000000
1"
1%
b00000000 *
1-
11
1<
1>
1B
1H
#720000000
0"
0-
0<
0B
0H
#725000000
1"
1$
0%
1&
1'
1-
10
01
12
13
b00100000 8
1<
0>
1B
1D
b00100000 E
1H
1J
1N
b00100000 Q
#730000000
0"
0-
0<
0B
0H
#735000000
1"
0&
0'
b00100000 )
1-
02
03
b00100000 5
b01000000 8
b00100000 9
1<
1B
0D
b01000000 E
b00100000 F
1H
0J
b00100000 P
b01000000 Q
b01000000 S
b00100000 V
b01000000 W
b001000000 Y
1t
0v
1w
1z
1{
#740000000
0"
0-
0<
0B
0H
#745000000
1"
1%
1-
11
1<
1>
1B
1H
#750000000
0"
0-
0<
0B
0H
#755000000
1"
0$
0%
1&
1-
00
01
12
b11011111 8
1<
0>
1B
1D
b11011111 E
1H
0N
b11011111 Q
#760000000
0"
0-
0<
0B
0H
#765000000
1"
0&
b11011111 )
1-
02
b11011111 5
b00000000 8
b11011111 9
1<
1B
0D
b00000000 E
b11011111 F
1H
b11011111 P
b00000000 Q
b11111111 S
0T
b11011111 V
b11111111 W
0X
b000000000 Y
1[
1]
1`
1b
1e
1g
1j
1l
1o
1q
0t
1v
0w
1y
0z
1{
0|
1!"
0""
1#"
0$"
#770000000
0"
0-
0<
0B
0H
#775000000
1"
1-
1<
1B
1H
#780000000
0"
0-
0<
0B
0H
#785000000
1"
1%
b11011111 *
1-
11
1<
1>
1B
1H
#790000000
0"
0-
0<
0B
0H
#795000000
1"
1$
0%
1&
1'
1-
10
01
12
13
b11111111 8
1<
0>
1B
1D
b11111111 E
1H
1J
1N
b11111111 Q
#800000000
0"
0-
0<
0B
0H
#805000000
1"
0&
0'
b11111111 )
1-
02
03
b11111111 5
b00011111 8
b11111111 9
1:
1<
1B
0D
b00011111 E
b11111111 F
1H
0J
1L
b11111111 P
b00011111 Q
1R
b00011111 S
1T
b11111111 V
b00011111 W
1X
b111000000 Y
1t
0v
1w
1z
0{
1|
1""
0#"
1$"
#810000000
0"
0-
0<
0B
0H
#815000000
1"
1%
1-
11
1<
1>
1B
1H
#820000000
0"
0-
0<
0B
0H
#825000000
1"
0$
0%
1&
1-
00
01
12
b00000000 8
0:
1<
0>
1B
1D
b00000000 E
1H
0L
0N
b00000000 Q
0R
#830000000
0"
0-
0<
0B
0H
#835000000
1"
0&
b00000000 )
1-
02
b00000000 5
b11011111 8
b00000000 9
1<
1B
0D
b11011111 E
b00000000 F
1H
b00000000 P
b11011111 Q
b00100000 S
0T
b00000000 V
b00100000 W
0X
b000000000 Y
0[
0]
0`
0b
0e
0g
0j
0l
0o
0q
0t
1v
0w
0y
0z
0{
0|
0!"
0""
0#"
0$"
#840000000
0"
0-
0<
0B
0H
#845000000
1"
1-
1<
1B
1H
#850000000
0"
0-
0<
0B
0H
#855000000
1"
1%
b00000000 *
1-
11
1<
1>
1B
1H
#860000000
0"
0-
0<
0B
0H
#865000000
1"
1$
0%
1&
1'
1-
10
01
12
13
b00100000 8
1<
0>
1B
1D
b00100000 E
1H
1J
1N
b00100000 Q
#870000000
0"
0-
0<
0B
0H
#875000000
1"
0&
0'
b00100000 )
1-
02
03
b00100000 5
b01000000 8
b00100000 9
1<
1B
0D
b01000000 E
b00100000 F
1H
0J
b00100000 P
b01000000 Q
b01000000 S
b00100000 V
b01000000 W
b001000000 Y
1t
0v
1w
1z
1{
#880000000
0"
0-
0<
0B
0H
#885000000
1"
1%
1-
11
1<
1>
1B
1H
#890000000
0"
0-
0<
0B
0H
#895000000
1"
0$
0%
1&
1-
00
01
12
b11011111 8
1<
0>
1B
1D
b11011111 E
1H
0N
b11011111 Q
#900000000
0"
0-
0<
0B
0H
#905000000
1"
0&
b11011111 )
1-
02
b11011111 5
b00000000 8
b11011111 9
1<
1B
0D
b00000000 E
b11011111 F
1H
b11011111 P
b00000000 Q
b11111111 S
0T
b11011111 V
b11111111 W
0X
b000000000 Y
1[
1]
1`
1b
1e
1g
1j
1l
1o
1q
0t
1v
0w
1y
0z
1{
0|
1!"
0""
1#"
0$"
#910000000
0"
0-
0<
0B
0H
#915000000
1"
1-
1<
1B
1H
#920000000
0"
0-
0<
0B
0H
#925000000
1"
1%
b11011111 *
1-
11
1<
1>
1B
1H
#930000000
0"
0-
0<
0B
0H
#935000000
1"
1$
0%
1&
1'
1-
10
01
12
13
b11111111 8
1<
0>
1B
1D
b11111111 E
1H
1J
1N
b11111111 Q
#940000000
0"
0-
0<
0B
0H
#945000000
1"
0&
0'
b11111111 )
1-
02
03
b11111111 5
b00011111 8
b11111111 9
1:
1<
1B
0D
b00011111 E
b11111111 F
1H
0J
1L
b11111111 P
b00011111 Q
1R
b00011111 S
1T
b11111111 V
b00011111 W
1X
b111000000 Y
1t
0v
1w
1z
0{
1|
1""
0#"
1$"
#950000000
0"
0-
0<
0B
0H
#955000000
1"
1%
1-
11
1<
1>
1B
1H
#960000000
0"
0-
0<
0B
0H
#965000000
1"
0$
0%
1&
1-
00
01
12
b00000000 8
0:
1<
0>
1B
1D
b00000000 E
1H
0L
0N
b00000000 Q
0R
#970000000
0"
0-
0<
0B
0H
#975000000
1"
0&
b00000000 )
1-
02
b00000000 5
b11011111 8
b00000000 9
1<
1B
0D
b11011111 E
b00000000 F
1H
b00000000 P
b11011111 Q
b00100000 S
0T
b00000000 V
b00100000 W
0X
b000000000 Y
0[
0]
0`
0b
0e
0g
0j
0l
0o
0q
0t
1v
0w
0y
0z
0{
0|
0!"
0""
0#"
0$"
#980000000
0"
0-
0<
0B
0H
#985000000
1"
1-
1<
1B
1H
#990000000
0"
0-
0<
0B
0H
#995000000
1"
1%
b00000000 *
1-
11
1<
1>
1B
1H
#1000000000
0"
0-
0<
0B
0H
#1005000000
1"
1$
0%
1&
1'
1-
10
01
12
13
b00100000 8
1<
0>
1B
1D
b00100000 E
1H
1J
1N
b00100000 Q
#1010000000
0"
0-
0<
0B
0H
#1015000000
1"
0&
0'
b00100000 )
1-
02
03
b00100000 5
b01000000 8
b00100000 9
1<
1B
0D
b01000000 E
b00100000 F
1H
0J
b00100000 P
b01000000 Q
b01000000 S
b00100000 V
b01000000 W
b001000000 Y
1t
0v
1w
1z
1{
#1020000000
0"
0-
0<
0B
0H
#1025000000
1"
1%
1-
11
1<
1>
1B
1H
#1030000000
0"
0-
0<
0B
0H
#1035000000
1"
0$
0%
1&
1-
00
01
12
b11011111 8
1<
0>
1B
1D
b11011111 E
1H
0N
b11011111 Q
#1040000000
0"
0-
0<
0B
0H
#1045000000
1"
0&
b11011111 )
1-
02
b11011111 5
b00000000 8
b11011111 9
1<
1B
0D
b00000000 E
b11011111 F
1H
b11011111 P
b00000000 Q
b11111111 S
0T
b11011111 V
b11111111 W
0X
b000000000 Y
1[
1]
1`
1b
1e
1g
1j
1l
1o
1q
0t
1v
0w
1y
0z
1{
0|
1!"
0""
1#"
0$"
#1050000000
0"
0-
0<
0B
0H
#1055000000
1"
1-
1<
1B
1H
#1060000000
0"
0-
0<
0B
0H
#1065000000
1"
1%
b11011111 *
1-
11
1<
1>
1B
1H
#1070000000
0"
0-
0<
0B
0H
#1075000000
1"
1$
0%
1&
1'
1-
10
01
12
13
b11111111 8
1<
0>
1B
1D
b11111111 E
1H
1J
1N
b11111111 Q
#1080000000
0"
0-
0<
0B
0H
#1085000000
1"
0&
0'
b11111111 )
1-
02
03
b11111111 5
b00011111 8
b11111111 9
1:
1<
1B
0D
b00011111 E
b11111111 F
1H
0J
1L
b11111111 P
b00011111 Q
1R
b00011111 S
1T
b11111111 V
b00011111 W
1X
b111000000 Y
1t
0v
1w
1z
0{
1|
1""
0#"
1$"
#1090000000
0"
0-
0<
0B
0H
#1095000000
1"
1%
1-
11
1<
1>
1B
1H
#1100000000
0"
0-
0<
0B
0H
#1105000000
1"
0$
0%
1&
1-
00
01
12
b00000000 8
0:
1<
0>
1B
1D
b00000000 E
1H
0L
0N
b00000000 Q
0R
#1110000000
0"
0-
0<
0B
0H
#1115000000
1"
0&
b00000000 )
1-
02
b00000000 5
b11011111 8
b00000000 9
1<
1B
0D
b11011111 E
b00000000 F
1H
b00000000 P
b11011111 Q
b00100000 S
0T
b00000000 V
b00100000 W
0X
b000000000 Y
0[
0]
0`
0b
0e
0g
0j
0l
0o
0q
0t
1v
0w
0y
0z
0{
0|
0!"
0""
0#"
0$"
#1120000000
0"
0-
0<
0B
0H
#1125000000
1"
1-
1<
1B
1H
#1130000000
0"
0-
0<
0B
0H
#1135000000
1"
1%
b00000000 *
1-
11
1<
1>
1B
1H
#1140000000
0"
0-
0<
0B
0H
#1145000000
1"
1$
0%
1&
1'
1-
10
01
12
13
b00100000 8
1<
0>
1B
1D
b00100000 E
1H
1J
1N
b00100000 Q
#1150000000
0"
0-
0<
0B
0H
#1155000000
1"
0&
0'
b00100000 )
1-
02
03
b00100000 5
b01000000 8
b00100000 9
1<
1B
0D
b01000000 E
b00100000 F
1H
0J
b00100000 P
b01000000 Q
b01000000 S
b00100000 V
b01000000 W
b001000000 Y
1t
0v
1w
1z
1{
#1160000000
0"
0-
0<
0B
0H
#1165000000
1"
1%
1-
11
1<
1>
1B
1H
#1170000000
0"
0-
0<
0B
0H
#1175000000
1"
0$
0%
1&
1-
00
01
12
b11011111 8
1<
0>
1B
1D
b11011111 E
1H
0N
b11011111 Q
#1180000000
0"
0-
0<
0B
0H
#1185000000
1"
0&
b11011111 )
1-
02
b11011111 5
b00000000 8
b11011111 9
1<
1B
0D
b00000000 E
b11011111 F
1H
b11011111 P
b00000000 Q
b11111111 S
0T
b11011111 V
b11111111 W
0X
b000000000 Y
1[
1]
1`
1b
1e
1g
1j
1l
1o
1q
0t
1v
0w
1y
0z
1{
0|
1!"
0""
1#"
0$"
#1190000000
0"
0-
0<
0B
0H
#1195000000
1"
1-
1<
1B
1H
#1200000000
0"
0-
0<
0B
0H
