vcd/tb_uc_fsm.vcd
$date
  Sun Feb 10 17:23:51 2019
$end
$version
  GHDL v0
$end
$timescale
  1 fs
$end
$var reg 1 ! reset $end
$var reg 1 " clk $end
$var reg 1 # s_carry $end
$var reg 2 $ s_op_code[1:0] $end
$var reg 1 % s_init_carry $end
$var reg 1 & s_init_cpt_add $end
$var reg 1 ' s_ld_carry $end
$var reg 1 ( s_ld_cpt_add $end
$var reg 1 ) s_ld_inst $end
$var reg 1 * s_ld_accu $end
$var reg 1 + s_ld_mem $end
$var reg 1 , s_ld_mem_data $end
$var reg 1 - s_rw_mem_mode $end
$var reg 1 . s_en_cpt_add $end
$var reg 1 / s_selec_mux $end
$var reg 1 0 s_selec_op $end
$scope module uc_fsm_i $end
$var reg 1 1 reset $end
$var reg 1 2 clk $end
$var reg 1 3 i_carry $end
$var reg 2 4 i_op_code[1:0] $end
$var reg 1 5 o_init_carry $end
$var reg 1 6 o_init_cpt_add $end
$var reg 1 7 o_ld_carry $end
$var reg 1 8 o_ld_cpt_add $end
$var reg 1 9 o_ld_inst $end
$var reg 1 : o_ld_accu $end
$var reg 1 ; o_ld_mem $end
$var reg 1 < o_ld_mem_data $end
$var reg 1 = o_rw_mem_mode $end
$var reg 1 > o_en_cpt_add $end
$var reg 1 ? o_selec_mux $end
$var reg 1 @ o_selec_op $end
$comment cur_state is not handled $end
$comment next_state is not handled $end
$upscope $end
$enddefinitions $end
#0
1!
0"
0#
b00 $
U%
U&
U'
U(
U)
U*
U+
U,
U-
U.
U/
U0
11
02
03
b00 4
U5
U6
U7
U8
U9
U:
U;
U<
U=
U>
U?
U@
#5000000
1"
1%
1&
0'
0(
0)
0*
0+
0,
0-
0.
0/
00
12
15
16
07
08
09
0:
0;
0<
0=
0>
0?
0@
#10000000
0"
02
#15000000
0!
1"
01
12
#20000000
0"
02
#25000000
1"
12
#30000000
0"
02
#35000000
1"
0%
0&
1)
1+
1.
12
05
06
19
1;
1>
#40000000
0"
02
#45000000
1"
0)
0.
1/
12
09
0>
1?
#50000000
0"
02
#55000000
1"
0+
1,
12
0;
1<
#60000000
0"
02
#65000000
1"
b01 $
1*
0,
12
b01 4
1:
0<
#70000000
0"
02
#75000000
1"
1)
0*
1+
1.
0/
12
19
0:
1;
1>
0?
#80000000
0"
02
#85000000
1"
0)
0.
1/
12
09
0>
1?
#90000000
0"
02
#95000000
1"
0+
1,
12
0;
1<
#100000000
0"
02
#105000000
1"
b10 $
1'
1*
0,
10
12
b10 4
17
1:
0<
1@
#110000000
0"
02
#115000000
1"
0'
1)
0*
1+
1.
0/
00
12
07
19
0:
1;
1>
0?
0@
#120000000
0"
02
#125000000
1"
0)
0.
1/
12
09
0>
1?
#130000000
0"
02
#135000000
1"
0+
1,
12
0;
1<
#140000000
0"
02
#145000000
1"
b11 $
1+
0,
1-
12
b11 4
1;
0<
1=
#150000000
0"
02
#155000000
1"
1)
0-
1.
0/
12
19
0=
1>
0?
#160000000
0"
02
#165000000
1"
0)
0.
1/
12
09
0>
1?
#170000000
0"
02
#175000000
1"
0+
1,
12
0;
1<
#180000000
0"
02
#185000000
1"
b00 $
1(
0,
12
b00 4
18
0<
#190000000
0"
02
#195000000
1"
0(
1)
1+
1.
0/
12
08
19
1;
1>
0?
#200000000
0"
02
#205000000
1"
0)
0.
1/
12
09
0>
1?
#210000000
0"
02
#215000000
1"
0+
1,
12
0;
1<
#220000000
0"
02
#225000000
1"
b01 $
1*
0,
12
b01 4
1:
0<
#230000000
0"
02
#235000000
1"
1)
0*
1+
1.
0/
12
19
0:
1;
1>
0?
#240000000
0"
02
#245000000
1"
0)
0.
1/
12
09
0>
1?
#250000000
0"
02
#255000000
1"
0+
1,
12
0;
1<
#260000000
0"
02
#265000000
1"
b10 $
1'
1*
0,
10
12
b10 4
17
1:
0<
1@
#270000000
0"
02
#275000000
1"
0'
1)
0*
1+
1.
0/
00
12
07
19
0:
1;
1>
0?
0@
#280000000
0"
02
#285000000
1"
0)
0.
1/
12
09
0>
1?
#290000000
0"
02
#295000000
1"
0+
1,
12
0;
1<
#300000000
0"
02
#305000000
1"
b11 $
1+
0,
1-
12
b11 4
1;
0<
1=
#310000000
0"
02
#315000000
1"
1)
0-
1.
0/
12
19
0=
1>
0?
#320000000
0"
02
#325000000
1"
0)
0.
1/
12
09
0>
1?
#330000000
0"
02
#335000000
1"
0+
1,
12
0;
1<
#340000000
0"
02
#345000000
1"
b00 $
1(
0,
12
b00 4
18
0<
#350000000
0"
02
#355000000
1"
0(
1)
1+
1.
0/
12
08
19
1;
1>
0?
#360000000
0"
02
#365000000
1"
0)
0.
1/
12
09
0>
1?
#370000000
0"
02
#375000000
1"
0+
1,
12
0;
1<
#380000000
0"
02
#385000000
1"
b01 $
1*
0,
12
b01 4
1:
0<
#390000000
0"
02
#395000000
1"
1)
0*
1+
1.
0/
12
19
0:
1;
1>
0?
#400000000
0"
02
#405000000
1"
0)
0.
1/
12
09
0>
1?
#410000000
0"
02
#415000000
1"
0+
1,
12
0;
1<
#420000000
0"
02
#425000000
1"
b10 $
1'
1*
0,
10
12
b10 4
17
1:
0<
1@
#430000000
0"
02
#435000000
1"
0'
1)
0*
1+
1.
0/
00
12
07
19
0:
1;
1>
0?
0@
#440000000
0"
02
#445000000
1"
0)
0.
1/
12
09
0>
1?
#450000000
0"
02
#455000000
1"
0+
1,
12
0;
1<
#460000000
0"
02
#465000000
1"
b11 $
1+
0,
1-
12
b11 4
1;
0<
1=
#470000000
0"
02
#475000000
1"
1)
0-
1.
0/
12
19
0=
1>
0?
#480000000
0"
02
#485000000
1"
0)
0.
1/
12
09
0>
1?
#490000000
0"
02
#495000000
1"
0+
1,
12
0;
1<
#500000000
0"
02
#505000000
1"
b00 $
1(
0,
12
b00 4
18
0<
#510000000
0"
02
#515000000
1"
0(
1)
1+
1.
0/
12
08
19
1;
1>
0?
#520000000
0"
02
#525000000
1"
0)
0.
1/
12
09
0>
1?
#530000000
0"
02
#535000000
1"
0+
1,
12
0;
1<
#540000000
0"
02
#545000000
1"
b01 $
1*
0,
12
b01 4
1:
0<
#550000000
0"
02
#555000000
1"
1)
0*
1+
1.
0/
12
19
0:
1;
1>
0?
#560000000
0"
02
#565000000
1"
0)
0.
1/
12
09
0>
1?
#570000000
0"
02
#575000000
1"
0+
1,
12
0;
1<
#580000000
0"
02
#585000000
1"
b10 $
1'
1*
0,
10
12
b10 4
17
1:
0<
1@
#590000000
0"
02
#595000000
1"
0'
1)
0*
1+
1.
0/
00
12
07
19
0:
1;
1>
0?
0@
#600000000
0"
02
#605000000
1"
0)
0.
1/
12
09
0>
1?
#610000000
0"
02
#615000000
1"
0+
1,
12
0;
1<
#620000000
0"
02
#625000000
1"
b11 $
1+
0,
1-
12
b11 4
1;
0<
1=
#630000000
0"
02
#635000000
1"
1)
0-
1.
0/
12
19
0=
1>
0?
#640000000
0"
02
#645000000
1"
0)
0.
1/
12
09
0>
1?
#650000000
0"
02
#655000000
1"
0+
1,
12
0;
1<
#660000000
0"
02
#665000000
1"
b00 $
1(
0,
12
b00 4
18
0<
#670000000
0"
02
#675000000
1"
0(
1)
1+
1.
0/
12
08
19
1;
1>
0?
#680000000
0"
02
#685000000
1"
0)
0.
1/
12
09
0>
1?
#690000000
0"
02
#695000000
1"
0+
1,
12
0;
1<
#700000000
0"
02
#705000000
1"
b01 $
1*
0,
12
b01 4
1:
0<
#710000000
0"
02
#715000000
1"
1)
0*
1+
1.
0/
12
19
0:
1;
1>
0?
#720000000
0"
02
#725000000
1"
0)
0.
1/
12
09
0>
1?
#730000000
0"
02
#735000000
1"
0+
1,
12
0;
1<
#740000000
0"
02
#745000000
1"
b10 $
1'
1*
0,
10
12
b10 4
17
1:
0<
1@
#750000000
0"
02
#755000000
1"
0'
1)
0*
1+
1.
0/
00
12
07
19
0:
1;
1>
0?
0@
#760000000
0"
02
#765000000
1"
0)
0.
1/
12
09
0>
1?
#770000000
0"
02
#775000000
1"
0+
1,
12
0;
1<
#780000000
0"
02
#785000000
1"
b11 $
1+
0,
1-
12
b11 4
1;
0<
1=
#790000000
0"
02
#795000000
1"
1)
0-
1.
0/
12
19
0=
1>
0?
#800000000
0"
02
#805000000
1"
0)
0.
1/
12
09
0>
1?
#810000000
0"
02
#815000000
1"
0+
1,
12
0;
1<
#820000000
0"
02
#825000000
1"
b00 $
1(
0,
12
b00 4
18
0<
#830000000
0"
02
#835000000
1"
0(
1)
1+
1.
0/
12
08
19
1;
1>
0?
#840000000
0"
02
#845000000
1"
0)
0.
1/
12
09
0>
1?
#850000000
0"
02
#855000000
1"
0+
1,
12
0;
1<
#860000000
0"
02
#865000000
1"
b01 $
1*
0,
12
b01 4
1:
0<
#870000000
0"
02
#875000000
1"
1)
0*
1+
1.
0/
12
19
0:
1;
1>
0?
#880000000
0"
02
#885000000
1"
0)
0.
1/
12
09
0>
1?
#890000000
0"
02
#895000000
1"
0+
1,
12
0;
1<
#900000000
0"
02
#905000000
1"
b10 $
1'
1*
0,
10
12
b10 4
17
1:
0<
1@
#910000000
0"
02
#915000000
1"
0'
1)
0*
1+
1.
0/
00
12
07
19
0:
1;
1>
0?
0@
#920000000
0"
02
#925000000
1"
0)
0.
1/
12
09
0>
1?
#930000000
0"
02
#935000000
1"
0+
1,
12
0;
1<
#940000000
0"
02
#945000000
1"
b11 $
1+
0,
1-
12
b11 4
1;
0<
1=
#950000000
0"
02
#955000000
1"
1)
0-
1.
0/
12
19
0=
1>
0?
#960000000
0"
02
#965000000
1"
0)
0.
1/
12
09
0>
1?
#970000000
0"
02
#975000000
1"
0+
1,
12
0;
1<
#980000000
0"
02
#985000000
1"
b00 $
1(
0,
12
b00 4
18
0<
#990000000
0"
02
#995000000
1"
0(
1)
1+
1.
0/
12
08
19
1;
1>
0?
#1000000000
0"
02
#1005000000
1"
0)
0.
1/
12
09
0>
1?
#1010000000
0"
02
#1015000000
1"
0+
1,
12
0;
1<
#1020000000
0"
02
#1025000000
1"
b01 $
1*
0,
12
b01 4
1:
0<
#1030000000
0"
02
#1035000000
1"
1)
0*
1+
1.
0/
12
19
0:
1;
1>
0?
#1040000000
0"
02
#1045000000
1"
0)
0.
1/
12
09
0>
1?
#1050000000
0"
02
#1055000000
1"
0+
1,
12
0;
1<
#1060000000
0"
02
#1065000000
1"
b10 $
1'
1*
0,
10
12
b10 4
17
1:
0<
1@
#1070000000
0"
02
#1075000000
1"
0'
1)
0*
1+
1.
0/
00
12
07
19
0:
1;
1>
0?
0@
#1080000000
0"
02
#1085000000
1"
0)
0.
1/
12
09
0>
1?
#1090000000
0"
02
#1095000000
1"
0+
1,
12
0;
1<
#1100000000
0"
02
#1105000000
1"
b11 $
1+
0,
1-
12
b11 4
1;
0<
1=
#1110000000
0"
02
#1115000000
1"
1)
0-
1.
0/
12
19
0=
1>
0?
#1120000000
0"
02
#1125000000
1"
0)
0.
1/
12
09
0>
1?
#1130000000
0"
02
#1135000000
1"
0+
1,
12
0;
1<
#1140000000
0"
02
#1145000000
1"
b00 $
1(
0,
12
b00 4
18
0<
#1150000000
0"
02
#1155000000
1"
0(
1)
1+
1.
0/
12
08
19
1;
1>
0?
#1160000000
0"
02
#1165000000
1"
0)
0.
1/
12
09
0>
1?
#1170000000
0"
02
#1175000000
1"
0+
1,
12
0;
1<
#1180000000
0"
02
#1185000000
1"
b01 $
1*
0,
12
b01 4
1:
0<
#1190000000
0"
02
#1195000000
1"
1)
0*
1+
1.
0/
12
19
0:
1;
1>
0?
#1200000000
0"
02
#1205000000
1"
0)
0.
1/
12
09
0>
1?
#1210000000
0"
02
#1215000000
1"
0+
1,
12
0;
1<
#1220000000
0"
02
#1225000000
1"
b10 $
1'
1*
0,
10
12
b10 4
17
1:
0<
1@
#1230000000
0"
02
#1235000000
1"
0'
1)
0*
1+
1.
0/
00
12
07
19
0:
1;
1>
0?
0@
#1240000000
0"
02
#1245000000
1"
0)
0.
1/
12
09
0>
1?
#1250000000
0"
02
#1255000000
1"
0+
1,
12
0;
1<
#1260000000
0"
02
#1265000000
1"
b11 $
1+
0,
1-
12
b11 4
1;
0<
1=
#1270000000
0"
02
#1275000000
1"
1)
0-
1.
0/
12
19
0=
1>
0?
#1280000000
0"
02
#1285000000
1"
0)
0.
1/
12
09
0>
1?
#1290000000
0"
02
#1295000000
1"
0+
1,
12
0;
1<
#1300000000
0"
02
#1305000000
1"
b00 $
1(
0,
12
b00 4
18
0<
#1310000000
0"
02
#1315000000
1"
0(
1)
1+
1.
0/
12
08
19
1;
1>
0?
#1320000000
0"
02
#1325000000
1"
0)
0.
1/
12
09
0>
1?
#1330000000
0"
02
#1335000000
1"
0+
1,
12
0;
1<
#1340000000
0"
02
#1345000000
1"
b01 $
1*
0,
12
b01 4
1:
0<
#1350000000
0"
02
#1355000000
1"
1)
0*
1+
1.
0/
12
19
0:
1;
1>
0?
#1360000000
0"
02
#1365000000
1"
0)
0.
1/
12
09
0>
1?
#1370000000
0"
02
#1375000000
1"
0+
1,
12
0;
1<
#1380000000
0"
02
#1385000000
1"
b10 $
1'
1*
0,
10
12
b10 4
17
1:
0<
1@
#1390000000
0"
02
#1395000000
1"
0'
1)
0*
1+
1.
0/
00
12
07
19
0:
1;
1>
0?
0@
#1400000000
0"
02
#1405000000
1"
0)
0.
1/
12
09
0>
1?
#1410000000
0"
02
#1415000000
1"
0+
1,
12
0;
1<
#1420000000
0"
02
#1425000000
1"
b11 $
1+
0,
1-
12
b11 4
1;
0<
1=
#1430000000
0"
02
#1435000000
1"
1)
0-
1.
0/
12
19
0=
1>
0?
#1440000000
0"
02
#1445000000
1"
0)
0.
1/
12
09
0>
1?
#1450000000
0"
02
#1455000000
1"
0+
1,
12
0;
1<
#1460000000
0"
02
#1465000000
1"
b00 $
1(
0,
12
b00 4
18
0<
#1470000000
0"
02
#1475000000
1"
0(
1)
1+
1.
0/
12
08
19
1;
1>
0?
#1480000000
0"
02
#1485000000
1"
0)
0.
1/
12
09
0>
1?
#1490000000
0"
02
#1495000000
1"
0+
1,
12
0;
1<
