vcd/tb_uc_fsm.vcd
$date
  Sun Feb 10 10:47:56 2019
$end
$version
  GHDL v0
$end
$timescale
  1 fs
$end
$var reg 1 ! reset $end
$var reg 1 " clk $end
$var reg 1 # s_carry $end
$var reg 2 $ s_op_code[1:0] $end
$var reg 1 % s_init_carry $end
$var reg 1 & s_init_cpt_add $end
$var reg 1 ' s_ld_carry $end
$var reg 1 ( s_ld_cpt_add $end
$var reg 1 ) s_ld_inst $end
$var reg 1 * s_ld_accu $end
$var reg 1 + s_ld_mem $end
$var reg 1 , s_ld_mem_data $end
$var reg 1 - s_rw_mem_mode $end
$var reg 1 . s_en_cpt_add $end
$var reg 1 / s_selec_mux $end
$var reg 1 0 s_selec_op $end
$scope module uc_fsm_i $end
$var reg 1 1 reset $end
$var reg 1 2 clk $end
$var reg 1 3 i_carry $end
$var reg 2 4 i_op_code[1:0] $end
$var reg 1 5 o_init_carry $end
$var reg 1 6 o_init_cpt_add $end
$var reg 1 7 o_ld_carry $end
$var reg 1 8 o_ld_cpt_add $end
$var reg 1 9 o_ld_inst $end
$var reg 1 : o_ld_accu $end
$var reg 1 ; o_ld_mem $end
$var reg 1 < o_ld_mem_data $end
$var reg 1 = o_rw_mem_mode $end
$var reg 1 > o_en_cpt_add $end
$var reg 1 ? o_selec_mux $end
$var reg 1 @ o_selec_op $end
$comment cur_state is not handled $end
$comment next_state is not handled $end
$upscope $end
$enddefinitions $end
#0
1!
0"
0#
b00 $
U%
U&
U'
U(
U)
U*
U+
U,
U-
U.
U/
U0
11
02
03
b00 4
U5
U6
U7
U8
U9
U:
U;
U<
U=
U>
U?
U@
#5000000
1"
1%
1&
0'
0(
0)
0*
0+
0,
0-
0.
0/
00
12
15
16
07
08
09
0:
0;
0<
0=
0>
0?
0@
#10000000
0"
02
#15000000
0!
1"
01
12
#20000000
0"
02
#25000000
1"
12
#30000000
0"
02
#35000000
1"
0%
0&
1)
1+
1.
12
05
06
19
1;
1>
#40000000
0"
02
#45000000
1"
0)
0+
0.
1/
12
09
0;
0>
1?
#50000000
0"
02
#55000000
1"
1+
1,
12
1;
1<
#60000000
0"
02
#65000000
1"
b01 $
1*
0+
0,
12
b01 4
1:
0;
0<
#70000000
0"
02
#75000000
1"
1)
0*
1+
1.
0/
12
19
0:
1;
1>
0?
#80000000
0"
02
#85000000
1"
0)
0+
0.
1/
12
09
0;
0>
1?
#90000000
0"
02
#95000000
1"
1+
1,
12
1;
1<
#100000000
0"
02
#105000000
1"
b10 $
1'
1*
0+
0,
10
12
b10 4
17
1:
0;
0<
1@
#110000000
0"
02
#115000000
1"
0'
1)
0*
1+
1.
0/
00
12
07
19
0:
1;
1>
0?
0@
#120000000
0"
02
#125000000
1"
0)
0+
0.
1/
12
09
0;
0>
1?
#130000000
0"
02
#135000000
1"
1+
1,
12
1;
1<
#140000000
0"
02
#145000000
1"
b11 $
0,
1-
12
b11 4
0<
1=
#150000000
0"
02
#155000000
1"
1)
0-
1.
0/
12
19
0=
1>
0?
#160000000
0"
02
#165000000
1"
0)
0+
0.
1/
12
09
0;
0>
1?
#170000000
0"
02
#175000000
1"
1+
1,
12
1;
1<
#180000000
0"
02
#185000000
1"
b00 $
1(
0+
0,
0/
12
b00 4
18
0;
0<
0?
#190000000
0"
02
#195000000
1"
0(
1)
1+
1.
12
08
19
1;
1>
#200000000
0"
02
#205000000
1"
0)
0+
0.
1/
12
09
0;
0>
1?
#210000000
0"
02
#215000000
1"
1+
1,
12
1;
1<
#220000000
0"
02
#225000000
1"
b01 $
1*
0+
0,
12
b01 4
1:
0;
0<
#230000000
0"
02
#235000000
1"
1)
0*
1+
1.
0/
12
19
0:
1;
1>
0?
#240000000
0"
02
#245000000
1"
0)
0+
0.
1/
12
09
0;
0>
1?
#250000000
0"
02
#255000000
1"
1+
1,
12
1;
1<
#260000000
0"
02
#265000000
1"
b10 $
1'
1*
0+
0,
10
12
b10 4
17
1:
0;
0<
1@
#270000000
0"
02
#275000000
1"
0'
1)
0*
1+
1.
0/
00
12
07
19
0:
1;
1>
0?
0@
#280000000
0"
02
#285000000
1"
0)
0+
0.
1/
12
09
0;
0>
1?
#290000000
0"
02
#295000000
1"
1+
1,
12
1;
1<
